<?xml version="1.0" encoding="UTF-8" standalone="no"?>
<!-- Created with Inkscape (http://www.inkscape.org/) -->

<svg
   width="137.78091mm"
   height="65.330498mm"
   viewBox="0 0 137.78091 65.330497"
   version="1.1"
   id="svg1"
   inkscape:version="1.3.2 (091e20e, 2023-11-25, custom)"
   sodipodi:docname="bivector_01.svg"
   xmlns:inkscape="http://www.inkscape.org/namespaces/inkscape"
   xmlns:sodipodi="http://sodipodi.sourceforge.net/DTD/sodipodi-0.dtd"
   xmlns="http://www.w3.org/2000/svg"
   xmlns:svg="http://www.w3.org/2000/svg">
  <sodipodi:namedview
     id="namedview1"
     pagecolor="#ffffff"
     bordercolor="#000000"
     borderopacity="0.25"
     inkscape:showpageshadow="2"
     inkscape:pageopacity="0.0"
     inkscape:pagecheckerboard="0"
     inkscape:deskcolor="#d1d1d1"
     inkscape:document-units="mm"
     inkscape:zoom="1.0242632"
     inkscape:cx="179.15317"
     inkscape:cy="211.37145"
     inkscape:window-width="1920"
     inkscape:window-height="1009"
     inkscape:window-x="-8"
     inkscape:window-y="-8"
     inkscape:window-maximized="1"
     inkscape:current-layer="layer6" />
  <defs
     id="defs1">
    <marker
       style="overflow:visible"
       id="marker2"
       refX="3"
       refY="0"
       orient="auto-start-reverse"
       inkscape:stockid="Triangle arrow"
       markerWidth="1"
       markerHeight="1"
       viewBox="0 0 1 1"
       inkscape:isstock="true"
       inkscape:collect="always"
       preserveAspectRatio="xMidYMid">
      <path
         transform="scale(0.5)"
         style="fill:context-stroke;fill-rule:evenodd;stroke:context-stroke;stroke-width:1pt"
         d="M 5.77,0 -2.88,5 V -5 Z"
         id="path2" />
    </marker>
    <marker
       style="overflow:visible"
       id="Triangle"
       refX="3"
       refY="0"
       orient="auto-start-reverse"
       inkscape:stockid="Triangle arrow"
       markerWidth="1"
       markerHeight="1"
       viewBox="0 0 1 1"
       inkscape:isstock="true"
       inkscape:collect="always"
       preserveAspectRatio="xMidYMid">
      <path
         transform="scale(0.5)"
         style="fill:context-stroke;fill-rule:evenodd;stroke:context-stroke;stroke-width:1pt"
         d="M 5.77,0 -2.88,5 V -5 Z"
         id="path135" />
    </marker>
    <marker
       style="overflow:visible"
       id="marker2-4"
       refX="0"
       refY="0"
       orient="auto-start-reverse"
       inkscape:stockid="Triangle arrow"
       markerWidth="1"
       markerHeight="1"
       viewBox="0 0 1 1"
       inkscape:isstock="true"
       inkscape:collect="always"
       preserveAspectRatio="xMidYMid">
      <path
         transform="scale(0.5)"
         style="fill:context-stroke;fill-rule:evenodd;stroke:context-stroke;stroke-width:1pt"
         d="M 5.77,0 -2.88,5 V -5 Z"
         id="path2-8" />
    </marker>
    <marker
       style="overflow:visible"
       id="Triangle-4"
       refX="0"
       refY="0"
       orient="auto-start-reverse"
       inkscape:stockid="Triangle arrow"
       markerWidth="1"
       markerHeight="1"
       viewBox="0 0 1 1"
       inkscape:isstock="true"
       inkscape:collect="always"
       preserveAspectRatio="xMidYMid">
      <path
         transform="scale(0.5)"
         style="fill:context-stroke;fill-rule:evenodd;stroke:context-stroke;stroke-width:1pt"
         d="M 5.77,0 -2.88,5 V -5 Z"
         id="path135-9" />
    </marker>
    <marker
       style="overflow:visible"
       id="marker2-4-3"
       refX="0"
       refY="0"
       orient="auto-start-reverse"
       inkscape:stockid="Triangle arrow"
       markerWidth="1"
       markerHeight="1"
       viewBox="0 0 1 1"
       inkscape:isstock="true"
       inkscape:collect="always"
       preserveAspectRatio="xMidYMid">
      <path
         transform="scale(0.5)"
         style="fill:context-stroke;fill-rule:evenodd;stroke:context-stroke;stroke-width:1pt"
         d="M 5.77,0 -2.88,5 V -5 Z"
         id="path2-8-3" />
    </marker>
    <marker
       style="overflow:visible"
       id="Triangle-4-2"
       refX="0"
       refY="0"
       orient="auto-start-reverse"
       inkscape:stockid="Triangle arrow"
       markerWidth="1"
       markerHeight="1"
       viewBox="0 0 1 1"
       inkscape:isstock="true"
       inkscape:collect="always"
       preserveAspectRatio="xMidYMid">
      <path
         transform="scale(0.5)"
         style="fill:context-stroke;fill-rule:evenodd;stroke:context-stroke;stroke-width:1pt"
         d="M 5.77,0 -2.88,5 V -5 Z"
         id="path135-9-5" />
    </marker>
  </defs>
  <g
     inkscape:label="Layer 1"
     inkscape:groupmode="layer"
     id="layer1"
     transform="translate(-9.9817617,-28.868732)">
    <g
       id="g74">
      <path
         id="path3"
         style="font-variation-settings:normal;opacity:0.275974;vector-effect:none;fill:#d35f5f;fill-opacity:1;stroke:none;stroke-width:0.665;stroke-linecap:butt;stroke-linejoin:miter;stroke-miterlimit:4;stroke-dasharray:none;stroke-dashoffset:0;stroke-opacity:1;-inkscape-stroke:none;marker-start:url(#marker2-4);marker-end:url(#Triangle-4);stop-color:#000000;stop-opacity:1"
         d="M 12.331255,53.479212 35.967486,51.090125 47.194929,31.736515 23.558698,34.125603 Z"
         sodipodi:nodetypes="ccccc" />
      <path
         style="fill:none;stroke:#d40000;stroke-width:0.665;stroke-dasharray:none;marker-start:url(#marker2);marker-end:url(#Triangle)"
         d="M 23.558698,34.125603 12.331255,53.479212 35.967486,51.090125"
         id="path1" />
      <g
         id="g15"
         transform="matrix(0.68240591,0,0,0.64590045,-2.7627706,9.298826)"
         style="stroke:#d40000;stroke-width:1.50625">
        <ellipse
           style="fill:none;stroke:#d40000;stroke-width:1.01283;stroke-dasharray:none"
           id="path4"
           cx="70.339203"
           cy="2.5210145"
           rx="8.0888176"
           ry="11.159492"
           transform="matrix(0.70710678,0.70710678,-0.83891079,0.54426895,0,0)" />
        <path
           style="fill:none;stroke:#d40000;stroke-width:1.00165;stroke-dasharray:none"
           d="M 59.829179,48.658733 56.98424,45.035669"
           id="path5"
           inkscape:transform-center-x="-11.302107"
           inkscape:transform-center-y="-3.1645898"
           sodipodi:nodetypes="cc" />
        <path
           style="fill:none;stroke:#d40000;stroke-width:1.00165;stroke-dasharray:none"
           d="m 55.837528,42.315896 -5.575157,0.452967"
           id="path9"
           inkscape:transform-center-x="-8.2056172"
           inkscape:transform-center-y="-8.3916683"
           sodipodi:nodetypes="cc" />
        <path
           style="fill:none;stroke:#d40000;stroke-width:1.00165;stroke-dasharray:none"
           d="m 45.46359,42.628128 -3.560827,2.761647"
           id="path10"
           inkscape:transform-center-x="-8.2056169"
           inkscape:transform-center-y="-8.3916686"
           sodipodi:nodetypes="cc" />
        <path
           style="fill:none;stroke:#d40000;stroke-width:1.00165;stroke-dasharray:none"
           d="m 35.312908,53.774561 2.947696,3.408637"
           id="path11"
           inkscape:transform-center-x="-8.2056159"
           inkscape:transform-center-y="-8.3916688"
           sodipodi:nodetypes="cc" />
        <path
           style="fill:none;stroke:#d40000;stroke-width:1.00165;stroke-dasharray:none"
           d="m 48.988239,59.826676 4.35384,-2.997585"
           id="path12"
           inkscape:transform-center-x="-8.2056161"
           inkscape:transform-center-y="-8.3916689"
           sodipodi:nodetypes="cc" />
        <path
           style="fill:none;stroke:#d40000;stroke-width:1.00165;stroke-dasharray:none"
           d="m 55.39633,57.536256 2.466591,-5.228007"
           id="path13"
           inkscape:transform-center-x="-8.2056173"
           inkscape:transform-center-y="-8.3916685"
           sodipodi:nodetypes="cc" />
        <path
           style="fill:none;stroke:#d40000;stroke-width:1.00165;stroke-dasharray:none"
           d="m 40.81107,60.065318 5.367877,-0.688849"
           id="path14"
           inkscape:transform-center-x="-8.2056167"
           inkscape:transform-center-y="-8.3916687"
           sodipodi:nodetypes="cc" />
        <path
           style="fill:none;stroke:#d40000;stroke-width:1.00165;stroke-dasharray:none"
           d="m 38.591028,45.753757 -1.37759,4.90179"
           id="path15"
           inkscape:transform-center-x="-8.205617"
           inkscape:transform-center-y="-8.391669"
           sodipodi:nodetypes="cc" />
      </g>
      <text
         xml:space="preserve"
         style="font-size:1.60106px;fill:#000000;stroke:none;stroke-width:0.665;stroke-dasharray:none"
         x="19.337072"
         y="46.648354"
         id="text15"
         transform="matrix(0.99268117,-0.13856121,0.13922629,0.9879392,0,0)"><tspan
           sodipodi:role="line"
           id="tspan15"
           style="fill:#000000;stroke:none;stroke-width:0.665"
           x="19.337072"
           y="46.648354">$\cvec{a}\wedge\cvec{b}$</tspan></text>
      <text
         xml:space="preserve"
         style="font-size:1.60106px;fill:#000000;stroke:none;stroke-width:0.665;stroke-dasharray:none"
         x="14.379044"
         y="58.070248"
         id="text16"
         transform="matrix(0.99268117,-0.13856121,0.13922629,0.9879392,0,0)"><tspan
           sodipodi:role="line"
           id="tspan16"
           style="fill:#000000;stroke:none;stroke-width:0.665"
           x="14.379044"
           y="58.070248">$\cvec{a}$</tspan></text>
      <text
         xml:space="preserve"
         style="font-size:1.60106px;fill:#000000;stroke:none;stroke-width:0.665;stroke-dasharray:none"
         x="8.1987638"
         y="45.086178"
         id="text17"
         transform="matrix(0.99268117,-0.13856121,0.13922629,0.9879392,0,0)"><tspan
           sodipodi:role="line"
           id="tspan17"
           style="fill:#000000;stroke:none;stroke-width:0.665"
           x="8.1987638"
           y="45.086178">$\cvec{b}$</tspan></text>
    </g>
  </g>
  <g
     inkscape:groupmode="layer"
     id="layer2"
     inkscape:label="Layer 2"
     style="display:none">
    <g
       id="g75"
       transform="translate(-9.9817616,-28.868732)">
      <path
         id="path17"
         style="font-variation-settings:normal;opacity:0.275974;vector-effect:none;fill:#d35f5f;fill-opacity:1;stroke:none;stroke-width:0.665;stroke-linecap:butt;stroke-linejoin:miter;stroke-miterlimit:4;stroke-dasharray:none;stroke-dashoffset:0;stroke-opacity:1;-inkscape-stroke:none;marker-start:url(#marker2-4);marker-end:url(#Triangle-4);stop-color:#000000;stop-opacity:1"
         d="M 57.803226,53.479212 81.439468,51.090125 92.66692,31.736515 69.030673,34.125603 Z"
         sodipodi:nodetypes="ccccc" />
      <path
         style="fill:none;stroke:#d40000;stroke-width:0.665;stroke-dasharray:none;marker-start:url(#marker2);marker-end:url(#Triangle)"
         d="M 92.66691,31.736515 81.439468,51.090125 M 57.803226,53.479212 81.439468,51.090125"
         id="path18"
         sodipodi:nodetypes="cccc" />
      <text
         xml:space="preserve"
         style="font-size:1.60106px;fill:#000000;stroke:none;stroke-width:0.665;stroke-dasharray:none"
         x="64.260628"
         y="52.949009"
         id="text26"
         transform="matrix(0.99268117,-0.13856121,0.13922629,0.9879392,0,0)"><tspan
           sodipodi:role="line"
           id="tspan26"
           style="fill:#000000;stroke:none;stroke-width:0.665"
           x="64.260628"
           y="52.949009">$\cvec{a}\wedge\cvec{b}$</tspan></text>
      <text
         xml:space="preserve"
         style="font-size:1.60106px;fill:#000000;stroke:none;stroke-width:0.665;stroke-dasharray:none"
         x="59.302593"
         y="64.370903"
         id="text27"
         transform="matrix(0.99268117,-0.13856121,0.13922629,0.9879392,0,0)"><tspan
           sodipodi:role="line"
           id="tspan27"
           style="fill:#000000;stroke:none;stroke-width:0.665"
           x="59.302593"
           y="64.370903">$\cvec{a}$</tspan></text>
      <text
         xml:space="preserve"
         style="font-size:1.60106px;fill:#000000;stroke:none;stroke-width:0.665;stroke-dasharray:none"
         x="81.337975"
         y="54.425331"
         id="text28"
         transform="matrix(0.99268117,-0.13856121,0.13922629,0.9879392,0,0)"><tspan
           sodipodi:role="line"
           id="tspan28"
           style="fill:#000000;stroke:none;stroke-width:0.665"
           x="81.337975"
           y="54.425331">$\cvec{b}$</tspan></text>
    </g>
  </g>
  <g
     inkscape:groupmode="layer"
     id="layer3"
     inkscape:label="Layer 3"
     style="display:none">
    <g
       id="g76"
       transform="translate(-9.9817616,-28.868732)">
      <path
         id="path28"
         style="font-variation-settings:normal;opacity:0.275974;vector-effect:none;fill:#d35f5f;fill-opacity:1;stroke:none;stroke-width:0.665;stroke-linecap:butt;stroke-linejoin:miter;stroke-miterlimit:4;stroke-dasharray:none;stroke-dashoffset:0;stroke-opacity:1;-inkscape-stroke:none;marker-start:url(#marker2-4);marker-end:url(#Triangle-4);stop-color:#000000;stop-opacity:1"
         d="m 108.62487,53.479212 23.63624,-2.389087 11.22745,-19.35361 -23.63624,2.389088 z"
         sodipodi:nodetypes="ccccc" />
      <path
         style="fill:none;stroke:#d40000;stroke-width:0.665;stroke-dasharray:none;marker-start:url(#marker2);marker-end:url(#Triangle)"
         d="m 143.48855,31.736515 -11.22744,19.35361 m -23.63624,2.389087 23.63624,-2.389087"
         id="path29"
         sodipodi:nodetypes="cccc" />
      <text
         xml:space="preserve"
         style="font-size:1.60106px;fill:#000000;stroke:none;stroke-width:0.665;stroke-dasharray:none"
         x="114.46925"
         y="59.990917"
         id="text29"
         transform="matrix(0.99268117,-0.13856121,0.13922629,0.9879392,0,0)"><tspan
           sodipodi:role="line"
           id="tspan29"
           style="fill:#000000;stroke:none;stroke-width:0.665"
           x="114.46925"
           y="59.990917">$\cvec{a}\wedge\cvec{b}$</tspan></text>
      <text
         xml:space="preserve"
         style="font-size:1.60106px;fill:#000000;stroke:none;stroke-width:0.665;stroke-dasharray:none"
         x="109.51123"
         y="71.412804"
         id="text30"
         transform="matrix(0.99268117,-0.13856121,0.13922629,0.9879392,0,0)"><tspan
           sodipodi:role="line"
           id="tspan30"
           style="fill:#000000;stroke:none;stroke-width:0.665"
           x="109.51123"
           y="71.412804">$\cvec{a}$</tspan></text>
      <text
         xml:space="preserve"
         style="font-size:1.60106px;fill:#000000;stroke:none;stroke-width:0.665;stroke-dasharray:none"
         x="131.01808"
         y="61.393116"
         id="text31"
         transform="matrix(0.99268117,-0.13856121,0.13922629,0.9879392,0,0)"><tspan
           sodipodi:role="line"
           id="tspan31"
           style="fill:#000000;stroke:none;stroke-width:0.665"
           x="131.01808"
           y="61.393116">$\cvec{b}$</tspan></text>
      <path
         style="fill:none;stroke:#d40000;stroke-width:0.665;stroke-dasharray:none;marker-start:url(#marker2);marker-end:url(#Triangle)"
         d="m 108.9383,53.415428 11.22744,-19.353609 m 23.63624,-2.389088 -23.63624,2.389088"
         id="path31"
         sodipodi:nodetypes="cccc" />
      <text
         xml:space="preserve"
         style="font-size:1.60106px;fill:#000000;stroke:none;stroke-width:0.665;stroke-dasharray:none"
         x="120.77451"
         y="48.741634"
         id="text32"
         transform="matrix(0.99268117,-0.13856121,0.13922629,0.9879392,0,0)"><tspan
           sodipodi:role="line"
           id="tspan32"
           style="fill:#000000;stroke:none;stroke-width:0.665"
           x="120.77451"
           y="48.741634">$-\cvec{a}$</tspan></text>
      <text
         xml:space="preserve"
         style="font-size:1.60106px;fill:#000000;stroke:none;stroke-width:0.665;stroke-dasharray:none"
         x="99.835884"
         y="57.019718"
         id="text33"
         transform="matrix(0.99268117,-0.13856121,0.13922629,0.9879392,0,0)"><tspan
           sodipodi:role="line"
           id="tspan33"
           style="fill:#000000;stroke:none;stroke-width:0.665"
           x="99.835884"
           y="57.019718">$-\cvec{b}$</tspan></text>
    </g>
  </g>
  <g
     inkscape:groupmode="layer"
     id="layer4"
     inkscape:label="Layer 4"
     style="display:none">
    <g
       id="g77"
       transform="translate(-9.9817616,-28.868732)">
      <path
         id="path49"
         style="font-variation-settings:normal;opacity:0.133117;vector-effect:none;fill:#d35f5f;fill-opacity:1;stroke:none;stroke-width:0.665;stroke-linecap:butt;stroke-linejoin:miter;stroke-miterlimit:4;stroke-dasharray:none;stroke-dashoffset:0;stroke-opacity:1;-inkscape-stroke:none;marker-start:url(#marker2-4);marker-end:url(#Triangle-4);stop-color:#000000;stop-opacity:1"
         d="M 12.331255,85.456181 35.967486,83.067092 47.194929,63.713485 23.558698,66.102569 Z"
         sodipodi:nodetypes="ccccc" />
      <path
         id="path33"
         style="opacity:0.275974;fill:#d35f5f;stroke:none;stroke-width:0.665;stroke-dasharray:none;marker-start:url(#marker2-4);marker-end:url(#Triangle-4)"
         d="M 12.331255,85.456181 30.353764,92.7439 41.581208,73.390279 23.558698,66.102559 Z"
         sodipodi:nodetypes="ccccc" />
      <path
         style="opacity:0.496753;fill:none;stroke:#d40000;stroke-width:0.665;stroke-dasharray:none;marker-end:url(#Triangle)"
         d="M 12.331255,85.456181 35.967486,83.067092"
         id="path46" />
      <path
         style="opacity:0.457792;fill:#ff00ff;stroke:#d40000;stroke-width:0.665;stroke-dasharray:none;stroke-opacity:1;marker-start:url(#marker2)"
         d="M 47.19493,63.71347 35.967486,83.067092"
         id="path34" />
      <text
         xml:space="preserve"
         style="font-size:1.60106px;fill:#000000;stroke:none;stroke-width:0.665;stroke-dasharray:none"
         x="21.735554"
         y="78.707336"
         id="text42"
         transform="matrix(1.0023804,0.00575704,-0.00578467,0.99759205,0,0)"><tspan
           sodipodi:role="line"
           id="tspan42"
           style="fill:#000000;stroke:none;stroke-width:0.665"
           x="21.735554"
           y="78.707336">$\cvec{a}\wedge\cvec{b}$</tspan></text>
      <text
         xml:space="preserve"
         style="font-size:1.60106px;fill:#000000;stroke:none;stroke-width:0.665;stroke-dasharray:none"
         x="13.108499"
         y="94.603752"
         id="text43"
         transform="matrix(1.002397,3.8232085e-4,-3.8415592e-4,0.99760859,0,0)"><tspan
           sodipodi:role="line"
           id="tspan43"
           style="fill:#000000;stroke:none;stroke-width:0.665"
           x="13.108499"
           y="94.603752">$\cvec{a}-\frac{1}{2}\cvec{b}$</tspan></text>
      <text
         xml:space="preserve"
         style="font-size:1.60106px;fill:#000000;stroke:none;stroke-width:0.665;stroke-dasharray:none"
         x="37.318119"
         y="84.831444"
         id="text44"
         transform="matrix(1.0023877,0.00431599,-0.00433669,0.99759932,0,0)"><tspan
           sodipodi:role="line"
           id="tspan44"
           style="fill:#000000;stroke:none;stroke-width:0.665"
           x="37.318119"
           y="84.831444">$\cvec{b}$</tspan></text>
      <path
         style="fill:none;stroke:#d40000;stroke-width:0.665;stroke-dasharray:none;marker-end:url(#Triangle)"
         d="M 12.331255,85.456181 30.353764,92.7439"
         id="path47"
         sodipodi:nodetypes="cc" />
      <path
         style="fill:none;stroke:#d40000;stroke-width:0.665;stroke-dasharray:none;marker-start:url(#marker2)"
         d="m 23.558698,66.102559 18.02251,7.28772"
         id="path48"
         sodipodi:nodetypes="cc" />
      <path
         style="opacity:0.50974;fill:none;stroke:#d40000;stroke-width:0.665;stroke-dasharray:none;stroke-opacity:1;marker-end:url(#Triangle)"
         d="M 47.194929,63.713485 23.558698,66.102574"
         id="path50" />
      <path
         style="opacity:1;fill:#ff00ff;stroke:#d40000;stroke-width:0.665;stroke-dasharray:none;stroke-opacity:1;marker-start:url(#marker2)"
         d="M 12.331254,85.456181 23.558698,66.102559"
         id="path51" />
      <path
         style="opacity:1;fill:#ff00ff;stroke:#d40000;stroke-width:0.665;stroke-dasharray:none;stroke-opacity:1;marker-start:url(#marker2)"
         d="M 41.581208,73.390279 30.353764,92.7439"
         id="path52" />
    </g>
  </g>
  <g
     inkscape:groupmode="layer"
     id="layer5"
     inkscape:label="Layer 5"
     style="display:none">
    <g
       id="g78"
       transform="translate(-9.9817616,-28.868732)">
      <path
         id="path33-1"
         style="opacity:0.0876623;fill:#d35f5f;stroke:none;stroke-width:0.665;stroke-dasharray:none;marker-start:url(#marker2-4-3);marker-end:url(#Triangle-4-2)"
         d="M 57.979147,85.372546 76.001661,92.660266 87.229103,73.306644 69.206595,66.018925 Z"
         sodipodi:nodetypes="ccccc" />
      <path
         id="path54"
         style="opacity:0.275974;fill:#d35f5f;stroke:none;stroke-width:0.665;stroke-dasharray:none;marker-start:url(#marker2-4);marker-end:url(#Triangle-4)"
         d="M 57.803226,85.456181 75.825744,92.7439 97.209389,77.430246 79.186866,70.142526 Z"
         sodipodi:nodetypes="ccccc" />
      <text
         xml:space="preserve"
         style="font-size:1.60106px;fill:#000000;stroke:none;stroke-width:0.665;stroke-dasharray:none"
         x="67.098045"
         y="78.445595"
         id="text56"
         transform="matrix(1.0023804,0.00575704,-0.00578467,0.99759205,0,0)"><tspan
           sodipodi:role="line"
           id="tspan56"
           style="fill:#000000;stroke:none;stroke-width:0.665"
           x="67.098045"
           y="78.445595">$\cvec{a}\wedge\cvec{b}$</tspan></text>
      <text
         xml:space="preserve"
         style="font-size:1.60106px;fill:#000000;stroke:none;stroke-width:0.665;stroke-dasharray:none"
         x="58.471516"
         y="94.055923"
         id="text57"
         transform="matrix(1.002397,3.8232085e-4,-3.8415592e-4,0.99760859,0,0)"><tspan
           sodipodi:role="line"
           id="tspan57"
           style="fill:#000000;stroke:none;stroke-width:0.665"
           x="58.471516"
           y="94.055923">$\cvec{a}-\frac{1}{2}\cvec{b}$</tspan></text>
      <text
         xml:space="preserve"
         style="font-size:1.60106px;fill:#000000;stroke:none;stroke-width:0.665;stroke-dasharray:none"
         x="85.439552"
         y="88.097961"
         id="text58"
         transform="matrix(1.0023877,0.00431599,-0.00433669,0.99759933,0,0)"><tspan
           sodipodi:role="line"
           id="tspan58"
           style="fill:#000000;stroke:none;stroke-width:0.665"
           x="85.439552"
           y="88.097961">$\frac{1}{2}\cvec{a}+\frac{3}{4}\cvec{b}$</tspan></text>
      <path
         style="fill:none;stroke:#d40000;stroke-width:0.665;stroke-dasharray:none;marker-end:url(#Triangle)"
         d="M 57.803226,85.456181 75.825744,92.7439"
         id="path58"
         sodipodi:nodetypes="cc" />
      <path
         style="opacity:0.457792;fill:none;stroke:#d40000;stroke-width:0.665;stroke-dasharray:none;marker-start:url(#marker2)"
         d="m 69.030673,66.102559 18.022524,7.28772"
         id="path59"
         sodipodi:nodetypes="cc" />
      <path
         style="opacity:1;fill:#ff00ff;stroke:#d40000;stroke-width:0.665;stroke-dasharray:none;stroke-opacity:1;marker-start:url(#marker2)"
         d="M 57.803226,85.456181 69.030673,66.102559"
         id="path61" />
      <path
         style="opacity:0.477273;fill:#ff00ff;stroke:#d40000;stroke-width:0.665;stroke-dasharray:none;stroke-opacity:1;marker-start:url(#marker2)"
         d="M 87.053197,73.390279 75.825744,92.7439"
         id="path62" />
      <path
         style="opacity:1;fill:#ff00ff;stroke:#d40000;stroke-width:0.665;stroke-dasharray:none;stroke-opacity:1;marker-start:url(#marker2)"
         d="M 97.209389,77.430246 75.825744,92.7439"
         id="path64"
         sodipodi:nodetypes="cc" />
      <path
         style="fill:none;stroke:#d40000;stroke-width:0.665;stroke-dasharray:none;marker-start:url(#marker2)"
         d="m 79.186866,70.142526 18.022523,7.28772"
         id="path65"
         sodipodi:nodetypes="cc" />
    </g>
  </g>
  <g
     inkscape:groupmode="layer"
     id="layer6"
     inkscape:label="Layer 6"
     style="display:none">
    <g
       id="g79"
       transform="translate(-9.9817616,-28.868732)">
      <g
         id="g73"
         transform="matrix(1.0307767,0,0,0.98172179,71.143858,27.709883)"
         style="stroke:#d40000;stroke-width:0.994086">
        <ellipse
           style="fill:none;stroke:#d40000;stroke-width:0.668441;stroke-dasharray:none"
           id="ellipse65"
           cx="70.339203"
           cy="2.5210145"
           rx="8.0888176"
           ry="11.159492"
           transform="matrix(0.70710678,0.70710678,-0.83891079,0.54426895,0,0)" />
        <path
           style="fill:none;stroke:#d40000;stroke-width:0.661067;stroke-dasharray:none"
           d="M 59.829179,48.658733 56.98424,45.035669"
           id="path66"
           inkscape:transform-center-x="-11.302107"
           inkscape:transform-center-y="-3.1645898"
           sodipodi:nodetypes="cc" />
        <path
           style="fill:none;stroke:#d40000;stroke-width:0.661067;stroke-dasharray:none"
           d="m 55.837528,42.315896 -5.575157,0.452967"
           id="path67"
           inkscape:transform-center-x="-8.2056172"
           inkscape:transform-center-y="-8.3916683"
           sodipodi:nodetypes="cc" />
        <path
           style="fill:none;stroke:#d40000;stroke-width:0.661067;stroke-dasharray:none"
           d="m 45.46359,42.628128 -3.560827,2.761647"
           id="path68"
           inkscape:transform-center-x="-8.2056169"
           inkscape:transform-center-y="-8.3916686"
           sodipodi:nodetypes="cc" />
        <path
           style="fill:none;stroke:#d40000;stroke-width:0.661067;stroke-dasharray:none"
           d="m 35.312908,53.774561 2.947696,3.408637"
           id="path69"
           inkscape:transform-center-x="-8.2056159"
           inkscape:transform-center-y="-8.3916688"
           sodipodi:nodetypes="cc" />
        <path
           style="fill:none;stroke:#d40000;stroke-width:0.661067;stroke-dasharray:none"
           d="m 48.988239,59.826676 4.35384,-2.997585"
           id="path70"
           inkscape:transform-center-x="-8.2056161"
           inkscape:transform-center-y="-8.3916689"
           sodipodi:nodetypes="cc" />
        <path
           style="fill:none;stroke:#d40000;stroke-width:0.661067;stroke-dasharray:none"
           d="m 55.39633,57.536256 2.466591,-5.228007"
           id="path71"
           inkscape:transform-center-x="-8.2056173"
           inkscape:transform-center-y="-8.3916685"
           sodipodi:nodetypes="cc" />
        <path
           style="fill:none;stroke:#d40000;stroke-width:0.661067;stroke-dasharray:none"
           d="m 40.81107,60.065318 5.367877,-0.688849"
           id="path72"
           inkscape:transform-center-x="-8.2056167"
           inkscape:transform-center-y="-8.3916687"
           sodipodi:nodetypes="cc" />
        <path
           style="fill:none;stroke:#d40000;stroke-width:0.661067;stroke-dasharray:none"
           d="m 38.591028,45.753757 -1.37759,4.90179"
           id="path73"
           inkscape:transform-center-x="-8.205617"
           inkscape:transform-center-y="-8.391669"
           sodipodi:nodetypes="cc" />
      </g>
      <text
         xml:space="preserve"
         style="font-size:1.60106px;fill:#000000;stroke:none;stroke-width:0.665;stroke-dasharray:none"
         x="103.77158"
         y="94.526566"
         id="text73"
         transform="matrix(0.99268117,-0.13856121,0.13922629,0.9879392,0,0)"><tspan
           sodipodi:role="line"
           id="tspan73"
           style="fill:#000000;stroke:none;stroke-width:0.665"
           x="103.77158"
           y="94.526566">$\cvec{a}\wedge\cvec{b}$</tspan></text>
    </g>
  </g>
</svg>
