<?xml version="1.0" encoding="UTF-8" standalone="no"?>
<!-- Created with Inkscape (http://www.inkscape.org/) -->

<svg
   width="133.77599mm"
   height="62.650116mm"
   viewBox="0 0 133.77598 62.650117"
   version="1.1"
   id="svg1"
   inkscape:version="1.3.2 (091e20e, 2023-11-25, custom)"
   sodipodi:docname="bivector_addition.svg"
   xmlns:inkscape="http://www.inkscape.org/namespaces/inkscape"
   xmlns:sodipodi="http://sodipodi.sourceforge.net/DTD/sodipodi-0.dtd"
   xmlns="http://www.w3.org/2000/svg"
   xmlns:svg="http://www.w3.org/2000/svg">
  <sodipodi:namedview
     id="namedview1"
     pagecolor="#ffffff"
     bordercolor="#000000"
     borderopacity="0.25"
     inkscape:showpageshadow="2"
     inkscape:pageopacity="0.0"
     inkscape:pagecheckerboard="0"
     inkscape:deskcolor="#d1d1d1"
     inkscape:document-units="mm"
     inkscape:zoom="1.0242632"
     inkscape:cx="188.91628"
     inkscape:cy="174.75976"
     inkscape:window-width="1154"
     inkscape:window-height="1000"
     inkscape:window-x="-7"
     inkscape:window-y="0"
     inkscape:window-maximized="0"
     inkscape:current-layer="layer3" />
  <defs
     id="defs1">
    <marker
       style="overflow:visible"
       id="Triangle"
       refX="3"
       refY="0"
       orient="auto-start-reverse"
       inkscape:stockid="Triangle arrow"
       markerWidth="1"
       markerHeight="1"
       viewBox="0 0 1 1"
       inkscape:isstock="true"
       inkscape:collect="always"
       preserveAspectRatio="xMidYMid">
      <path
         transform="scale(0.5)"
         style="fill:context-stroke;fill-rule:evenodd;stroke:context-stroke;stroke-width:1pt"
         d="M 5.77,0 -2.88,5 V -5 Z"
         id="path135" />
    </marker>
    <marker
       style="overflow:visible"
       id="marker2-4"
       refX="0"
       refY="0"
       orient="auto-start-reverse"
       inkscape:stockid="Triangle arrow"
       markerWidth="1"
       markerHeight="1"
       viewBox="0 0 1 1"
       inkscape:isstock="true"
       inkscape:collect="always"
       preserveAspectRatio="xMidYMid">
      <path
         transform="scale(0.5)"
         style="fill:context-stroke;fill-rule:evenodd;stroke:context-stroke;stroke-width:1pt"
         d="M 5.77,0 -2.88,5 V -5 Z"
         id="path2-8" />
    </marker>
    <marker
       style="overflow:visible"
       id="Triangle-4"
       refX="0"
       refY="0"
       orient="auto-start-reverse"
       inkscape:stockid="Triangle arrow"
       markerWidth="1"
       markerHeight="1"
       viewBox="0 0 1 1"
       inkscape:isstock="true"
       inkscape:collect="always"
       preserveAspectRatio="xMidYMid">
      <path
         transform="scale(0.5)"
         style="fill:context-stroke;fill-rule:evenodd;stroke:context-stroke;stroke-width:1pt"
         d="M 5.77,0 -2.88,5 V -5 Z"
         id="path135-9" />
    </marker>
    <marker
       style="overflow:visible"
       id="marker2-4-9"
       refX="0"
       refY="0"
       orient="auto-start-reverse"
       inkscape:stockid="Triangle arrow"
       markerWidth="1"
       markerHeight="1"
       viewBox="0 0 1 1"
       inkscape:isstock="true"
       inkscape:collect="always"
       preserveAspectRatio="xMidYMid">
      <path
         transform="scale(0.5)"
         style="fill:context-stroke;fill-rule:evenodd;stroke:context-stroke;stroke-width:1pt"
         d="M 5.77,0 -2.88,5 V -5 Z"
         id="path2-8-1" />
    </marker>
    <marker
       style="overflow:visible"
       id="Triangle-4-9"
       refX="0"
       refY="0"
       orient="auto-start-reverse"
       inkscape:stockid="Triangle arrow"
       markerWidth="1"
       markerHeight="1"
       viewBox="0 0 1 1"
       inkscape:isstock="true"
       inkscape:collect="always"
       preserveAspectRatio="xMidYMid">
      <path
         transform="scale(0.5)"
         style="fill:context-stroke;fill-rule:evenodd;stroke:context-stroke;stroke-width:1pt"
         d="M 5.77,0 -2.88,5 V -5 Z"
         id="path135-9-3" />
    </marker>
    <marker
       style="overflow:visible"
       id="Triangle-3"
       refX="3"
       refY="0"
       orient="auto-start-reverse"
       inkscape:stockid="Triangle arrow"
       markerWidth="1"
       markerHeight="1"
       viewBox="0 0 1 1"
       inkscape:isstock="true"
       inkscape:collect="always"
       preserveAspectRatio="xMidYMid">
      <path
         transform="scale(0.5)"
         style="fill:context-stroke;fill-rule:evenodd;stroke:context-stroke;stroke-width:1pt"
         d="M 5.77,0 -2.88,5 V -5 Z"
         id="path135-7" />
    </marker>
    <marker
       style="overflow:visible"
       id="Triangle-3-4"
       refX="3"
       refY="0"
       orient="auto-start-reverse"
       inkscape:stockid="Triangle arrow"
       markerWidth="1"
       markerHeight="1"
       viewBox="0 0 1 1"
       inkscape:isstock="true"
       inkscape:collect="always"
       preserveAspectRatio="xMidYMid">
      <path
         transform="scale(0.5)"
         style="fill:context-stroke;fill-rule:evenodd;stroke:context-stroke;stroke-width:1pt"
         d="M 5.77,0 -2.88,5 V -5 Z"
         id="path135-7-9" />
    </marker>
  </defs>
  <g
     inkscape:label="Layer 1"
     inkscape:groupmode="layer"
     id="layer1"
     transform="translate(6.943752,-32.866955)">
    <g
       id="g56">
      <g
         id="g74"
         transform="translate(6.6669741,8.3404211)">
        <path
           id="path3"
           style="font-variation-settings:normal;opacity:0.275974;vector-effect:none;fill:#d35f5f;fill-opacity:1;stroke:none;stroke-width:0.665;stroke-linecap:butt;stroke-linejoin:miter;stroke-miterlimit:4;stroke-dasharray:none;stroke-dashoffset:0;stroke-opacity:1;-inkscape-stroke:none;marker-start:url(#marker2-4);marker-end:url(#Triangle-4);stop-color:#000000;stop-opacity:1"
           d="M 12.331255,53.479212 35.967486,51.090125 47.194929,31.736515 23.558698,34.125603 Z"
           sodipodi:nodetypes="ccccc" />
        <path
           style="fill:none;stroke:#d40000;stroke-width:0.665;stroke-dasharray:none;marker-end:url(#Triangle)"
           d="M 12.331255,53.479212 35.967486,51.090125"
           id="path9" />
        <path
           style="fill:none;stroke:#d40000;stroke-width:0.665;stroke-dasharray:none;marker-end:url(#Triangle)"
           d="M 23.558698,34.125603 12.331255,53.479212"
           id="path1" />
        <text
           xml:space="preserve"
           style="font-size:1.60106px;text-align:center;text-anchor:middle;fill:#000000;stroke:none;stroke-width:0.665;stroke-dasharray:none"
           x="29.828947"
           y="42.863598"
           id="text15"
           transform="matrix(1.0022922,0.00504115,-0.00370377,0.99769441,0,0)"><tspan
             sodipodi:role="line"
             id="tspan15"
             style="text-align:center;text-anchor:middle;fill:#000000;stroke:none;stroke-width:0.665"
             x="29.828947"
             y="42.863598">$\cvec{a}\wedge\cvec{b}$</tspan></text>
        <text
           xml:space="preserve"
           style="font-size:1.60106px;text-align:center;text-anchor:middle;fill:#000000;stroke:none;stroke-width:0.665;stroke-dasharray:none"
           x="26.560434"
           y="55.431435"
           id="text16"
           transform="matrix(1.002304,-0.00134346,0.00265153,0.99769774,0,0)"><tspan
             sodipodi:role="line"
             id="tspan16"
             style="text-align:center;text-anchor:middle;fill:#000000;stroke:none;stroke-width:0.665"
             x="26.560434"
             y="55.431435">$\cvec{a}$</tspan></text>
        <text
           xml:space="preserve"
           style="font-size:1.60106px;fill:#000000;stroke:none;stroke-width:0.665;stroke-dasharray:none"
           x="41.581936"
           y="44.642849"
           id="text17"
           transform="matrix(1.0023028,-0.00206928,0.00337401,0.99769556,0,0)"><tspan
             sodipodi:role="line"
             id="tspan17"
             style="fill:#000000;stroke:none;stroke-width:0.665"
             x="41.581936"
             y="44.642849">$\cvec{b}$</tspan></text>
        <path
           style="fill:none;stroke:#d40000;stroke-width:0.665;stroke-dasharray:none;marker-end:url(#Triangle)"
           d="M 47.194929,31.736515 23.558698,34.125602"
           id="path10" />
        <path
           style="fill:none;stroke:#d40000;stroke-width:0.665;stroke-dasharray:none;marker-end:url(#Triangle)"
           d="M 35.967486,51.090124 47.194929,31.736515"
           id="path11" />
      </g>
      <g
         id="g74-3"
         transform="rotate(-12.561355,163.35965,142.10249)">
        <path
           id="path3-0"
           style="font-variation-settings:normal;opacity:0.275974;vector-effect:none;fill:#5f86d3;fill-opacity:1;stroke:none;stroke-width:0.665;stroke-linecap:butt;stroke-linejoin:miter;stroke-miterlimit:4;stroke-dasharray:none;stroke-dashoffset:0;stroke-opacity:1;-inkscape-stroke:none;marker-start:url(#marker2-4-9);marker-end:url(#Triangle-4-9);stop-color:#000000;stop-opacity:1"
           d="M 18.146143,52.993345 41.494342,50.628325 39.914028,32.344876 16.56583,34.709897 Z"
           sodipodi:nodetypes="ccccc" />
        <path
           style="fill:none;stroke:#0028d4;stroke-width:0.665;stroke-dasharray:none;stroke-opacity:1;marker-end:url(#Triangle-3)"
           d="m 18.146143,52.993345 23.348199,-2.36502"
           id="path8" />
        <path
           style="fill:none;stroke:#0028d4;stroke-width:0.665;stroke-dasharray:none;stroke-opacity:1;marker-end:url(#Triangle-3)"
           d="m 16.56583,34.709897 1.580313,18.283448"
           id="path1-6" />
        <text
           xml:space="preserve"
           style="font-size:1.60106px;fill:#000000;stroke:none;stroke-width:0.665;stroke-dasharray:none"
           x="31.770899"
           y="24.081514"
           id="text16-3"
           transform="matrix(0.97756958,0.22129806,-0.21899963,0.97336888,0,0)"><tspan
             sodipodi:role="line"
             id="tspan16-2"
             style="fill:#000000;stroke:none;stroke-width:0.665"
             x="31.770899"
             y="24.081514">$\cvec{c}$</tspan></text>
        <text
           xml:space="preserve"
           style="font-size:1.60106px;fill:#000000;stroke:none;stroke-width:0.665;stroke-dasharray:none"
           x="19.799311"
           y="39.293705"
           id="text17-9"
           transform="matrix(0.9784451,0.21739434,-0.2151127,0.97423527,0,0)"><tspan
             sodipodi:role="line"
             id="tspan17-7"
             style="fill:#000000;stroke:none;stroke-width:0.665"
             x="19.799311"
             y="39.293705">$\cvec{d}$</tspan></text>
        <path
           style="fill:none;stroke:#0028d4;stroke-width:0.665;stroke-dasharray:none;stroke-opacity:1;marker-end:url(#Triangle-3)"
           d="m 39.914029,32.344877 -23.3482,2.36502"
           id="path7" />
        <path
           style="fill:none;stroke:#0028d4;stroke-width:0.665;stroke-dasharray:none;stroke-opacity:1;marker-end:url(#Triangle-3)"
           d="M 41.494342,50.628324 39.914029,32.344877"
           id="path6" />
        <text
           xml:space="preserve"
           style="font-size:1.60106px;text-align:center;text-anchor:middle;fill:#000000;stroke:none;stroke-width:0.665;stroke-dasharray:none"
           x="37.692448"
           y="36.282207"
           id="text23-0"
           transform="matrix(0.9784796,0.21723901,-0.21495805,0.9742694,0,0)"><tspan
             sodipodi:role="line"
             id="tspan23-0"
             style="text-align:center;text-anchor:middle;fill:#000000;stroke:none;stroke-width:0.665"
             x="37.692448"
             y="36.282207">$\cvec{c}\wedge\cvec{d}$</tspan></text>
      </g>
    </g>
  </g>
  <g
     inkscape:groupmode="layer"
     id="layer2"
     inkscape:label="Layer 2"
     style="display:inline"
     transform="translate(16.925514,-3.9982232)">
    <g
       id="g57"
       transform="translate(-9.981762,-28.868731)">
      <g
         id="g20"
         transform="translate(75.458645,1.4612546)">
        <path
           id="path12"
           style="font-variation-settings:normal;opacity:0.275974;vector-effect:none;fill:#d35f5f;fill-opacity:1;stroke:none;stroke-width:0.665;stroke-linecap:butt;stroke-linejoin:miter;stroke-miterlimit:4;stroke-dasharray:none;stroke-dashoffset:0;stroke-opacity:1;-inkscape-stroke:none;marker-start:url(#marker2-4);marker-end:url(#Triangle-4);stop-color:#000000;stop-opacity:1"
           d="M 12.331255,53.479212 35.967486,51.090125 47.194929,31.736515 23.558698,34.125603 Z"
           sodipodi:nodetypes="ccccc" />
        <path
           style="fill:none;stroke:#d40000;stroke-width:0.665;stroke-dasharray:none;marker-end:url(#Triangle)"
           d="M 12.331255,53.479212 35.967486,51.090125"
           id="path13" />
        <path
           style="fill:none;stroke:#d40000;stroke-width:0.665;stroke-dasharray:none;marker-end:url(#Triangle)"
           d="M 23.558698,34.125603 12.331255,53.479212"
           id="path14" />
        <path
           style="fill:none;stroke:#d40000;stroke-width:0.665;stroke-dasharray:none;marker-end:url(#Triangle)"
           d="M 47.194929,31.736515 23.558698,34.125602"
           id="path19" />
        <path
           style="fill:none;stroke:#d40000;stroke-width:0.665;stroke-dasharray:none;marker-end:url(#Triangle)"
           d="M 35.967486,51.090124 47.194929,31.736515"
           id="path20" />
      </g>
      <text
         xml:space="preserve"
         style="font-size:1.60106px;text-align:center;text-anchor:middle;fill:#000000;stroke:none;stroke-width:0.665;stroke-dasharray:none"
         x="105.45138"
         y="44.01894"
         id="text30"
         transform="matrix(1.0022922,0.00504115,-0.00370377,0.99769441,0,0)"><tspan
           sodipodi:role="line"
           id="tspan30"
           style="text-align:center;text-anchor:middle;fill:#000000;stroke:none;stroke-width:0.665"
           x="105.45138"
           y="44.01894">$\cvec{a}\wedge\cvec{b}$</tspan></text>
      <text
         xml:space="preserve"
         style="font-size:1.60106px;text-align:center;text-anchor:middle;fill:#000000;stroke:none;stroke-width:0.665;stroke-dasharray:none"
         x="102.17338"
         y="57.07069"
         id="text31"
         transform="matrix(1.002304,-0.00134346,0.00265153,0.99769774,0,0)"><tspan
           sodipodi:role="line"
           id="tspan31"
           style="text-align:center;text-anchor:middle;fill:#000000;stroke:none;stroke-width:0.665"
           x="102.17338"
           y="57.07069">$\cvec{a}$</tspan></text>
      <text
         xml:space="preserve"
         style="font-size:1.60106px;fill:#000000;stroke:none;stroke-width:0.665;stroke-dasharray:none"
         x="117.1936"
         y="46.33712"
         id="text32"
         transform="matrix(1.0023028,-0.00206928,0.00337401,0.99769553,0,0)"><tspan
           sodipodi:role="line"
           id="tspan32"
           style="fill:#000000;stroke:none;stroke-width:0.665"
           x="117.1936"
           y="46.33712">$\cvec{b}$</tspan></text>
      <g
         id="g26"
         transform="rotate(-12.561355,84.19397,-234.53986)">
        <path
           id="path21"
           style="font-variation-settings:normal;opacity:0.275974;vector-effect:none;fill:#5f86d3;fill-opacity:1;stroke:none;stroke-width:0.665;stroke-linecap:butt;stroke-linejoin:miter;stroke-miterlimit:4;stroke-dasharray:none;stroke-dashoffset:0;stroke-opacity:1;-inkscape-stroke:none;marker-start:url(#marker2-4-9);marker-end:url(#Triangle-4-9);stop-color:#000000;stop-opacity:1"
           d="M -0.69889487,51.009557 24.291959,49.355912 39.914028,32.344876 14.280598,35.133225 Z"
           sodipodi:nodetypes="ccccc" />
        <path
           style="fill:none;stroke:#0028d4;stroke-width:0.665;stroke-dasharray:none;stroke-opacity:1;marker-end:url(#Triangle-3)"
           d="M 14.280598,35.133225 -0.8872213,51.58178"
           id="path28" />
        <text
           xml:space="preserve"
           style="font-size:1.60106px;text-align:center;text-anchor:middle;fill:#000000;stroke:none;stroke-width:0.665;stroke-dasharray:none"
           x="27.749056"
           y="37.428257"
           id="text23"
           transform="matrix(0.9784796,0.21723901,-0.21495805,0.9742694,0,0)"><tspan
             sodipodi:role="line"
             id="tspan23"
             style="text-align:center;text-anchor:middle;fill:#000000;stroke:none;stroke-width:0.665"
             x="27.749056"
             y="37.428257">$\cvec{c}\wedge\cvec{d}$</tspan></text>
        <text
           xml:space="preserve"
           style="font-size:1.60106px;text-align:end;text-anchor:end;fill:#000000;stroke:none;stroke-width:0.665;stroke-dasharray:none"
           x="14.400901"
           y="40.750965"
           id="text24"
           transform="matrix(0.97690557,0.22421112,-0.22190019,0.97271173,0,0)"><tspan
             sodipodi:role="line"
             id="tspan24"
             style="text-align:end;text-anchor:end;fill:#000000;stroke:none;stroke-width:0.665"
             x="14.400901"
             y="40.750965">$-\cvec{b}$</tspan></text>
        <text
           xml:space="preserve"
           style="font-size:1.60106px;text-align:center;text-anchor:middle;fill:#000000;stroke:none;stroke-width:0.665;stroke-dasharray:none"
           x="32.717545"
           y="25.119696"
           id="text25"
           transform="matrix(0.97750985,0.22156172,-0.21926216,0.97330978,0,0)"><tspan
             sodipodi:role="line"
             id="tspan25"
             style="text-align:center;text-anchor:middle;fill:#000000;stroke:none;stroke-width:0.665"
             x="32.717545"
             y="25.119696">$\gamma\cvec{c}$</tspan></text>
        <path
           style="fill:none;stroke:#0028d4;stroke-width:0.665;stroke-dasharray:none;stroke-opacity:1;marker-end:url(#Triangle-3)"
           d="M 39.914029,32.344877 14.280598,35.133225"
           id="path25"
           sodipodi:nodetypes="cc" />
        <path
           style="fill:none;stroke:#0028d4;stroke-width:0.665;stroke-dasharray:none;stroke-opacity:1;marker-end:url(#Triangle-3)"
           d="M 24.291959,49.355912 39.459779,32.907358"
           id="path29" />
        <path
           style="fill:none;stroke:#0028d4;stroke-width:0.665;stroke-dasharray:none;stroke-opacity:1;marker-end:url(#Triangle-3)"
           d="M -1.0639918,51.544614 24.56944,48.756266"
           id="path30"
           sodipodi:nodetypes="cc" />
      </g>
    </g>
  </g>
  <g
     inkscape:groupmode="layer"
     id="layer3"
     inkscape:label="Layer 3"
     style="display:inline"
     transform="translate(16.925514,-3.9982232)">
    <g
       id="g58"
       transform="translate(-9.981762,-28.868731)">
      <g
         id="g46"
         transform="translate(68.376736,37.492497)">
        <path
           id="path42"
           style="font-variation-settings:normal;opacity:0.275974;vector-effect:none;fill:#d35f5f;fill-opacity:1;stroke:none;stroke-width:0.665;stroke-linecap:butt;stroke-linejoin:miter;stroke-miterlimit:4;stroke-dasharray:none;stroke-dashoffset:0;stroke-opacity:1;-inkscape-stroke:none;marker-start:url(#marker2-4);marker-end:url(#Triangle-4);stop-color:#000000;stop-opacity:1"
           d="M 12.331255,53.479212 35.967486,51.090125 47.194929,31.736515 23.558698,34.125603 Z"
           sodipodi:nodetypes="ccccc" />
        <path
           style="fill:none;stroke:#d40000;stroke-width:0.665;stroke-dasharray:none;marker-end:url(#Triangle)"
           d="M 12.331255,53.479212 35.967486,51.090125"
           id="path43" />
        <path
           style="fill:none;stroke:#d40000;stroke-width:0.665;stroke-dasharray:none;marker-end:url(#Triangle)"
           d="M 23.558698,34.125603 12.331255,53.479212"
           id="path44" />
        <path
           style="fill:none;stroke:#d40000;stroke-width:0.665;stroke-dasharray:none;marker-end:url(#Triangle)"
           d="M 47.194929,31.736515 23.558698,34.125602"
           id="path45" />
        <path
           style="fill:none;stroke:#d40000;stroke-width:0.665;stroke-dasharray:none;marker-end:url(#Triangle)"
           d="M 35.967486,51.090124 47.194929,31.736515"
           id="path46" />
      </g>
      <text
         xml:space="preserve"
         style="font-size:1.60106px;text-align:center;text-anchor:middle;fill:#000000;stroke:none;stroke-width:0.665;stroke-dasharray:none"
         x="98.930305"
         y="80.315155"
         id="text46"
         transform="matrix(1.0022922,0.00504115,-0.00370377,0.99769441,0,0)"><tspan
           sodipodi:role="line"
           id="tspan46"
           style="text-align:center;text-anchor:middle;fill:#000000;stroke:none;stroke-width:0.665"
           x="98.930305"
           y="80.315155">$\cvec{a}\wedge\cvec{b}$</tspan></text>
      <text
         xml:space="preserve"
         style="font-size:1.60106px;text-align:center;text-anchor:middle;fill:#000000;stroke:none;stroke-width:0.665;stroke-dasharray:none"
         x="95.012154"
         y="93.175453"
         id="text47"
         transform="matrix(1.002304,-0.00134346,0.00265153,0.99769774,0,0)"><tspan
           sodipodi:role="line"
           id="tspan47"
           style="text-align:center;text-anchor:middle;fill:#000000;stroke:none;stroke-width:0.665"
           x="95.012154"
           y="93.175453">$\cvec{a}$</tspan></text>
      <text
         xml:space="preserve"
         style="font-size:1.60106px;fill:#000000;stroke:none;stroke-width:0.665;stroke-dasharray:none"
         x="110.00634"
         y="82.436668"
         id="text48"
         transform="matrix(1.0023028,-0.00206928,0.00337401,0.99769553,0,0)"><tspan
           sodipodi:role="line"
           id="tspan48"
           style="fill:#000000;stroke:none;stroke-width:0.665"
           x="110.00634"
           y="82.436668">$\cvec{b}$</tspan></text>
      <g
         id="g53"
         transform="rotate(-12.561355,147.92143,-592.49388)">
        <path
           id="path48"
           style="font-variation-settings:normal;opacity:0.275974;vector-effect:none;fill:#5f86d3;fill-opacity:1;stroke:none;stroke-width:0.665;stroke-linecap:butt;stroke-linejoin:miter;stroke-miterlimit:4;stroke-dasharray:none;stroke-dashoffset:0;stroke-opacity:1;-inkscape-stroke:none;marker-start:url(#marker2-4-9);marker-end:url(#Triangle-4-9);stop-color:#000000;stop-opacity:1"
           d="m -86.958133,57.93877 20.177212,2.617841 15.622069,-17.011036 -21.016209,-2.096553 z"
           sodipodi:nodetypes="ccccc" />
        <text
           xml:space="preserve"
           style="font-size:1.60106px;text-align:center;text-anchor:middle;fill:#000000;stroke:none;stroke-width:0.665;stroke-dasharray:none"
           x="-56.29594"
           y="65.557304"
           id="text49"
           transform="matrix(0.9784796,0.21723901,-0.21495805,0.9742694,0,0)"><tspan
             sodipodi:role="line"
             id="tspan49"
             style="text-align:center;text-anchor:middle;fill:#000000;stroke:none;stroke-width:0.665"
             x="-56.29594"
             y="65.557304">$\cvec{c}\wedge\cvec{d}$</tspan></text>
        <text
           xml:space="preserve"
           style="font-size:1.60106px;text-align:end;text-anchor:end;fill:#000000;stroke:none;stroke-width:0.665;stroke-dasharray:none"
           x="-68.290092"
           y="67.091606"
           id="text50"
           transform="matrix(0.97690557,0.22421112,-0.22190019,0.97271173,0,0)"><tspan
             sodipodi:role="line"
             id="tspan50"
             style="text-align:end;text-anchor:end;fill:#000000;stroke:none;stroke-width:0.665"
             x="-68.290092"
             y="67.091606">$-\cvec{b}$</tspan></text>
        <text
           xml:space="preserve"
           style="font-size:1.60106px;text-align:center;text-anchor:middle;fill:#000000;stroke:none;stroke-width:0.665;stroke-dasharray:none"
           x="-60.978706"
           y="77.609642"
           id="text51"
           transform="matrix(0.97750985,0.22156172,-0.21926216,0.97330978,0,0)"><tspan
             sodipodi:role="line"
             id="tspan51"
             style="text-align:center;text-anchor:middle;fill:#000000;stroke:none;stroke-width:0.665"
             x="-60.978706"
             y="77.609642">$\alpha\cvec{a}$</tspan></text>
        <path
           style="fill:none;stroke:#0028d4;stroke-width:0.665;stroke-dasharray:none;stroke-opacity:1;marker-end:url(#Triangle-3)"
           d="M -51.543584,43.504394 -72.175061,41.449022"
           id="path51"
           sodipodi:nodetypes="cc" />
        <path
           style="fill:none;stroke:#0028d4;stroke-width:0.665;stroke-dasharray:none;stroke-opacity:1;marker-end:url(#Triangle-3)"
           d="m -66.780921,60.556611 15.16782,-16.448554"
           id="path52" />
        <path
           style="fill:none;stroke:#0028d4;stroke-width:0.665;stroke-dasharray:none;stroke-opacity:1;marker-end:url(#Triangle-3)"
           d="m -72.142408,41.302476 -15.16782,16.448555"
           id="path56" />
      </g>
      <path
         style="fill:none;stroke:#0028d4;stroke-width:0.665;stroke-dasharray:none;stroke-opacity:1;marker-end:url(#Triangle-3-4)"
         d="m 60.123336,93.452571 20.58465,-2.480862"
         id="path55"
         sodipodi:nodetypes="cc" />
    </g>
  </g>
</svg>
