<?xml version="1.0" encoding="UTF-8" standalone="no"?>
<!-- Created with Inkscape (http://www.inkscape.org/) -->

<svg
   width="117.93511mm"
   height="35.815002mm"
   viewBox="0 0 117.93511 35.815003"
   version="1.1"
   id="svg1"
   inkscape:version="1.3.2 (091e20e, 2023-11-25, custom)"
   sodipodi:docname="bivector_addition_3d.svg"
   xmlns:inkscape="http://www.inkscape.org/namespaces/inkscape"
   xmlns:sodipodi="http://sodipodi.sourceforge.net/DTD/sodipodi-0.dtd"
   xmlns="http://www.w3.org/2000/svg"
   xmlns:svg="http://www.w3.org/2000/svg">
  <sodipodi:namedview
     id="namedview1"
     pagecolor="#ffffff"
     bordercolor="#000000"
     borderopacity="0.25"
     inkscape:showpageshadow="2"
     inkscape:pageopacity="0.0"
     inkscape:pagecheckerboard="0"
     inkscape:deskcolor="#d1d1d1"
     inkscape:document-units="mm"
     inkscape:zoom="1.4485269"
     inkscape:cx="250.94459"
     inkscape:cy="86.294564"
     inkscape:window-width="1154"
     inkscape:window-height="1000"
     inkscape:window-x="-7"
     inkscape:window-y="0"
     inkscape:window-maximized="0"
     inkscape:current-layer="layer2" />
  <defs
     id="defs1">
    <marker
       style="overflow:visible"
       id="marker2-4"
       refX="0"
       refY="0"
       orient="auto-start-reverse"
       inkscape:stockid="Triangle arrow"
       markerWidth="1"
       markerHeight="1"
       viewBox="0 0 1 1"
       inkscape:isstock="true"
       inkscape:collect="always"
       preserveAspectRatio="xMidYMid">
      <path
         transform="scale(0.5)"
         style="fill:context-stroke;fill-rule:evenodd;stroke:context-stroke;stroke-width:1pt"
         d="M 5.77,0 -2.88,5 V -5 Z"
         id="path2-8" />
    </marker>
    <marker
       style="overflow:visible"
       id="Triangle-4"
       refX="0"
       refY="0"
       orient="auto-start-reverse"
       inkscape:stockid="Triangle arrow"
       markerWidth="1"
       markerHeight="1"
       viewBox="0 0 1 1"
       inkscape:isstock="true"
       inkscape:collect="always"
       preserveAspectRatio="xMidYMid">
      <path
         transform="scale(0.5)"
         style="fill:context-stroke;fill-rule:evenodd;stroke:context-stroke;stroke-width:1pt"
         d="M 5.77,0 -2.88,5 V -5 Z"
         id="path135-9" />
    </marker>
    <marker
       style="overflow:visible"
       id="Triangle"
       refX="3"
       refY="0"
       orient="auto-start-reverse"
       inkscape:stockid="Triangle arrow"
       markerWidth="1"
       markerHeight="1"
       viewBox="0 0 1 1"
       inkscape:isstock="true"
       inkscape:collect="always"
       preserveAspectRatio="xMidYMid">
      <path
         transform="scale(0.5)"
         style="fill:context-stroke;fill-rule:evenodd;stroke:context-stroke;stroke-width:1pt"
         d="M 5.77,0 -2.88,5 V -5 Z"
         id="path135" />
    </marker>
    <marker
       style="overflow:visible"
       id="marker2-4-9"
       refX="0"
       refY="0"
       orient="auto-start-reverse"
       inkscape:stockid="Triangle arrow"
       markerWidth="1"
       markerHeight="1"
       viewBox="0 0 1 1"
       inkscape:isstock="true"
       inkscape:collect="always"
       preserveAspectRatio="xMidYMid">
      <path
         transform="scale(0.5)"
         style="fill:context-stroke;fill-rule:evenodd;stroke:context-stroke;stroke-width:1pt"
         d="M 5.77,0 -2.88,5 V -5 Z"
         id="path2-8-1" />
    </marker>
    <marker
       style="overflow:visible"
       id="Triangle-4-9"
       refX="0"
       refY="0"
       orient="auto-start-reverse"
       inkscape:stockid="Triangle arrow"
       markerWidth="1"
       markerHeight="1"
       viewBox="0 0 1 1"
       inkscape:isstock="true"
       inkscape:collect="always"
       preserveAspectRatio="xMidYMid">
      <path
         transform="scale(0.5)"
         style="fill:context-stroke;fill-rule:evenodd;stroke:context-stroke;stroke-width:1pt"
         d="M 5.77,0 -2.88,5 V -5 Z"
         id="path135-9-3" />
    </marker>
    <marker
       style="overflow:visible"
       id="Triangle-3"
       refX="3"
       refY="0"
       orient="auto-start-reverse"
       inkscape:stockid="Triangle arrow"
       markerWidth="1"
       markerHeight="1"
       viewBox="0 0 1 1"
       inkscape:isstock="true"
       inkscape:collect="always"
       preserveAspectRatio="xMidYMid">
      <path
         transform="scale(0.5)"
         style="fill:context-stroke;fill-rule:evenodd;stroke:context-stroke;stroke-width:1pt"
         d="M 5.77,0 -2.88,5 V -5 Z"
         id="path135-7" />
    </marker>
    <marker
       style="overflow:visible"
       id="marker2-4-2"
       refX="0"
       refY="0"
       orient="auto-start-reverse"
       inkscape:stockid="Triangle arrow"
       markerWidth="1"
       markerHeight="1"
       viewBox="0 0 1 1"
       inkscape:isstock="true"
       inkscape:collect="always"
       preserveAspectRatio="xMidYMid">
      <path
         transform="scale(0.5)"
         style="fill:context-stroke;fill-rule:evenodd;stroke:context-stroke;stroke-width:1pt"
         d="M 5.77,0 -2.88,5 V -5 Z"
         id="path2-8-9" />
    </marker>
    <marker
       style="overflow:visible"
       id="Triangle-4-6"
       refX="0"
       refY="0"
       orient="auto-start-reverse"
       inkscape:stockid="Triangle arrow"
       markerWidth="1"
       markerHeight="1"
       viewBox="0 0 1 1"
       inkscape:isstock="true"
       inkscape:collect="always"
       preserveAspectRatio="xMidYMid">
      <path
         transform="scale(0.5)"
         style="fill:context-stroke;fill-rule:evenodd;stroke:context-stroke;stroke-width:1pt"
         d="M 5.77,0 -2.88,5 V -5 Z"
         id="path135-9-7" />
    </marker>
    <marker
       style="overflow:visible"
       id="Triangle-5"
       refX="3"
       refY="0"
       orient="auto-start-reverse"
       inkscape:stockid="Triangle arrow"
       markerWidth="1"
       markerHeight="1"
       viewBox="0 0 1 1"
       inkscape:isstock="true"
       inkscape:collect="always"
       preserveAspectRatio="xMidYMid">
      <path
         transform="scale(0.5)"
         style="fill:context-stroke;fill-rule:evenodd;stroke:context-stroke;stroke-width:1pt"
         d="M 5.77,0 -2.88,5 V -5 Z"
         id="path135-1" />
    </marker>
  </defs>
  <g
     inkscape:label="Layer 1"
     inkscape:groupmode="layer"
     id="layer1"
     transform="translate(-115.70778,-28.451442)">
    <g
       id="g56"
       transform="matrix(0.68585376,0,0,0.68585376,111.21368,17.069377)"
       style="stroke-width:1.45803">
      <g
         id="g74"
         transform="translate(6.6669741,8.3404211)"
         style="stroke-width:1.45803">
        <path
           id="path7"
           style="font-variation-settings:normal;opacity:0.275974;vector-effect:none;fill:#d35f5f;fill-opacity:1;stroke:none;stroke-width:0.969598;stroke-linecap:butt;stroke-linejoin:miter;stroke-miterlimit:4;stroke-dasharray:none;stroke-dashoffset:0;stroke-opacity:1;-inkscape-stroke:none;marker-start:url(#marker2-4);marker-end:url(#Triangle-4);stop-color:#000000;stop-opacity:1"
           d="M 12.331255,53.479212 78.34387,56.56983 81.351756,35.842672 23.558698,34.125603 Z"
           sodipodi:nodetypes="ccccc" />
        <path
           style="fill:none;stroke:#d40000;stroke-width:0.969598;stroke-dasharray:none;marker-end:url(#Triangle)"
           d="M 12.331255,53.479212 78.34387,56.56983"
           id="path9"
           sodipodi:nodetypes="cc" />
        <text
           xml:space="preserve"
           style="font-size:1.60106px;text-align:center;text-anchor:middle;fill:#000000;stroke:none;stroke-width:0.969598;stroke-dasharray:none"
           x="45.721668"
           y="44.879475"
           id="text15"
           transform="matrix(1.0022922,0.00504115,-0.00370377,0.99769441,0,0)"><tspan
             sodipodi:role="line"
             id="tspan15"
             style="text-align:center;text-anchor:middle;fill:#800000;stroke:none;stroke-width:0.969598"
             x="45.721668"
             y="44.879475">$3\cvec{e}_1\wedge\cvec{e}_2$</tspan></text>
        <text
           xml:space="preserve"
           style="font-size:1.60106px;text-align:start;text-anchor:start;fill:#000000;stroke:none;stroke-width:0.969598;stroke-dasharray:none"
           x="19.437563"
           y="44.820152"
           id="text16"
           transform="matrix(1.002304,-0.00134346,0.00265153,0.99769774,0,0)"><tspan
             sodipodi:role="line"
             id="tspan16"
             style="text-align:start;text-anchor:start;fill:#000000;stroke:none;stroke-width:0.969598"
             x="19.437563"
             y="44.820152">$\cvec{e}_2$</tspan></text>
        <text
           xml:space="preserve"
           style="font-size:1.60106px;fill:#000000;stroke:none;stroke-width:0.969598;stroke-dasharray:none"
           x="37.428787"
           y="60.333599"
           id="text17"
           transform="matrix(1.0023028,-0.00206928,0.00337401,0.99769553,0,0)"><tspan
             sodipodi:role="line"
             id="tspan17"
             style="fill:#000000;stroke:none;stroke-width:0.969598"
             x="37.428787"
             y="60.333599">$3\cvec{e}_1$</tspan></text>
        <path
           style="fill:none;stroke:#cfcf00;stroke-width:0.969598;stroke-dasharray:none;stroke-opacity:1;marker-end:url(#Triangle)"
           d="M 12.33126,53.479215 23.558698,34.125603"
           id="path11"
           sodipodi:nodetypes="cc" />
        <text
           xml:space="preserve"
           style="font-size:1.60106px;text-align:start;text-anchor:start;fill:#000000;stroke:none;stroke-width:0.969598;stroke-dasharray:none"
           x="24.859173"
           y="24.232021"
           id="text1"
           transform="matrix(1.0022922,0.00504115,-0.00370377,0.99769441,0,0)"><tspan
             sodipodi:role="line"
             id="tspan1"
             style="text-align:start;text-anchor:start;fill:#000080;stroke:none;stroke-width:0.969598"
             x="24.859173"
             y="24.232021">$\cvec{e}_3\wedge\cvec{e}_2$</tspan></text>
        <text
           xml:space="preserve"
           style="font-size:1.60106px;text-align:end;text-anchor:end;fill:#000000;stroke:none;stroke-width:0.969598;stroke-dasharray:none"
           x="10.762967"
           y="39.489979"
           id="text2"
           transform="matrix(1.002304,-0.00134346,0.00265153,0.99769774,0,0)"><tspan
             sodipodi:role="line"
             id="tspan2"
             style="text-align:end;text-anchor:end;fill:#000000;stroke:none;stroke-width:0.969598"
             x="10.762966"
             y="39.489979">$\cvec{e}_3$</tspan></text>
      </g>
      <path
         id="path3-0"
         style="font-variation-settings:normal;opacity:0.275974;vector-effect:none;fill:#5f86d3;fill-opacity:1;stroke:none;stroke-width:0.969598;stroke-linecap:butt;stroke-linejoin:miter;stroke-miterlimit:4;stroke-dasharray:none;stroke-dashoffset:0;stroke-opacity:1;-inkscape-stroke:none;marker-start:url(#marker2-4-9);marker-end:url(#Triangle-4-9);stop-color:#000000"
         d="M 30.51328,20.038302 30.225672,42.466023 18.998233,61.819635 18.000903,36.105033 Z"
         sodipodi:nodetypes="ccccc" />
      <path
         style="fill:none;stroke:#0028d4;stroke-width:0.969598;stroke-dasharray:none;stroke-opacity:1;marker-end:url(#Triangle-3)"
         d="M 18.998236,61.819634 18.000903,36.105033"
         id="path14"
         sodipodi:nodetypes="cc" />
    </g>
  </g>
  <g
     inkscape:groupmode="layer"
     id="layer2"
     inkscape:label="Layer 2"
     style="display:inline"
     transform="translate(-35.801046,-9.2455368)">
    <g
       id="g10"
       transform="matrix(0.68585376,0,0,0.68585376,-19.003272,-3.1851153)"
       style="stroke-width:1.45803">
      <path
         id="path10"
         style="font-variation-settings:normal;opacity:0.489051;vector-effect:none;fill:#cfcf00;fill-opacity:1;stroke:none;stroke-width:0.969598;stroke-linecap:butt;stroke-linejoin:miter;stroke-miterlimit:4;stroke-dasharray:none;stroke-dashoffset:0;stroke-opacity:1;-inkscape-stroke:none;marker-start:url(#marker2-4-2);marker-end:url(#Triangle-4-6);stop-color:#000000"
         d="M 108.95657,61.819614 175.49839,49.33576 178.50628,28.608617 120.18402,42.466013 Z"
         sodipodi:nodetypes="ccccc"
         transform="translate(73.354165,1.528879)" />
      <g
         id="g9"
         transform="translate(169.97948,9.8693002)"
         style="stroke-width:1.45803">
        <path
           id="path4"
           style="font-variation-settings:normal;opacity:0.275974;vector-effect:none;fill:#d35f5f;fill-opacity:1;stroke:none;stroke-width:0.969598;stroke-linecap:butt;stroke-linejoin:miter;stroke-miterlimit:4;stroke-dasharray:none;stroke-dashoffset:0;stroke-opacity:1;-inkscape-stroke:none;marker-start:url(#marker2-4);marker-end:url(#Triangle-4);stop-color:#000000;stop-opacity:1"
           d="M 12.331255,53.479212 78.34387,56.56983 81.351756,35.842672 23.558698,34.125603 Z"
           sodipodi:nodetypes="ccccc" />
        <path
           style="fill:none;stroke:#d40000;stroke-width:0.969598;stroke-dasharray:none;marker-end:url(#Triangle)"
           d="M 12.331255,53.479212 78.34387,56.56983"
           id="path5"
           sodipodi:nodetypes="cc" />
        <text
           xml:space="preserve"
           style="font-size:1.60106px;text-align:center;text-anchor:middle;fill:#000000;stroke:none;stroke-width:0.969598;stroke-dasharray:none"
           x="56.300198"
           y="50.129917"
           id="text5"
           transform="matrix(1.0022922,0.00504115,-0.00370377,0.99769441,0,0)"><tspan
             sodipodi:role="line"
             id="tspan5"
             style="text-align:center;text-anchor:middle;fill:#800000;stroke:none;stroke-width:0.969598"
             x="56.300198"
             y="50.129917">$3\cvec{e}_1\wedge\cvec{e}_2$</tspan></text>
        <text
           xml:space="preserve"
           style="font-size:1.60106px;text-align:start;text-anchor:start;fill:#000000;stroke:none;stroke-width:0.969598;stroke-dasharray:none"
           x="19.437563"
           y="44.820152"
           id="text6"
           transform="matrix(1.002304,-0.00134346,0.00265153,0.99769774,0,0)"><tspan
             sodipodi:role="line"
             id="tspan6"
             style="text-align:start;text-anchor:start;fill:#000000;stroke:none;stroke-width:0.969598"
             x="19.437563"
             y="44.820152">$\cvec{e}_2$</tspan></text>
        <text
           xml:space="preserve"
           style="font-size:1.60106px;fill:#000000;stroke:none;stroke-width:0.969598;stroke-dasharray:none"
           x="37.428787"
           y="60.333599"
           id="text7"
           transform="matrix(1.0023028,-0.00206928,0.00337401,0.99769553,0,0)"><tspan
             sodipodi:role="line"
             id="tspan7"
             style="fill:#000000;stroke:none;stroke-width:0.969598"
             x="37.428787"
             y="60.333599">$3\cvec{e}_1$</tspan></text>
        <text
           xml:space="preserve"
           style="font-size:1.60106px;text-align:start;text-anchor:start;fill:#000000;stroke:none;stroke-width:0.969598;stroke-dasharray:none"
           x="24.859173"
           y="24.232021"
           id="text8"
           transform="matrix(1.0022922,0.00504115,-0.00370377,0.99769441,0,0)"><tspan
             sodipodi:role="line"
             id="tspan8"
             style="text-align:start;text-anchor:start;fill:#000080;stroke:none;stroke-width:0.969598"
             x="24.859173"
             y="24.232021">$\cvec{e}_3\wedge\cvec{e}_2$</tspan></text>
        <text
           xml:space="preserve"
           style="font-size:1.60106px;text-align:end;text-anchor:end;fill:#000000;stroke:none;stroke-width:0.969598;stroke-dasharray:none"
           x="10.762967"
           y="39.489979"
           id="text9"
           transform="matrix(1.002304,-0.00134346,0.00265153,0.99769774,0,0)"><tspan
             sodipodi:role="line"
             id="tspan9"
             style="text-align:end;text-anchor:end;fill:#000000;stroke:none;stroke-width:0.969598"
             x="10.762966"
             y="39.489979">$\cvec{e}_3$</tspan></text>
        <text
           xml:space="preserve"
           style="font-size:1.60106px;text-align:center;text-anchor:middle;fill:#6a6a00;fill-opacity:1;stroke:none;stroke-width:0.969598;stroke-dasharray:none"
           x="56.241398"
           y="34.218533"
           id="text10"
           transform="matrix(1.0022922,0.00504115,-0.00370377,0.99769441,0,0)"><tspan
             sodipodi:role="line"
             id="tspan10"
             style="text-align:center;text-anchor:middle;fill:#6a6a00;fill-opacity:1;stroke:none;stroke-width:0.969598"
             x="56.241398"
             y="34.218533">$(3\cvec{e}_1+\cvec{e}_3)\wedge\cvec{e}_2$</tspan></text>
      </g>
      <path
         id="path2"
         style="font-variation-settings:normal;opacity:0.275974;vector-effect:none;fill:#5f86d3;fill-opacity:1;stroke:none;stroke-width:0.969598;stroke-linecap:butt;stroke-linejoin:miter;stroke-miterlimit:4;stroke-dasharray:none;stroke-dashoffset:0;stroke-opacity:1;-inkscape-stroke:none;marker-start:url(#marker2-4-9);marker-end:url(#Triangle-4-9);stop-color:#000000"
         d="m 120.47163,20.038301 -0.28761,22.427712 -11.22745,19.353611 -0.99733,-25.714595 z"
         sodipodi:nodetypes="ccccc"
         transform="translate(73.354165,1.528879)" />
      <path
         style="fill:none;stroke:#0028d4;stroke-width:0.969598;stroke-dasharray:none;stroke-opacity:1;marker-end:url(#Triangle-3)"
         d="M 108.95658,61.819624 107.95924,36.105029"
         id="path3"
         sodipodi:nodetypes="cc"
         transform="translate(73.354165,1.528879)" />
      <path
         style="fill:none;stroke:#cfcf00;stroke-width:0.969598;stroke-dasharray:none;stroke-opacity:1;marker-end:url(#Triangle-5)"
         d="M 182.31079,63.348491 193.53823,43.994893"
         id="path8"
         sodipodi:nodetypes="cc" />
    </g>
  </g>
</svg>
