<?xml version="1.0" encoding="UTF-8" standalone="no"?>
<!-- Created with Inkscape (http://www.inkscape.org/) -->

<svg
   width="99.2929mm"
   height="32.182281mm"
   viewBox="0 0 99.292902 32.182282"
   version="1.1"
   id="svg1"
   inkscape:version="1.3.2 (1:1.3.2+202311252150+091e20ef0f)"
   sodipodi:docname="blade_orientation_plane.svg"
   xmlns:inkscape="http://www.inkscape.org/namespaces/inkscape"
   xmlns:sodipodi="http://sodipodi.sourceforge.net/DTD/sodipodi-0.dtd"
   xmlns="http://www.w3.org/2000/svg"
   xmlns:svg="http://www.w3.org/2000/svg">
  <sodipodi:namedview
     id="namedview1"
     pagecolor="#ffffff"
     bordercolor="#000000"
     borderopacity="0.25"
     inkscape:showpageshadow="2"
     inkscape:pageopacity="0.0"
     inkscape:pagecheckerboard="0"
     inkscape:deskcolor="#d1d1d1"
     inkscape:document-units="mm"
     inkscape:zoom="1.3727922"
     inkscape:cx="335.44771"
     inkscape:cy="36.057897"
     inkscape:window-width="2560"
     inkscape:window-height="1355"
     inkscape:window-x="0"
     inkscape:window-y="0"
     inkscape:window-maximized="1"
     inkscape:current-layer="layer1" />
  <defs
     id="defs1" />
  <g
     inkscape:label="Layer 1"
     inkscape:groupmode="layer"
     id="layer1"
     transform="translate(-49.162519,-130.54457)">
    <path
       id="path2"
       style="opacity:1;fill:#ffd5d5;stroke:none;stroke-width:0.430955;-inkscape-stroke:none"
       d="M 100.98376,148.0704 83.602781,130.54457 50.578922,137.6418 67.959901,155.16763 Z"
       sodipodi:nodetypes="ccccc" />
    <g
       id="path3"
       transform="matrix(0.76956185,0,0,0.76956185,22.769357,33.790463)">
      <path
         style="color:#000000;fill:#ffd5d5;-inkscape-stroke:none"
         d="m 82.872643,141.10231 a 12.942284,6.3393655 0 0 1 -8.644973,5.97971 12.942284,6.3393655 0 0 1 -14.385866,-2.00874 12.942284,6.3393655 0 0 1 -0.908294,-7.31367 12.942284,6.3393655 0 0 1 13.782692,-2.84806"
         id="path9" />
      <path
         style="color:#000000;fill:#800000;-inkscape-stroke:none"
         d="m 68.685547,134.28516 c -4.026997,0.17862 -7.75646,1.26188 -10.0625,3.08203 -1.537362,1.21343 -2.291578,2.69879 -2.107422,4.18164 0.184156,1.48284 1.264811,2.85303 3.066406,3.95117 3.603188,2.19629 9.439941,2.98641 14.730469,2.07422 2.645265,-0.4561 4.868699,-1.29244 6.464844,-2.39649 1.596144,-1.10405 2.595702,-2.51659 2.595703,-4.07617 h -1 c -10e-7,1.13014 -0.732652,2.26381 -2.164063,3.25391 -1.43141,0.9901 -3.531962,1.79739 -6.066406,2.23437 -5.068885,0.87398 -10.764787,0.0536 -14.041016,-1.94336 -1.638114,-0.99849 -2.459812,-2.14222 -2.59375,-3.2207 -0.133937,-1.07847 0.378193,-2.20146 1.736329,-3.27344 2.716269,-2.14394 8.161622,-3.31164 13.417968,-2.74414 l 0.107422,-0.99414 c -1.367175,-0.1476 -2.741652,-0.18844 -4.083984,-0.1289 z"
         id="path10" />
      <g
         id="g6">
        <g
           id="path6">
          <path
             style="color:#000000;fill:#800000;fill-rule:evenodd;-inkscape-stroke:none"
             d="m 72.601866,134.89921 -4.568364,2.0213 0.536706,-4.97111 z"
             id="path7" />
          <path
             style="color:#000000;fill:#800000;fill-rule:evenodd;-inkscape-stroke:none"
             d="m 68.300781,131.33984 -0.660156,6.11914 5.623047,-2.48828 z m 0.539063,1.22071 3.099609,2.26757 -3.511719,1.55274 z"
             id="path8" />
        </g>
      </g>
    </g>
    <circle
       style="display:inline;fill:#000000;fill-opacity:1;stroke:none;stroke-width:0.430955"
       id="circle4"
       cx="67.9599"
       cy="155.16763"
       r="1.055482" />
    <text
       xml:space="preserve"
       style="font-style:normal;font-variant:normal;font-weight:normal;font-stretch:normal;font-size:5.42969px;font-family:'Latin Modern Math';-inkscape-font-specification:'Latin Modern Math';text-align:center;text-anchor:middle;display:inline;fill:#000000;fill-opacity:1;stroke:none;stroke-width:0.430955"
       x="67.794792"
       y="161.03249"
       id="text24552"><tspan
         sodipodi:role="line"
         id="tspan24550"
         style="font-style:normal;font-variant:normal;font-weight:normal;font-stretch:normal;font-size:5.42969px;font-family:'DejaVu Serif';-inkscape-font-specification:'DejaVu Serif Bold';stroke-width:0.430955"
         x="67.794792"
         y="161.03249">0</tspan></text>
    <text
       xml:space="preserve"
       style="font-style:normal;font-variant:normal;font-weight:normal;font-stretch:normal;font-size:5.42969px;font-family:'Latin Modern Math';-inkscape-font-specification:'Latin Modern Math';text-align:center;text-anchor:middle;display:inline;fill:#008000;fill-opacity:1;stroke:none;stroke-width:0.430955"
       x="50.698898"
       y="143.96576"
       id="text25920"><tspan
         sodipodi:role="line"
         id="tspan25918"
         style="font-style:normal;font-variant:normal;font-weight:normal;font-stretch:normal;font-size:5.42969px;font-family:'Latin Modern Math';-inkscape-font-specification:'Latin Modern Math';fill:#008000;stroke-width:0.430955"
         x="50.698898"
         y="143.96576"><tspan
           style="font-style:normal;font-variant:normal;font-weight:bold;font-stretch:normal;font-size:5.42969px;font-family:'DejaVu Serif';-inkscape-font-specification:'DejaVu Serif';fill:#008000;stroke-width:0.430955"
           id="tspan25916">a</tspan></tspan></text>
    <circle
       style="display:inline;fill:#008000;fill-opacity:1;stroke:none;stroke-width:0.430955"
       id="path1"
       cx="50.578922"
       cy="137.6418"
       r="1.055482" />
    <text
       xml:space="preserve"
       style="font-style:normal;font-variant:normal;font-weight:normal;font-stretch:normal;font-size:5.42969px;font-family:'Latin Modern Math';-inkscape-font-specification:'Latin Modern Math';text-align:center;text-anchor:middle;display:inline;fill:#008000;fill-opacity:1;stroke:none;stroke-width:0.430955"
       x="101.10374"
       y="154.39436"
       id="text4"><tspan
         sodipodi:role="line"
         id="tspan4"
         style="font-style:normal;font-variant:normal;font-weight:normal;font-stretch:normal;font-size:5.42969px;font-family:'Latin Modern Math';-inkscape-font-specification:'Latin Modern Math';fill:#008000;stroke-width:0.430955"
         x="101.10374"
         y="154.39436"><tspan
           style="font-style:normal;font-variant:normal;font-weight:bold;font-stretch:normal;font-size:5.42969px;font-family:'DejaVu Serif';-inkscape-font-specification:'DejaVu Serif';fill:#008000;stroke-width:0.430955"
           id="tspan3">b</tspan></tspan></text>
    <circle
       style="display:inline;fill:#008000;fill-opacity:1;stroke:none;stroke-width:0.430955"
       id="circle5"
       cx="100.98376"
       cy="148.0704"
       r="1.055482" />
    <path
       id="path11"
       style="opacity:1;fill:#ffd5d5;stroke:none;stroke-width:0.430955;-inkscape-stroke:none"
       d="m 145.55583,151.61902 -17.38099,-17.52583 -16.51194,3.54861 17.38099,17.52583 z"
       sodipodi:nodetypes="ccccc" />
    <g
       id="g17"
       transform="matrix(-0.52672412,0,0,0.52672412,165.97003,70.384317)">
      <path
         style="color:#000000;fill:#ffd5d5;-inkscape-stroke:none"
         d="m 82.872643,141.10231 a 12.942284,6.3393655 0 0 1 -8.644973,5.97971 12.942284,6.3393655 0 0 1 -14.385866,-2.00874 12.942284,6.3393655 0 0 1 -0.908294,-7.31367 12.942284,6.3393655 0 0 1 13.782692,-2.84806"
         id="path12" />
      <path
         style="color:#000000;fill:#800000;-inkscape-stroke:none"
         d="m 68.685547,134.28516 c -4.026997,0.17862 -7.75646,1.26188 -10.0625,3.08203 -1.537362,1.21343 -2.291578,2.69879 -2.107422,4.18164 0.184156,1.48284 1.264811,2.85303 3.066406,3.95117 3.603188,2.19629 9.439941,2.98641 14.730469,2.07422 2.645265,-0.4561 4.868699,-1.29244 6.464844,-2.39649 1.596144,-1.10405 2.595702,-2.51659 2.595703,-4.07617 h -1 c -10e-7,1.13014 -0.732652,2.26381 -2.164063,3.25391 -1.43141,0.9901 -3.531962,1.79739 -6.066406,2.23437 -5.068885,0.87398 -10.764787,0.0536 -14.041016,-1.94336 -1.638114,-0.99849 -2.459812,-2.14222 -2.59375,-3.2207 -0.133937,-1.07847 0.378193,-2.20146 1.736329,-3.27344 2.716269,-2.14394 8.161622,-3.31164 13.417968,-2.74414 l 0.107422,-0.99414 c -1.367175,-0.1476 -2.741652,-0.18844 -4.083984,-0.1289 z"
         id="path13" />
      <g
         id="g16">
        <g
           id="g15">
          <path
             style="color:#000000;fill:#800000;fill-rule:evenodd;-inkscape-stroke:none"
             d="m 72.601866,134.89921 -4.568364,2.0213 0.536706,-4.97111 z"
             id="path14" />
          <path
             style="color:#000000;fill:#800000;fill-rule:evenodd;-inkscape-stroke:none"
             d="m 68.300781,131.33984 -0.660156,6.11914 5.623047,-2.48828 z m 0.539063,1.22071 3.099609,2.26757 -3.511719,1.55274 z"
             id="path15" />
        </g>
      </g>
    </g>
    <circle
       style="display:inline;fill:#000000;fill-opacity:1;stroke:none;stroke-width:0.430955"
       id="circle17"
       cx="129.04384"
       cy="155.16763"
       r="1.055482" />
    <text
       xml:space="preserve"
       style="font-style:normal;font-variant:normal;font-weight:normal;font-stretch:normal;font-size:5.42969px;font-family:'Latin Modern Math';-inkscape-font-specification:'Latin Modern Math';text-align:center;text-anchor:middle;display:inline;fill:#000000;fill-opacity:1;stroke:none;stroke-width:0.430955"
       x="128.87875"
       y="161.03249"
       id="text17"><tspan
         sodipodi:role="line"
         id="tspan17"
         style="font-style:normal;font-variant:normal;font-weight:normal;font-stretch:normal;font-size:5.42969px;font-family:'DejaVu Serif';-inkscape-font-specification:'DejaVu Serif Bold';stroke-width:0.430955"
         x="128.87875"
         y="161.03249">0</tspan></text>
    <text
       xml:space="preserve"
       style="font-style:normal;font-variant:normal;font-weight:normal;font-stretch:normal;font-size:5.42969px;font-family:'Latin Modern Math';-inkscape-font-specification:'Latin Modern Math';text-align:center;text-anchor:middle;display:inline;fill:#008000;fill-opacity:1;stroke:none;stroke-width:0.430955"
       x="111.78285"
       y="143.96576"
       id="text19"><tspan
         sodipodi:role="line"
         id="tspan19"
         style="font-style:normal;font-variant:normal;font-weight:normal;font-stretch:normal;font-size:5.42969px;font-family:'Latin Modern Math';-inkscape-font-specification:'Latin Modern Math';fill:#008000;stroke-width:0.430955"
         x="111.78285"
         y="143.96576"><tspan
           style="font-style:normal;font-variant:normal;font-weight:bold;font-stretch:normal;font-size:5.42969px;font-family:'DejaVu Serif';-inkscape-font-specification:'DejaVu Serif';fill:#008000;stroke-width:0.430955"
           id="tspan18">a</tspan></tspan></text>
    <circle
       style="display:inline;fill:#008000;fill-opacity:1;stroke:none;stroke-width:0.430955"
       id="circle19"
       cx="111.6629"
       cy="137.6418"
       r="1.055482" />
    <text
       xml:space="preserve"
       style="font-style:normal;font-variant:normal;font-weight:normal;font-stretch:normal;font-size:5.42969px;font-family:'Latin Modern Math';-inkscape-font-specification:'Latin Modern Math';text-align:center;text-anchor:middle;display:inline;fill:#008000;fill-opacity:1;stroke:none;stroke-width:0.430955"
       x="145.92595"
       y="157.43286"
       id="text21"><tspan
         sodipodi:role="line"
         id="tspan21"
         style="font-style:normal;font-variant:normal;font-weight:normal;font-stretch:normal;font-size:5.42969px;font-family:'Latin Modern Math';-inkscape-font-specification:'Latin Modern Math';fill:#008000;stroke-width:0.430955"
         x="145.92595"
         y="157.43286"><tspan
           style="font-style:normal;font-variant:normal;font-weight:bold;font-stretch:normal;font-size:5.42969px;font-family:'DejaVu Serif';-inkscape-font-specification:'DejaVu Serif';fill:#008000;stroke-width:0.430955"
           id="tspan20">b</tspan></tspan></text>
    <circle
       style="display:inline;fill:#008000;fill-opacity:1;stroke:none;stroke-width:0.430955"
       id="circle22"
       cx="145.55583"
       cy="151.61902"
       r="1.055482" />
    <path
       style="opacity:1;fill:#ffd5d5;stroke:#008000;stroke-width:0.461737;stroke-dasharray:none"
       d="m 143.30369,158.24731 h 5.15173"
       id="path22"
       sodipodi:nodetypes="cc" />
    <text
       xml:space="preserve"
       style="font-style:normal;font-variant:normal;font-weight:normal;font-stretch:normal;font-size:5.42969px;font-family:'Latin Modern Math';-inkscape-font-specification:'Latin Modern Math';text-align:center;text-anchor:middle;display:inline;fill:#008000;fill-opacity:1;stroke:none;stroke-width:0.430955"
       x="145.88228"
       y="162.72685"
       id="text23"><tspan
         sodipodi:role="line"
         id="tspan23"
         style="font-style:normal;font-variant:normal;font-weight:normal;font-stretch:normal;font-size:5.42969px;font-family:'Latin Modern Math';-inkscape-font-specification:'Latin Modern Math';fill:#008000;stroke-width:0.430955"
         x="145.88228"
         y="162.72685">2</tspan></text>
    <text
       xml:space="preserve"
       style="font-style:normal;font-variant:normal;font-weight:normal;font-stretch:normal;font-size:5.42969px;font-family:'Latin Modern Math';-inkscape-font-specification:'Latin Modern Math';text-align:center;text-anchor:middle;display:inline;fill:#000080;fill-opacity:1;stroke:none;stroke-width:0.430955"
       x="88.672585"
       y="136.73145"
       id="text4-0"><tspan
         sodipodi:role="line"
         id="tspan4-4"
         style="font-style:normal;font-variant:normal;font-weight:normal;font-stretch:normal;font-size:5.42969px;font-family:'Latin Modern Math';-inkscape-font-specification:'Latin Modern Math';fill:#000080;stroke-width:0.430955"
         x="88.672585"
         y="136.73145"><tspan
   style="font-style:normal;font-variant:normal;font-weight:bold;font-stretch:normal;font-size:5.42969px;font-family:'DejaVu Serif';-inkscape-font-specification:'DejaVu Serif Bold';fill:#000080;stroke-width:0.430955"
   id="tspan7854">a</tspan>∧<tspan
   style="font-style:normal;font-variant:normal;font-weight:bold;font-stretch:normal;font-size:5.42969px;font-family:'DejaVu Serif';-inkscape-font-specification:'DejaVu Serif';fill:#000080;stroke-width:0.430955"
   id="tspan18684">b</tspan></tspan></text>
    <g
       id="g30"
       transform="matrix(0.76956185,0,0,0.76956185,48.424629,13.429139)">
      <text
         xml:space="preserve"
         style="font-style:normal;font-variant:normal;font-weight:normal;font-stretch:normal;font-size:7.05556px;font-family:'Latin Modern Math';-inkscape-font-specification:'Latin Modern Math';text-align:center;text-anchor:middle;display:inline;fill:#000080;fill-opacity:1;stroke:none;stroke-width:0.560001"
         x="121.09149"
         y="161.28238"
         id="text26"><tspan
           sodipodi:role="line"
           id="tspan26"
           style="font-style:normal;font-variant:normal;font-weight:normal;font-stretch:normal;font-size:7.05556px;font-family:'Latin Modern Math';-inkscape-font-specification:'Latin Modern Math';fill:#000080;stroke-width:0.56"
           x="121.09149"
           y="161.28238"><tspan
   style="font-style:normal;font-variant:normal;font-weight:bold;font-stretch:normal;font-size:7.05556px;font-family:'DejaVu Serif';-inkscape-font-specification:'DejaVu Serif Bold';fill:#000080"
   id="tspan24">b</tspan>∧<tspan
   style="font-style:normal;font-variant:normal;font-weight:bold;font-stretch:normal;font-size:7.05556px;font-family:'DejaVu Serif';-inkscape-font-specification:'DejaVu Serif';fill:#000080"
   id="tspan25">a</tspan></tspan></text>
      <g
         id="g29"
         transform="translate(-3.7041668,-20.6375)">
        <path
           style="opacity:1;fill:#000080;stroke:#000080;stroke-width:0.6;stroke-dasharray:none"
           d="m 110.5897,180.24512 h 6.69437"
           id="path27"
           sodipodi:nodetypes="cc" />
        <text
           xml:space="preserve"
           style="font-style:normal;font-variant:normal;font-weight:normal;font-stretch:normal;font-size:7.05556px;font-family:'Latin Modern Math';-inkscape-font-specification:'Latin Modern Math';text-align:center;text-anchor:middle;display:inline;fill:#000080;fill-opacity:1;stroke:none;stroke-width:0.560001"
           x="113.94041"
           y="186.06609"
           id="text28"><tspan
             sodipodi:role="line"
             id="tspan28"
             style="font-style:normal;font-variant:normal;font-weight:normal;font-stretch:normal;font-size:7.05556px;font-family:'Latin Modern Math';-inkscape-font-specification:'Latin Modern Math';fill:#000080;stroke-width:0.56"
             x="113.94041"
             y="186.06609">2</tspan></text>
        <text
           xml:space="preserve"
           style="font-style:normal;font-variant:normal;font-weight:normal;font-stretch:normal;font-size:7.05556px;font-family:'Latin Modern Math';-inkscape-font-specification:'Latin Modern Math';text-align:center;text-anchor:middle;display:inline;fill:#000080;fill-opacity:1;stroke:none;stroke-width:0.560001"
           x="113.94041"
           y="178.6577"
           id="text29"><tspan
             sodipodi:role="line"
             id="tspan29"
             style="font-style:normal;font-variant:normal;font-weight:normal;font-stretch:normal;font-size:7.05556px;font-family:'Latin Modern Math';-inkscape-font-specification:'Latin Modern Math';fill:#000080;stroke-width:0.56"
             x="113.94041"
             y="178.6577">1</tspan></text>
      </g>
    </g>
  </g>
</svg>
