<?xml version="1.0" encoding="UTF-8" standalone="no"?>
<!-- Created with Inkscape (http://www.inkscape.org/) -->

<svg
   width="48.083588mm"
   height="37.542252mm"
   viewBox="0 0 48.083587 37.542252"
   version="1.1"
   id="svg1"
   inkscape:version="1.3.2 (1:1.3.2+202311252150+091e20ef0f)"
   sodipodi:docname="ext_alg_planar_rotation.svg"
   xmlns:inkscape="http://www.inkscape.org/namespaces/inkscape"
   xmlns:sodipodi="http://sodipodi.sourceforge.net/DTD/sodipodi-0.dtd"
   xmlns="http://www.w3.org/2000/svg"
   xmlns:svg="http://www.w3.org/2000/svg">
  <sodipodi:namedview
     id="namedview1"
     pagecolor="#ffffff"
     bordercolor="#000000"
     borderopacity="0.25"
     inkscape:showpageshadow="2"
     inkscape:pageopacity="0.0"
     inkscape:pagecheckerboard="0"
     inkscape:deskcolor="#d1d1d1"
     inkscape:document-units="mm"
     inkscape:zoom="2.6923525"
     inkscape:cx="13.185495"
     inkscape:cy="48.842044"
     inkscape:window-width="1920"
     inkscape:window-height="995"
     inkscape:window-x="0"
     inkscape:window-y="0"
     inkscape:window-maximized="1"
     inkscape:current-layer="layer1" />
  <defs
     id="defs1">
    <rect
       x="103.17957"
       y="473.92892"
       width="106.94869"
       height="96.621155"
       id="rect14" />
    <marker
       style="overflow:visible"
       id="Triangle"
       refX="3"
       refY="0"
       orient="auto-start-reverse"
       inkscape:stockid="Triangle arrow"
       markerWidth="1"
       markerHeight="1"
       viewBox="0 0 1 1"
       inkscape:isstock="true"
       inkscape:collect="always"
       preserveAspectRatio="xMidYMid">
      <path
         transform="scale(0.5)"
         style="fill:context-stroke;fill-rule:evenodd;stroke:context-stroke;stroke-width:1pt"
         d="M 5.77,0 -2.88,5 V -5 Z"
         id="path135" />
    </marker>
  </defs>
  <g
     inkscape:label="Layer 1"
     inkscape:groupmode="layer"
     id="layer1"
     transform="translate(-50.051598,-128.45823)">
    <g
       id="g6"
       transform="rotate(180,60.322242,100.5057)" />
    <text
       xml:space="preserve"
       style="font-size:7.05556px;line-height:normal;font-family:'Latin Modern Math';-inkscape-font-specification:'Latin Modern Math';text-decoration-color:#000000;fill:#ffd5d5;stroke:none;stroke-width:0.865"
       x="72.790977"
       y="152.43849"
       id="text51"><tspan
         sodipodi:role="line"
         id="tspan51"
         style="font-style:normal;font-variant:normal;font-weight:bold;font-stretch:normal;font-family:'DejaVu Serif';-inkscape-font-specification:'DejaVu Serif';fill:#000000;stroke-width:0.865"
         x="72.790977"
         y="152.43849">a</tspan></text>
    <path
       style="font-variation-settings:normal;opacity:1;vector-effect:none;fill:#ffd5d5;fill-opacity:1;stroke:none;stroke-width:0.865;stroke-linecap:butt;stroke-linejoin:miter;stroke-miterlimit:4;stroke-dasharray:none;stroke-dashoffset:0;stroke-opacity:1;-inkscape-stroke:none;marker-end:url(#Triangle);stop-color:#000000;stop-opacity:1"
       d="m 72.62001,134.79232 25.515176,-1e-5 -22.359668,12.29139 -25.515176,2e-5 z"
       id="path85"
       sodipodi:nodetypes="ccccc"
       inkscape:transform-center-x="-23.937495"
       inkscape:transform-center-y="-6.1456989" />
    <path
       style="font-variation-settings:normal;opacity:1;vector-effect:none;fill:#ffd5d5;fill-opacity:1;stroke:none;stroke-width:0.865;stroke-linecap:butt;stroke-linejoin:miter;stroke-miterlimit:4;stroke-dasharray:none;stroke-dashoffset:0;stroke-opacity:1;-inkscape-stroke:none;marker-end:url(#Triangle);stop-color:#000000;stop-opacity:1"
       d="m 72.62001,159.37511 25.515176,1e-5 -22.359668,-12.29139 -25.515176,-2e-5 z"
       id="path81"
       sodipodi:nodetypes="ccccc" />
    <text
       xml:space="preserve"
       style="font-size:7.05556px;line-height:normal;font-family:'Latin Modern Math';-inkscape-font-specification:'Latin Modern Math';text-decoration-color:#000000;fill:#ffd5d5;stroke:none;stroke-width:0.865"
       x="64.682701"
       y="163.52722"
       id="text57"><tspan
         sodipodi:role="line"
         id="tspan57"
         style="font-style:italic;font-variant:normal;font-weight:normal;font-stretch:normal;font-family:'Latin Modern Math';-inkscape-font-specification:'Latin Modern Math Italic';fill:#000000"
         x="64.682701"
         y="163.52722"><tspan
           style="font-style:normal;font-variant:normal;font-weight:bold;font-stretch:normal;font-family:'DejaVu Serif';-inkscape-font-specification:'DejaVu Serif';fill:#000000"
           id="tspan56">u</tspan></tspan></text>
    <g
       id="path79">
      <path
         style="color:#000000;fill:#800000;-inkscape-stroke:none"
         d="M 50.260764,147.08207 H 75.775696"
         id="path107" />
      <path
         style="color:#000000;fill:#000000;-inkscape-stroke:none"
         d="m 50.261719,146.65039 v 0.86328 h 25.513672 v -0.86328 z"
         id="path108" />
      <g
         id="g104">
        <g
           id="path104">
          <path
             style="color:#000000;fill:#000000;fill-rule:evenodd;-inkscape-stroke:none"
             d="m 75.676221,147.08207 -3.741125,2.1625 v -4.325 z"
             id="path105" />
          <path
             style="color:#000000;fill:#000000;fill-rule:evenodd;-inkscape-stroke:none"
             d="m 71.646484,144.41992 v 5.32422 l 4.605469,-2.66211 z m 0.576172,1 2.876953,1.66211 -2.876953,1.66211 z"
             id="path106" />
        </g>
      </g>
    </g>
    <g
       id="path80"
       inkscape:transform-center-x="-11.179691"
       inkscape:transform-center-y="-6.1465398">
      <path
         style="color:#000000;fill:#800000;-inkscape-stroke:none"
         d="M 50.25992,147.08203 72.62001,134.79228"
         id="path102" />
      <path
         style="color:#000000;fill:#000000;-inkscape-stroke:none"
         d="m 72.412109,134.41406 -22.361328,12.28906 0.417969,0.75782 22.359375,-12.28907 z"
         id="path103" />
      <g
         id="g99">
        <g
           id="path99">
          <path
             style="color:#000000;fill:#000000;fill-rule:evenodd;-inkscape-stroke:none"
             d="m 72.532835,134.84019 -2.236938,3.6971 -2.083218,-3.79023 z"
             id="path100" />
          <path
             style="color:#000000;fill:#000000;fill-rule:evenodd;-inkscape-stroke:none"
             d="m 67.71875,134.44727 2.564453,4.66601 2.753906,-4.55078 z m 0.986328,0.5996 3.324219,0.0703 -1.720703,2.84375 z"
             id="path101" />
        </g>
      </g>
    </g>
    <g
       id="path84"
       inkscape:transform-center-x="-11.179691"
       inkscape:transform-center-y="6.1465402">
      <path
         style="color:#000000;fill:#800000;-inkscape-stroke:none"
         d="m 50.25992,147.08536 22.36009,12.28975"
         id="path112" />
      <path
         style="color:#000000;fill:#000000;-inkscape-stroke:none"
         d="m 50.46875,146.70703 -0.417969,0.75781 22.361328,12.28907 0.416016,-0.75782 z"
         id="path113" />
      <g
         id="g109">
        <g
           id="path109">
          <path
             style="color:#000000;fill:#000000;fill-rule:evenodd;-inkscape-stroke:none"
             d="m 72.532835,159.3272 -4.320156,0.0931 2.083218,-3.79023 z"
             id="path110" />
          <path
             style="color:#000000;fill:#000000;fill-rule:evenodd;-inkscape-stroke:none"
             d="m 70.283203,155.05273 -2.564453,4.66602 5.318359,-0.11328 z m 0.02539,1.1543 1.720703,2.84375 -3.324219,0.0703 z"
             id="path111" />
        </g>
      </g>
    </g>
    <g
       id="path94">
      <path
         style="color:#000000;fill:#808080;-inkscape-stroke:none"
         d="m 68.810547,128.47852 -0.398438,0.40039 c 4.891431,4.87644 7.614424,11.51518 7.556641,18.42187 -0.05778,6.9067 -2.8929,13.49905 -7.865234,18.29297 L 68.496094,166 c 5.08144,-4.89911 7.978058,-11.63707 8.037109,-18.69531 0.05905,-7.05825 -2.723896,-13.84273 -7.722656,-18.82617 z"
         id="path98" />
      <g
         id="g95">
        <g
           id="path95">
          <path
             style="color:#000000;fill:#808080;fill-rule:evenodd;-inkscape-stroke:none"
             d="m 68.656831,128.72393 2.727808,0.72493 -1.994509,2.00064 z"
             id="path96" />
          <path
             style="color:#000000;fill:#808080;fill-rule:evenodd;-inkscape-stroke:none"
             d="m 68.390625,128.45898 0.902344,3.35547 2.455078,-2.46289 z m 0.53125,0.53125 2.099609,0.55664 -1.535156,1.53711 z"
             id="path97" />
        </g>
      </g>
    </g>
    <text
       xml:space="preserve"
       style="font-size:7.05556px;line-height:normal;font-family:'Latin Modern Math';-inkscape-font-specification:'Latin Modern Math';text-decoration-color:#000000;fill:#ffd5d5;stroke:none;stroke-width:0.865"
       x="67.088577"
       y="151.84021"
       id="text86"><tspan
         sodipodi:role="line"
         id="tspan86"
         style="font-style:italic;font-variant:normal;font-weight:normal;font-stretch:normal;font-family:'Latin Modern Math';-inkscape-font-specification:'Latin Modern Math Italic';fill:#000000"
         x="67.088577"
         y="151.84021"><tspan
           style="font-style:normal;font-variant:normal;font-weight:bold;font-stretch:normal;font-family:'DejaVu Serif';-inkscape-font-specification:'DejaVu Serif';fill:#000000"
           id="tspan85">v</tspan></tspan></text>
    <text
       xml:space="preserve"
       style="font-size:7.05556px;line-height:normal;font-family:'Latin Modern Math';-inkscape-font-specification:'Latin Modern Math';text-decoration-color:#000000;fill:#ffd5d5;stroke:none;stroke-width:0.865"
       x="60.978535"
       y="137.59802"
       id="text88"><tspan
         sodipodi:role="line"
         id="tspan88"
         style="font-style:italic;font-variant:normal;font-weight:normal;font-stretch:normal;font-family:'Latin Modern Math';-inkscape-font-specification:'Latin Modern Math Italic';fill:#000000"
         x="60.978535"
         y="137.59802"><tspan
           style="font-style:normal;font-variant:normal;font-weight:bold;font-stretch:normal;font-family:'DejaVu Serif';-inkscape-font-specification:'DejaVu Serif';fill:#000000"
           id="tspan87">w</tspan></tspan></text>
    <text
       xml:space="preserve"
       style="font-size:7.05556px;line-height:normal;font-family:'Latin Modern Math';-inkscape-font-specification:'Latin Modern Math';text-decoration-color:#000000;fill:#ffd5d5;stroke:none;stroke-width:0.865"
       x="79.499367"
       y="134.42299"
       id="text90"><tspan
         sodipodi:role="line"
         id="tspan90"
         style="font-style:italic;font-variant:normal;font-weight:normal;font-stretch:normal;font-family:'Latin Modern Math';-inkscape-font-specification:'Latin Modern Math Italic';fill:#000000"
         x="79.499367"
         y="134.42299"><tspan
           style="font-style:normal;font-variant:normal;font-weight:bold;font-stretch:normal;font-family:'DejaVu Serif';-inkscape-font-specification:'DejaVu Serif';fill:#000000"
           id="tspan89">v<tspan
   style="font-style:normal;font-variant:normal;font-weight:normal;font-stretch:normal;font-family:'Latin Modern Math';-inkscape-font-specification:'Latin Modern Math'"
   id="tspan91">∧</tspan>w</tspan></tspan></text>
    <text
       xml:space="preserve"
       style="font-size:7.05556px;line-height:normal;font-family:'Latin Modern Math';-inkscape-font-specification:'Latin Modern Math';text-decoration-color:#000000;fill:#ffd5d5;stroke:none;stroke-width:0.865"
       x="77.911865"
       y="164.05638"
       id="text94"><tspan
         sodipodi:role="line"
         id="tspan94"
         style="font-style:italic;font-variant:normal;font-weight:normal;font-stretch:normal;font-family:'Latin Modern Math';-inkscape-font-specification:'Latin Modern Math Italic';fill:#000000"
         x="77.911865"
         y="164.05638"><tspan
           style="font-style:normal;font-variant:normal;font-weight:bold;font-stretch:normal;font-family:'DejaVu Serif';-inkscape-font-specification:'DejaVu Serif';fill:#000000"
           id="tspan93">u<tspan
   style="font-style:normal;font-variant:normal;font-weight:normal;font-stretch:normal;font-family:'Latin Modern Math';-inkscape-font-specification:'Latin Modern Math'"
   id="tspan92">∧</tspan>v</tspan></tspan></text>
  </g>
</svg>
