<?xml version="1.0" encoding="UTF-8" standalone="no"?>
<!-- Created with Inkscape (http://www.inkscape.org/) -->

<svg
   width="87.394302mm"
   height="58.369476mm"
   viewBox="0 0 87.394302 58.369476"
   version="1.1"
   id="svg1"
   inkscape:version="1.3.2 (1:1.3.2+202311252150+091e20ef0f)"
   sodipodi:docname="ext_alg_contraction.svg"
   xmlns:inkscape="http://www.inkscape.org/namespaces/inkscape"
   xmlns:sodipodi="http://sodipodi.sourceforge.net/DTD/sodipodi-0.dtd"
   xmlns="http://www.w3.org/2000/svg"
   xmlns:svg="http://www.w3.org/2000/svg">
  <sodipodi:namedview
     id="namedview1"
     pagecolor="#ffffff"
     bordercolor="#000000"
     borderopacity="0.25"
     inkscape:showpageshadow="2"
     inkscape:pageopacity="0.0"
     inkscape:pagecheckerboard="0"
     inkscape:deskcolor="#d1d1d1"
     inkscape:document-units="mm"
     inkscape:zoom="1.6310377"
     inkscape:cx="254.7458"
     inkscape:cy="106.9871"
     inkscape:window-width="1920"
     inkscape:window-height="995"
     inkscape:window-x="0"
     inkscape:window-y="0"
     inkscape:window-maximized="1"
     inkscape:current-layer="layer1" />
  <defs
     id="defs1" />
  <g
     inkscape:label="Layer 1"
     inkscape:groupmode="layer"
     id="layer1"
     transform="translate(-58.539301,-54.229318)">
    <path
       id="rect1"
       style="fill:#ffaaaa;fill-opacity:0.473118;stroke:#000000;stroke-width:0.465"
       d="m 105.57546,92.154433 40.29349,11.664757 -46.971495,8.54108 -40.293501,-11.66476 z"
       sodipodi:nodetypes="ccccc" />
    <g
       id="path1">
      <path
         style="color:#000000;fill:#000000;fill-opacity:0.473118;-inkscape-stroke:none"
         d="M 102.23645,102.25735 134.00104,59.049575"
         id="path23" />
      <path
         style="color:#000000;fill:#000000;-inkscape-stroke:none"
         d="m 133.81445,58.912109 -31.76562,43.207031 0.375,0.27539 31.76367,-43.20703 z"
         id="path24" />
      <g
         id="g20">
        <g
           id="path20">
          <path
             style="color:#000000;fill:#000000;fill-rule:evenodd;-inkscape-stroke:none"
             d="m 133.96937,59.09266 -0.2546,2.308941 -1.87326,-1.377144 z"
             id="path21" />
          <path
             style="color:#000000;fill:#000000;fill-rule:evenodd;-inkscape-stroke:none"
             d="m 134.15234,58.84375 -2.61914,1.146484 2.30664,1.695313 z m -0.36718,0.498047 -0.19532,1.77539 -1.4414,-1.058593 z"
             id="path22" />
        </g>
      </g>
    </g>
    <g
       id="path3">
      <path
         style="color:#000000;fill:#000000;fill-opacity:0.473118;stroke-dasharray:1.395, 1.395;-inkscape-stroke:none"
         d="M 134.00104,59.049575 V 96.478332"
         id="path18" />
      <path
         style="color:#000000;fill:#000000;stroke-dasharray:1.395, 1.395;-inkscape-stroke:none"
         d="m 133.76758,59.048828 v 1.396484 h 0.46679 v -1.396484 z m 0,2.791016 v 1.394531 h 0.46679 v -1.394531 z m 0,2.789062 v 1.396485 h 0.46679 v -1.396485 z m 0,2.791016 v 1.394531 h 0.46679 v -1.394531 z m 0,2.789062 v 1.396485 h 0.46679 v -1.396485 z m 0,2.791016 v 1.394531 h 0.46679 V 73 Z m 0,2.789062 v 1.396485 h 0.46679 v -1.396485 z m 0,2.791016 v 1.394531 h 0.46679 v -1.394531 z m 0,2.789063 v 1.394531 h 0.46679 v -1.394531 z m 0,2.791015 v 1.394531 h 0.46679 v -1.394531 z m 0,2.789063 v 1.394531 h 0.46679 v -1.394531 z m 0,2.791015 v 1.394532 h 0.46679 v -1.394532 z m 0,2.789063 v 1.394531 h 0.46679 v -1.394531 z m 0,2.791015 v 1.158204 h 0.46679 v -1.158204 z"
         id="path19" />
    </g>
    <path
       style="fill:#000000;fill-opacity:0.473118;stroke:#000000;stroke-width:0.465;stroke-dasharray:1.395, 1.395;stroke-dashoffset:0;-inkscape-stroke:none"
       d="m 102.23645,102.25735 31.76459,-5.779018"
       id="path4" />
    <g
       id="path7">
      <path
         style="color:#000000;fill:#000000;fill-opacity:0.473118;-inkscape-stroke:none"
         d="M 102.23645,102.25735 76.472236,94.887551"
         id="path16" />
      <path
         style="color:#000000;fill:#000000;-inkscape-stroke:none"
         d="m 76.537109,94.664062 -0.128906,0.447266 25.763677,7.369142 0.1289,-0.44727 z"
         id="path17" />
      <g
         id="g13">
        <g
           id="path13">
          <path
             style="color:#000000;fill:#000000;fill-rule:evenodd;-inkscape-stroke:none"
             d="m 76.523649,94.902258 2.253282,-0.564579 -0.639416,2.235346 z"
             id="path14" />
          <path
             style="color:#000000;fill:#000000;fill-rule:evenodd;-inkscape-stroke:none"
             d="m 79,94.121094 -2.773438,0.695312 1.986329,2.056641 z m -0.447266,0.433593 -0.490234,1.716797 -1.242188,-1.283203 z"
             id="path15" />
        </g>
      </g>
    </g>
    <text
       xml:space="preserve"
       style="font-size:7.05556px;line-height:normal;font-family:'Latin Modern Math';-inkscape-font-specification:'Latin Modern Math';text-decoration-color:#000000;fill:#000000;fill-opacity:1;stroke:none;stroke-width:0.465;stroke-dasharray:none;stroke-dashoffset:0;-inkscape-stroke:none"
       x="134.31406"
       y="57.891457"
       id="text8"><tspan
         sodipodi:role="line"
         id="tspan8"
         style="font-style:normal;font-variant:normal;font-weight:bold;font-stretch:normal;font-family:'DejaVu Serif';-inkscape-font-specification:'DejaVu Serif';fill:#000000;fill-opacity:1;stroke:none;stroke-width:0.464999"
         x="134.31406"
         y="57.891457">x</tspan></text>
    <text
       xml:space="preserve"
       style="font-size:7.05556px;line-height:normal;font-family:'Latin Modern Math';-inkscape-font-specification:'Latin Modern Math';text-decoration-color:#000000;fill:#000000;fill-opacity:1;stroke:none;stroke-width:0.465;stroke-dasharray:none;stroke-dashoffset:0;-inkscape-stroke:none"
       x="63.312576"
       y="92.358147"
       id="text9"><tspan
         sodipodi:role="line"
         id="tspan9"
         style="font-style:normal;font-variant:normal;font-weight:bold;font-stretch:normal;font-family:'DejaVu Serif';-inkscape-font-specification:'DejaVu Serif';fill:#000000;fill-opacity:1;stroke:none;stroke-width:0.464999"
         x="63.312576"
         y="92.358147">x<tspan
   style="font-style:normal;font-variant:normal;font-weight:normal;font-stretch:normal;font-family:'Latin Modern Math';-inkscape-font-specification:'Latin Modern Math'"
   id="tspan10">⌋</tspan>B</tspan></text>
    <text
       xml:space="preserve"
       style="font-size:7.05556px;line-height:normal;font-family:'Latin Modern Math';-inkscape-font-specification:'Latin Modern Math';text-decoration-color:#000000;fill:#000000;fill-opacity:1;stroke:none;stroke-width:0.465;stroke-dasharray:none;stroke-dashoffset:0;-inkscape-stroke:none"
       x="96.474953"
       y="110.44039"
       id="text12"><tspan
         sodipodi:role="line"
         id="tspan12"
         style="font-style:normal;font-variant:normal;font-weight:bold;font-stretch:normal;font-family:'DejaVu Serif';-inkscape-font-specification:'DejaVu Serif';fill:#000000;fill-opacity:1;stroke:none;stroke-width:0.464999"
         x="96.474953"
         y="110.44039">B</tspan></text>
  </g>
</svg>
