<?xml version="1.0" encoding="UTF-8" standalone="no"?>
<!-- Created with Inkscape (http://www.inkscape.org/) -->

<svg
   width="87.394302mm"
   height="58.369476mm"
   viewBox="0 0 87.394302 58.369476"
   version="1.1"
   id="svg1"
   inkscape:version="1.3.2 (1:1.3.2+202311252150+091e20ef0f)"
   sodipodi:docname="ext_alg_contraction_basis.svg"
   xmlns:inkscape="http://www.inkscape.org/namespaces/inkscape"
   xmlns:sodipodi="http://sodipodi.sourceforge.net/DTD/sodipodi-0.dtd"
   xmlns="http://www.w3.org/2000/svg"
   xmlns:svg="http://www.w3.org/2000/svg">
  <sodipodi:namedview
     id="namedview1"
     pagecolor="#ffffff"
     bordercolor="#000000"
     borderopacity="0.25"
     inkscape:showpageshadow="2"
     inkscape:pageopacity="0.0"
     inkscape:pagecheckerboard="0"
     inkscape:deskcolor="#d1d1d1"
     inkscape:document-units="mm"
     inkscape:zoom="2.5978841"
     inkscape:cx="250.78101"
     inkscape:cy="151.08449"
     inkscape:window-width="1920"
     inkscape:window-height="995"
     inkscape:window-x="0"
     inkscape:window-y="0"
     inkscape:window-maximized="1"
     inkscape:current-layer="layer1" />
  <defs
     id="defs1" />
  <g
     inkscape:label="Layer 1"
     inkscape:groupmode="layer"
     id="layer1"
     transform="translate(-58.539301,-54.229318)">
    <path
       id="rect1"
       style="fill:#ffaaaa;fill-opacity:0.473118;stroke:#000000;stroke-width:0.465"
       d="m 105.57546,92.154433 40.29349,11.664757 -46.971495,8.54108 -40.293501,-11.66476 z"
       sodipodi:nodetypes="ccccc" />
    <g
       id="path1">
      <path
         style="color:#000000;fill:#000000;fill-opacity:0.473118;-inkscape-stroke:none"
         d="M 102.23645,102.25735 134.00104,59.049575"
         id="path23" />
      <path
         style="color:#000000;fill:#000000;-inkscape-stroke:none"
         d="m 133.81445,58.912109 -31.76562,43.207031 0.375,0.27539 31.76367,-43.20703 z"
         id="path24" />
      <g
         id="g20">
        <g
           id="path20">
          <path
             style="color:#000000;fill:#000000;fill-rule:evenodd;-inkscape-stroke:none"
             d="m 133.96937,59.09266 -0.2546,2.308941 -1.87326,-1.377144 z"
             id="path21" />
          <path
             style="color:#000000;fill:#000000;fill-rule:evenodd;-inkscape-stroke:none"
             d="m 134.15234,58.84375 -2.61914,1.146484 2.30664,1.695313 z m -0.36718,0.498047 -0.19532,1.77539 -1.4414,-1.058593 z"
             id="path22" />
        </g>
      </g>
    </g>
    <g
       id="path3">
      <path
         style="color:#000000;fill:#000000;fill-opacity:0.473118;stroke-dasharray:1.395, 1.395;-inkscape-stroke:none"
         d="M 134.00104,59.049575 V 96.478332"
         id="path18" />
      <path
         style="color:#000000;fill:#000000;stroke-dasharray:1.395, 1.395;-inkscape-stroke:none"
         d="m 133.76758,59.048828 v 1.396484 h 0.46679 v -1.396484 z m 0,2.791016 v 1.394531 h 0.46679 v -1.394531 z m 0,2.789062 v 1.396485 h 0.46679 v -1.396485 z m 0,2.791016 v 1.394531 h 0.46679 v -1.394531 z m 0,2.789062 v 1.396485 h 0.46679 v -1.396485 z m 0,2.791016 v 1.394531 h 0.46679 V 73 Z m 0,2.789062 v 1.396485 h 0.46679 v -1.396485 z m 0,2.791016 v 1.394531 h 0.46679 v -1.394531 z m 0,2.789063 v 1.394531 h 0.46679 v -1.394531 z m 0,2.791015 v 1.394531 h 0.46679 v -1.394531 z m 0,2.789063 v 1.394531 h 0.46679 v -1.394531 z m 0,2.791015 v 1.394532 h 0.46679 v -1.394532 z m 0,2.789063 v 1.394531 h 0.46679 v -1.394531 z m 0,2.791015 v 1.158204 h 0.46679 v -1.158204 z"
         id="path19" />
    </g>
    <path
       style="fill:#000000;fill-opacity:0.473118;stroke:#000000;stroke-width:0.465;stroke-dasharray:1.395, 1.395;stroke-dashoffset:0;-inkscape-stroke:none"
       d="m 102.23645,102.25735 31.76459,-5.779018"
       id="path4" />
    <g
       id="path7">
      <path
         style="color:#000000;fill:#000000;fill-opacity:0.473118;-inkscape-stroke:none"
         d="M 102.23645,102.25735 76.472236,94.887551"
         id="path16" />
      <path
         style="color:#000000;fill:#000000;-inkscape-stroke:none"
         d="m 76.537109,94.664062 -0.128906,0.447266 25.763677,7.369142 0.1289,-0.44727 z"
         id="path17" />
      <g
         id="g13">
        <g
           id="path13">
          <path
             style="color:#000000;fill:#000000;fill-rule:evenodd;-inkscape-stroke:none"
             d="m 76.523649,94.902258 2.253282,-0.564579 -0.639416,2.235346 z"
             id="path14" />
          <path
             style="color:#000000;fill:#000000;fill-rule:evenodd;-inkscape-stroke:none"
             d="m 79,94.121094 -2.773438,0.695312 1.986329,2.056641 z m -0.447266,0.433593 -0.490234,1.716797 -1.242188,-1.283203 z"
             id="path15" />
        </g>
      </g>
    </g>
    <text
       xml:space="preserve"
       style="font-size:7.05556px;line-height:normal;font-family:'Latin Modern Math';-inkscape-font-specification:'Latin Modern Math';text-decoration-color:#000000;fill:#000000;fill-opacity:1;stroke:none;stroke-width:0.465;stroke-dasharray:none;stroke-dashoffset:0;-inkscape-stroke:none"
       x="134.31406"
       y="57.891457"
       id="text8"><tspan
         sodipodi:role="line"
         id="tspan8"
         style="font-style:normal;font-variant:normal;font-weight:bold;font-stretch:normal;font-family:'DejaVu Serif';-inkscape-font-specification:'DejaVu Serif';fill:#000000;fill-opacity:1;stroke:none;stroke-width:0.464999"
         x="134.31406"
         y="57.891457">x</tspan></text>
    <text
       xml:space="preserve"
       style="font-size:7.05556px;line-height:normal;font-family:'Latin Modern Math';-inkscape-font-specification:'Latin Modern Math';text-decoration-color:#000000;fill:#000000;fill-opacity:1;stroke:none;stroke-width:0.465;stroke-dasharray:none;stroke-dashoffset:0;-inkscape-stroke:none"
       x="63.312576"
       y="92.358147"
       id="text9"><tspan
         sodipodi:role="line"
         id="tspan9"
         style="font-style:normal;font-variant:normal;font-weight:bold;font-stretch:normal;font-family:'DejaVu Serif';-inkscape-font-specification:'DejaVu Serif';fill:#000000;fill-opacity:1;stroke:none;stroke-width:0.464999"
         x="63.312576"
         y="92.358147">x<tspan
   style="font-style:normal;font-variant:normal;font-weight:normal;font-stretch:normal;font-family:'Latin Modern Math';-inkscape-font-specification:'Latin Modern Math'"
   id="tspan10">⌋</tspan>B</tspan></text>
    <text
       xml:space="preserve"
       style="font-size:7.05556px;line-height:normal;font-family:'Latin Modern Math';-inkscape-font-specification:'Latin Modern Math';text-decoration-color:#000000;fill:#000000;fill-opacity:1;stroke:none;stroke-width:0.465;stroke-dasharray:none;stroke-dashoffset:0;-inkscape-stroke:none"
       x="96.474953"
       y="110.44039"
       id="text12"><tspan
         sodipodi:role="line"
         id="tspan12"
         style="font-style:normal;font-variant:normal;font-weight:bold;font-stretch:normal;font-family:'DejaVu Serif';-inkscape-font-specification:'DejaVu Serif';fill:#000000;fill-opacity:1;stroke:none;stroke-width:0.464999"
         x="96.474953"
         y="110.44039">B</tspan></text>
    <g
       id="path2">
      <path
         style="color:#000000;fill:#800000;-inkscape-stroke:none"
         d="m 118.07617,99.138672 -15.88086,2.890628 0.082,0.45703 15.88282,-2.890627 z"
         id="path40" />
      <g
         id="g37">
        <g
           id="path37">
          <path
             style="color:#000000;fill:#800000;fill-rule:evenodd;-inkscape-stroke:none"
             d="m 118.06613,99.377412 -1.77057,1.503708 -0.41616,-2.287453 z"
             id="path38" />
          <path
             style="color:#000000;fill:#800000;fill-rule:evenodd;-inkscape-stroke:none"
             d="m 115.67969,98.357422 0.51172,2.816408 2.17968,-1.851564 z m 0.40039,0.472656 1.68164,0.603516 -1.36328,1.156246 z"
             id="path39" />
        </g>
      </g>
    </g>
    <text
       xml:space="preserve"
       style="font-style:normal;font-variant:normal;font-weight:normal;font-stretch:normal;font-size:7.05556px;line-height:normal;font-family:cmr10;-inkscape-font-specification:cmr10;text-decoration-color:#000000;fill:none;stroke:#800000;stroke-width:0.465;-inkscape-stroke:none"
       x="111.43153"
       y="105.29686"
       id="text2"><tspan
         sodipodi:role="line"
         id="tspan2"
         style="font-style:normal;font-variant:normal;font-weight:normal;font-stretch:normal;font-family:'DejaVu Serif';-inkscape-font-specification:'DejaVu Serif';fill:#800000;stroke:none;stroke-width:0.464999"
         x="111.43153"
         y="105.29686"><tspan
           style="font-weight:bold"
           id="tspan4">e</tspan><tspan
           style="font-style:normal;font-variant:normal;font-weight:normal;font-stretch:normal;font-size:65%;font-family:'DejaVu Serif';-inkscape-font-specification:'DejaVu Serif';baseline-shift:sub"
           id="tspan3">1</tspan></tspan></text>
    <text
       xml:space="preserve"
       style="font-style:normal;font-variant:normal;font-weight:normal;font-stretch:normal;font-size:7.05556px;line-height:normal;font-family:cmr10;-inkscape-font-specification:cmr10;text-decoration-color:#000000;fill:none;stroke:#800000;stroke-width:0.465;-inkscape-stroke:none"
       x="94.095589"
       y="86.746445"
       id="text7"><tspan
         sodipodi:role="line"
         id="tspan7"
         style="font-style:normal;font-variant:normal;font-weight:normal;font-stretch:normal;font-family:'DejaVu Serif';-inkscape-font-specification:'DejaVu Serif';fill:#800000;stroke:none;stroke-width:0.464999"
         x="94.095589"
         y="86.746445"><tspan
           style="font-weight:bold"
           id="tspan5">e</tspan><tspan
           style="font-style:normal;font-variant:normal;font-weight:normal;font-stretch:normal;font-size:65%;font-family:'DejaVu Serif';-inkscape-font-specification:'DejaVu Serif';baseline-shift:sub"
           id="tspan6">3</tspan></tspan></text>
    <g
       id="path8"
       inkscape:transform-center-x="7.7602559"
       inkscape:transform-center-y="-2.219805">
      <path
         style="color:#000000;fill:#800000;-inkscape-stroke:none"
         d="m 86.779297,97.59375 -0.126953,0.447266 15.519536,4.439454 0.1289,-0.44727 z"
         id="path36" />
      <g
         id="g33">
        <g
           id="path33">
          <path
             style="color:#000000;fill:#800000;fill-rule:evenodd;-inkscape-stroke:none"
             d="m 86.767351,97.832447 2.253282,-0.564579 -0.639416,2.235347 z"
             id="path34" />
          <path
             style="color:#000000;fill:#800000;fill-rule:evenodd;-inkscape-stroke:none"
             d="m 89.244141,97.052734 -2.775391,0.695313 1.988281,2.05664 z m -0.447266,0.431641 -0.490234,1.71875 -1.242188,-1.285156 z"
             id="path35" />
        </g>
      </g>
    </g>
    <text
       xml:space="preserve"
       style="font-style:normal;font-variant:normal;font-weight:normal;font-stretch:normal;font-size:7.05556px;line-height:normal;font-family:cmr10;-inkscape-font-specification:cmr10;text-decoration-color:#000000;fill:none;stroke:#800000;stroke-width:0.465;-inkscape-stroke:none"
       x="90.794052"
       y="104.76769"
       id="text14"><tspan
         sodipodi:role="line"
         id="tspan14"
         style="font-style:normal;font-variant:normal;font-weight:normal;font-stretch:normal;font-family:'DejaVu Serif';-inkscape-font-specification:'DejaVu Serif';fill:#800000;stroke:none;stroke-width:0.464999"
         x="90.794052"
         y="104.76769"><tspan
           style="font-weight:bold"
           id="tspan11">e</tspan><tspan
           style="font-style:normal;font-variant:normal;font-weight:normal;font-stretch:normal;font-size:65%;font-family:'DejaVu Serif';-inkscape-font-specification:'DejaVu Serif';baseline-shift:sub"
           id="tspan13">2</tspan></tspan></text>
    <g
       id="path25"
       inkscape:transform-center-y="-8.0715">
      <path
         style="color:#000000;fill:#800000;-inkscape-stroke:none"
         d="m 102.00391,86.115234 v 16.142576 h 0.46484 V 86.115234 Z"
         id="path32" />
      <g
         id="g29">
        <g
           id="path29">
          <path
             style="color:#000000;fill:#800000;fill-rule:evenodd;-inkscape-stroke:none"
             d="m 102.23645,86.167825 1.1625,2.011125 h -2.325 z"
             id="path30" />
          <path
             style="color:#000000;fill:#800000;fill-rule:evenodd;-inkscape-stroke:none"
             d="m 102.23633,85.857422 -1.43164,2.476562 h 2.86328 z m 0,0.621094 0.89453,1.544921 h -1.78711 z"
             id="path31" />
        </g>
      </g>
    </g>
    <path
       style="fill:none;stroke:#000000;stroke-width:0.465;-inkscape-stroke:none"
       id="path26"
       sodipodi:type="arc"
       sodipodi:cx="102.04826"
       sodipodi:cy="100.49407"
       sodipodi:rx="7.6632886"
       sodipodi:ry="9.8998137"
       sodipodi:start="5.5929235"
       sodipodi:end="0.02591012"
       sodipodi:open="true"
       sodipodi:arc-type="arc"
       d="m 107.95727,94.190474 a 7.6632886,9.8998137 0 0 1 1.75171,6.560076" />
    <text
       xml:space="preserve"
       style="font-style:normal;font-variant:normal;font-weight:normal;font-stretch:normal;font-size:7.05556px;line-height:normal;font-family:'Latin Modern Math';-inkscape-font-specification:'Latin Modern Math';text-decoration-color:#000000;fill:#000000;stroke:#800000;stroke-width:0.465;-inkscape-stroke:none"
       x="109.84403"
       y="97.888542"
       id="text28"><tspan
         sodipodi:role="line"
         id="tspan28"
         style="font-style:normal;font-variant:normal;font-weight:normal;font-stretch:normal;font-family:'Latin Modern Math';-inkscape-font-specification:'Latin Modern Math';fill:#000000;stroke:none;stroke-width:0.464999"
         x="109.84403"
         y="97.888542"><tspan
           style="font-style:normal;font-variant:normal;font-weight:normal;font-stretch:normal;font-family:'Latin Modern Math';-inkscape-font-specification:'Latin Modern Math';fill:#000000"
           id="tspan26">ϕ</tspan></tspan></text>
  </g>
</svg>
