<?xml version="1.0" encoding="UTF-8" standalone="no"?>
<!-- Created with Inkscape (http://www.inkscape.org/) -->

<svg
   width="119.95823mm"
   height="47.075878mm"
   viewBox="0 0 119.95823 47.075878"
   version="1.1"
   id="svg1"
   inkscape:version="1.3.2 (1:1.3.2+202311252150+091e20ef0f)"
   sodipodi:docname="ext_alg_lin_transf_homog.svg"
   xmlns:inkscape="http://www.inkscape.org/namespaces/inkscape"
   xmlns:sodipodi="http://sodipodi.sourceforge.net/DTD/sodipodi-0.dtd"
   xmlns="http://www.w3.org/2000/svg"
   xmlns:svg="http://www.w3.org/2000/svg">
  <sodipodi:namedview
     id="namedview1"
     pagecolor="#ffffff"
     bordercolor="#000000"
     borderopacity="0.25"
     inkscape:showpageshadow="2"
     inkscape:pageopacity="0.0"
     inkscape:pagecheckerboard="0"
     inkscape:deskcolor="#d1d1d1"
     inkscape:document-units="mm"
     inkscape:zoom="1.4118561"
     inkscape:cx="312.70893"
     inkscape:cy="22.311056"
     inkscape:window-width="1920"
     inkscape:window-height="995"
     inkscape:window-x="0"
     inkscape:window-y="0"
     inkscape:window-maximized="1"
     inkscape:current-layer="g68"
     showguides="false" />
  <defs
     id="defs1" />
  <g
     inkscape:label="Layer 1"
     inkscape:groupmode="layer"
     id="layer1"
     transform="translate(-55.040346,-124.88126)">
    <g
       id="g68"
       transform="translate(-17.298437,8.5970187)"
       inkscape:label="homogeneous"
       style="display:inline">
      <g
         id="path4">
        <path
           style="color:#000000;fill:#000000;-inkscape-stroke:none"
           d="M 72.505033,146.12406 H 104.60506"
           id="path74" />
        <path
           style="color:#000000;fill:#800000;-inkscape-stroke:none"
           d="m 72.505859,145.69141 v 0.86523 h 32.099611 v -0.86523 z"
           id="path75" />
        <g
           id="g71">
          <g
             id="path71">
            <path
               style="color:#000000;fill:#800000;fill-rule:evenodd;-inkscape-stroke:none"
               d="m 104.50558,146.12406 -3.74112,2.1625 v -4.325 z"
               id="path72" />
            <path
               style="color:#000000;fill:#800000;fill-rule:evenodd;-inkscape-stroke:none"
               d="m 100.47656,143.46094 v 5.32617 l 4.60547,-2.66211 z m 0.57617,1 2.87696,1.66406 -2.87696,1.66211 z"
               id="path73" />
          </g>
        </g>
      </g>
      <g
         id="path5-6"
         inkscape:transform-center-x="-13.899722"
         inkscape:transform-center-y="-8.02501">
        <path
           style="color:#000000;fill:#000000;-inkscape-stroke:none"
           d="M 72.505033,146.12406 100.30447,130.07404"
           id="path79" />
        <path
           style="color:#000000;fill:#000080;-inkscape-stroke:none"
           d="m 100.13867,129.78516 -27.800779,16.05078 0.333984,0.57617 27.798825,-16.05078 z"
           id="path80" />
        <g
           id="g76">
          <g
             id="path76">
            <path
               style="color:#000000;fill:#000080;fill-rule:evenodd;-inkscape-stroke:none"
               d="m 100.23824,130.11228 -1.659549,2.87783 -1.662503,-2.87954 z"
               id="path77" />
            <path
               style="color:#000000;fill:#000080;fill-rule:evenodd;-inkscape-stroke:none"
               d="m 96.53125,129.88867 2.046875,3.54492 2.042965,-3.54297 z m 0.767578,0.44336 2.556641,0.002 -1.277344,2.21094 z"
               id="path78" />
          </g>
        </g>
      </g>
      <g
         id="path6-0">
        <path
           style="color:#000000;fill:#000000;-inkscape-stroke:none"
           d="m 72.505033,146.12406 h 16.23325"
           id="path84" />
        <path
           style="color:#000000;fill:#800000;-inkscape-stroke:none"
           d="m 72.505859,145.79102 v 0.66601 h 16.232422 v -0.66601 z"
           id="path85" />
        <g
           id="g81">
          <g
             id="path81">
            <path
               style="color:#000000;fill:#800000;fill-rule:evenodd;-inkscape-stroke:none"
               d="m 88.661808,146.12406 -2.876129,1.6625 v -3.325 z"
               id="path82" />
            <path
               style="color:#000000;fill:#800000;fill-rule:evenodd;-inkscape-stroke:none"
               d="m 85.564453,144.07812 v 4.0918 l 3.541016,-2.04492 z m 0.443359,0.76954 2.210938,1.27734 -2.210938,1.27539 z"
               id="path83" />
          </g>
        </g>
      </g>
      <g
         id="path7-6"
         inkscape:transform-center-x="-13.899722"
         inkscape:transform-center-y="-8.02501">
        <path
           style="color:#000000;fill:#000000;-inkscape-stroke:none"
           d="m 72.505033,146.12406 13.97528,-8.02501"
           id="path89" />
        <path
           style="color:#000000;fill:#000080;-inkscape-stroke:none"
           d="m 86.314453,137.81055 -13.974609,8.02539 0.330078,0.57617 13.976562,-8.02539 z"
           id="path90" />
        <g
           id="g86">
          <g
             id="path86">
            <path
               style="color:#000000;fill:#000080;fill-rule:evenodd;-inkscape-stroke:none"
               d="m 86.413994,138.13713 -1.666291,2.87394 -1.655748,-2.88343 z"
               id="path87" />
            <path
               style="color:#000000;fill:#000080;fill-rule:evenodd;-inkscape-stroke:none"
               d="m 82.708984,137.9043 2.03711,3.55078 2.052734,-3.53906 z m 0.767578,0.44726 2.552735,0.006 -1.28125,2.21094 z"
               id="path88" />
          </g>
        </g>
      </g>
      <text
         xml:space="preserve"
         style="font-size:7.05556px;line-height:normal;font-family:'Latin Modern Math';-inkscape-font-specification:'Latin Modern Math';text-decoration-color:#000000;display:inline;fill:#800000;fill-opacity:1;stroke:none;stroke-width:0.465;stroke-dasharray:none;stroke-dashoffset:0;-inkscape-stroke:none"
         x="82.883362"
         y="154.38429"
         id="text16-1"><tspan
           sodipodi:role="line"
           id="tspan16-2"
           style="font-style:normal;font-variant:normal;font-weight:bold;font-stretch:normal;font-family:'DejaVu Serif';-inkscape-font-specification:'DejaVu Serif';fill:#800000;fill-opacity:1;stroke:none;stroke-width:0.464999"
           x="82.883362"
           y="154.38429">x</tspan></text>
      <text
         xml:space="preserve"
         style="font-size:7.05556px;line-height:normal;font-family:'Latin Modern Math';-inkscape-font-specification:'Latin Modern Math';text-decoration-color:#000000;display:inline;fill:#800000;fill-opacity:1;stroke:none;stroke-width:0.465;stroke-dasharray:none;stroke-dashoffset:0;-inkscape-stroke:none"
         x="99.816689"
         y="154.38429"
         id="text4"><tspan
           sodipodi:role="line"
           id="tspan4"
           style="font-style:normal;font-variant:normal;font-weight:bold;font-stretch:normal;font-family:'DejaVu Serif';-inkscape-font-specification:'DejaVu Serif';fill:#800000;fill-opacity:1;stroke:none;stroke-width:0.464999"
           x="99.816689"
           y="154.38429"><tspan
   style="font-style:normal;font-variant:normal;font-weight:normal;font-stretch:normal;font-family:'Latin Modern Math';-inkscape-font-specification:'Latin Modern Math'"
   id="tspan5">α</tspan>x</tspan></text>
      <text
         xml:space="preserve"
         style="font-size:7.05556px;line-height:normal;font-family:'Latin Modern Math';-inkscape-font-specification:'Latin Modern Math';text-decoration-color:#000000;display:inline;fill:#000080;fill-opacity:1;stroke:none;stroke-width:0.465;stroke-dasharray:none;stroke-dashoffset:0;-inkscape-stroke:none"
         x="101.38804"
         y="128.77722"
         id="text26"><tspan
           sodipodi:role="line"
           id="tspan26"
           style="font-style:normal;font-variant:normal;font-weight:bold;font-stretch:normal;font-family:'DejaVu Serif';-inkscape-font-specification:'DejaVu Serif';fill:#000080;fill-opacity:1;stroke:none;stroke-width:0.464999"
           x="101.38804"
           y="128.77722"><tspan
   style="font-style:normal;font-variant:normal;font-weight:normal;font-stretch:normal;font-family:'Latin Modern Math';-inkscape-font-specification:'Latin Modern Math';fill:#000080"
   id="tspan25">αf[</tspan>x<tspan
   style="font-style:normal;font-variant:normal;font-weight:normal;font-stretch:normal;font-family:'Latin Modern Math';-inkscape-font-specification:'Latin Modern Math';fill:#000080"
   id="tspan27">]</tspan></tspan></text>
      <text
         xml:space="preserve"
         style="font-size:7.05556px;line-height:normal;font-family:'Latin Modern Math';-inkscape-font-specification:'Latin Modern Math';text-decoration-color:#000000;display:inline;fill:#000080;fill-opacity:1;stroke:none;stroke-width:0.465;stroke-dasharray:none;stroke-dashoffset:0;-inkscape-stroke:none"
         x="74.929718"
         y="135.12721"
         id="text30"><tspan
           sodipodi:role="line"
           id="tspan30"
           style="font-style:normal;font-variant:normal;font-weight:bold;font-stretch:normal;font-family:'DejaVu Serif';-inkscape-font-specification:'DejaVu Serif';fill:#000080;fill-opacity:1;stroke:none;stroke-width:0.464999"
           x="74.929718"
           y="135.12721"><tspan
   style="font-style:normal;font-variant:normal;font-weight:normal;font-stretch:normal;font-family:'Latin Modern Math';-inkscape-font-specification:'Latin Modern Math';fill:#000080"
   id="tspan28">f[</tspan>x<tspan
   style="font-style:normal;font-variant:normal;font-weight:normal;font-stretch:normal;font-family:'Latin Modern Math';-inkscape-font-specification:'Latin Modern Math';fill:#000080"
   id="tspan29">]</tspan></tspan></text>
    </g>
    <g
       id="g69"
       transform="translate(-17.298437,8.5970187)"
       inkscape:label="additive"
       style="display:none">
      <path
         style="fill:#a9a9ff;fill-opacity:1;stroke:none;stroke-width:0.865"
         d="m 145.09908,123.48555 18.12844,-2.65204 7.59565,14.32516 -18.12844,2.65204 z"
         id="path68" />
      <path
         style="fill:#ffaaaa;stroke:none;stroke-width:0.865"
         d="m 133.50767,140.51282 -4.70375,15.78032 19.18706,-2.70211 4.70375,-15.78032 z"
         id="path67" />
      <g
         id="path34">
        <path
           style="color:#000000;fill:#000000;-inkscape-stroke:none"
           d="m 152.69473,137.81071 -19.18706,2.70211"
           id="path94" />
        <path
           style="color:#000000;fill:#800000;-inkscape-stroke:none"
           d="m 152.64844,137.48242 -19.1875,2.70117 0.0937,0.65821 19.18554,-2.70118 z"
           id="path95" />
        <g
           id="g91">
          <g
             id="path91">
            <path
               style="color:#000000;fill:#800000;fill-rule:evenodd;-inkscape-stroke:none"
               d="m 133.5834,140.50216 2.61618,-2.04735 0.46369,3.29252 z"
               id="path92" />
            <path
               style="color:#000000;fill:#800000;fill-rule:evenodd;-inkscape-stroke:none"
               d="m 136.36523,138.04297 -3.2207,2.52148 3.79102,1.53321 z m -0.33203,0.82226 0.35742,2.53125 -2.36914,-0.95703 z"
               id="path93" />
          </g>
        </g>
      </g>
      <g
         id="path36">
        <path
           style="color:#000000;fill:#000000;-inkscape-stroke:none"
           d="m 152.69473,137.81071 -4.70375,15.78032"
           id="path99" />
        <path
           style="color:#000000;fill:#800000;-inkscape-stroke:none"
           d="m 152.37695,137.71484 -4.70508,15.78125 0.63868,0.18946 4.70312,-15.7793 z"
           id="path100" />
        <g
           id="g96">
          <g
             id="path96">
            <path
               style="color:#000000;fill:#800000;fill-rule:evenodd;-inkscape-stroke:none"
               d="m 148.01283,153.51774 -0.77165,-3.23119 3.18646,0.94981 z"
               id="path97" />
            <path
               style="color:#000000;fill:#800000;fill-rule:evenodd;-inkscape-stroke:none"
               d="m 146.93555,149.96484 0.95117,3.97657 2.97265,-2.8086 z m 0.61132,0.64258 2.44922,0.73242 -1.85742,1.75391 z"
               id="path98" />
          </g>
        </g>
      </g>
      <g
         id="path42">
        <path
           style="color:#000000;fill:#000000;-inkscape-stroke:none"
           d="m 152.69473,137.81071 -23.89081,18.48243"
           id="path104" />
        <path
           style="color:#000000;fill:#800000;-inkscape-stroke:none"
           d="m 152.49219,137.54687 -23.89258,18.48243 0.4082,0.52734 23.89063,-18.48242 z"
           id="path105" />
        <g
           id="g101">
          <g
             id="path101">
            <path
               style="color:#000000;fill:#800000;fill-rule:evenodd;-inkscape-stroke:none"
               d="m 128.86441,156.24635 1.25758,-3.07482 2.03454,2.62989 z"
               id="path102" />
            <path
               style="color:#000000;fill:#800000;fill-rule:evenodd;-inkscape-stroke:none"
               d="m 130.0625,152.73242 -1.54883,3.78516 4.05274,-0.54883 z m 0.12109,0.87891 1.5625,2.02148 -2.53125,0.34375 z"
               id="path103" />
          </g>
        </g>
      </g>
      <g
         id="path43">
        <path
           style="color:#000000;fill:#000000;-inkscape-stroke:none"
           d="m 152.69473,137.81071 -7.59565,-14.32516"
           id="path109" />
        <path
           style="color:#000000;fill:#000080;-inkscape-stroke:none"
           d="m 145.39258,123.33008 -0.58789,0.31055 7.5957,14.32617 0.58789,-0.3125 z"
           id="path110" />
        <g
           id="g106">
          <g
             id="path106">
            <path
               style="color:#000000;fill:#000080;fill-rule:evenodd;-inkscape-stroke:none"
               d="m 145.13491,123.55311 2.81613,1.76223 -2.9376,1.55761 z"
               id="path107" />
            <path
               style="color:#000000;fill:#000080;fill-rule:evenodd;-inkscape-stroke:none"
               d="m 144.92773,123.16211 -0.15039,4.08594 3.61719,-1.91602 z m 0.41407,0.78125 2.16601,1.35547 -2.25976,1.19922 z"
               id="path108" />
          </g>
        </g>
      </g>
      <g
         id="path44">
        <path
           style="color:#000000;fill:#000000;-inkscape-stroke:none"
           d="m 152.69473,137.81071 18.12844,-2.65204"
           id="path114" />
        <path
           style="color:#000000;fill:#000080;-inkscape-stroke:none"
           d="m 170.77539,134.83008 -18.12891,2.65234 0.0957,0.6582 18.1289,-2.65234 z"
           id="path115" />
        <g
           id="g111">
          <g
             id="path111">
            <path
               style="color:#000000;fill:#000080;fill-rule:evenodd;-inkscape-stroke:none"
               d="m 170.7475,135.16974 -2.60519,2.06132 -0.4813,-3.28999 z"
               id="path112" />
            <path
               style="color:#000000;fill:#000080;fill-rule:evenodd;-inkscape-stroke:none"
               d="m 167.38672,133.59375 0.5918,4.04883 3.20703,-2.53711 z m 0.54883,0.69531 2.375,0.94336 -2.00391,1.58594 z"
               id="path113" />
          </g>
        </g>
      </g>
      <g
         id="path46">
        <path
           style="color:#000000;fill:#000000;-inkscape-stroke:none"
           d="m 152.69473,137.81071 10.53279,-16.9772"
           id="path119" />
        <path
           style="color:#000000;fill:#000080;-inkscape-stroke:none"
           d="m 162.94531,120.6582 -10.5332,16.97657 0.56445,0.35156 10.53321,-16.97656 z"
           id="path120" />
        <g
           id="g116">
          <g
             id="path116">
            <path
               style="color:#000000;fill:#000080;fill-rule:evenodd;-inkscape-stroke:none"
               d="m 163.1872,120.89849 -0.10356,3.32044 -2.82541,-1.75291 z"
               id="path117" />
            <path
               style="color:#000000;fill:#000080;fill-rule:evenodd;-inkscape-stroke:none"
               d="m 163.41992,120.52148 -3.60547,1.92969 3.47852,2.15821 z m -0.4668,0.75391 -0.0801,2.55274 -2.16993,-1.34766 z"
               id="path118" />
          </g>
        </g>
      </g>
      <text
         xml:space="preserve"
         style="font-size:7.05556px;line-height:normal;font-family:'Latin Modern Math';-inkscape-font-specification:'Latin Modern Math';text-decoration-color:#000000;display:inline;fill:#800000;fill-opacity:1;stroke:none;stroke-width:0.465;stroke-dasharray:none;stroke-dashoffset:0;-inkscape-stroke:none"
         x="151.79636"
         y="154.38429"
         id="text47"><tspan
           sodipodi:role="line"
           id="tspan47"
           style="font-style:normal;font-variant:normal;font-weight:bold;font-stretch:normal;font-family:'DejaVu Serif';-inkscape-font-specification:'DejaVu Serif';fill:#800000;fill-opacity:1;stroke:none;stroke-width:0.464999"
           x="151.79636"
           y="154.38429">y</tspan></text>
      <text
         xml:space="preserve"
         style="font-size:7.05556px;line-height:normal;font-family:'Latin Modern Math';-inkscape-font-specification:'Latin Modern Math';text-decoration-color:#000000;display:inline;fill:#800000;fill-opacity:1;stroke:none;stroke-width:0.465;stroke-dasharray:none;stroke-dashoffset:0;-inkscape-stroke:none"
         x="131.15883"
         y="137.98012"
         id="text48"><tspan
           sodipodi:role="line"
           id="tspan48"
           style="font-style:normal;font-variant:normal;font-weight:bold;font-stretch:normal;font-family:'DejaVu Serif';-inkscape-font-specification:'DejaVu Serif';fill:#800000;fill-opacity:1;stroke:none;stroke-width:0.464999"
           x="131.15883"
           y="137.98012">x</tspan></text>
      <text
         xml:space="preserve"
         style="font-size:7.05556px;line-height:normal;font-family:'Latin Modern Math';-inkscape-font-specification:'Latin Modern Math';text-decoration-color:#000000;display:inline;fill:#800000;fill-opacity:1;stroke:none;stroke-width:0.465;stroke-dasharray:none;stroke-dashoffset:0;-inkscape-stroke:none"
         x="125.86716"
         y="161.7926"
         id="text49"><tspan
           sodipodi:role="line"
           id="tspan49"
           style="font-style:normal;font-variant:normal;font-weight:bold;font-stretch:normal;font-family:'DejaVu Serif';-inkscape-font-specification:'DejaVu Serif';fill:#800000;fill-opacity:1;stroke:none;stroke-width:0.464999"
           x="125.86716"
           y="161.7926">x<tspan
   style="font-style:normal;font-variant:normal;font-weight:normal;font-stretch:normal;font-family:'Latin Modern Math';-inkscape-font-specification:'Latin Modern Math'"
   id="tspan50">+</tspan>y</tspan></text>
      <text
         xml:space="preserve"
         style="font-size:7.05556px;line-height:normal;font-family:'Latin Modern Math';-inkscape-font-specification:'Latin Modern Math';text-decoration-color:#000000;display:inline;fill:#000080;fill-opacity:1;stroke:none;stroke-width:0.465;stroke-dasharray:none;stroke-dashoffset:0;-inkscape-stroke:none"
         x="167.14221"
         y="124.22174"
         id="text52"><tspan
           sodipodi:role="line"
           id="tspan52"
           style="font-style:normal;font-variant:normal;font-weight:bold;font-stretch:normal;font-family:'DejaVu Serif';-inkscape-font-specification:'DejaVu Serif';fill:#000080;fill-opacity:1;stroke:none;stroke-width:0.464999"
           x="167.14221"
           y="124.22174"><tspan
   style="font-style:normal;font-variant:normal;font-weight:normal;font-stretch:normal;font-family:'Latin Modern Math';-inkscape-font-specification:'Latin Modern Math';fill:#000080"
   id="tspan55">f[</tspan>x<tspan
   style="font-style:normal;font-variant:normal;font-weight:normal;font-stretch:normal;font-family:'Latin Modern Math';-inkscape-font-specification:'Latin Modern Math';fill:#000080"
   id="tspan58">]+f[</tspan>y<tspan
   style="font-style:normal;font-variant:normal;font-weight:normal;font-stretch:normal;font-family:'Latin Modern Math';-inkscape-font-specification:'Latin Modern Math';fill:#000080"
   id="tspan59">]</tspan></tspan></text>
      <text
         xml:space="preserve"
         style="font-size:7.05556px;line-height:normal;font-family:'Latin Modern Math';-inkscape-font-specification:'Latin Modern Math';text-decoration-color:#000000;display:inline;fill:#000080;fill-opacity:1;stroke:none;stroke-width:0.465;stroke-dasharray:none;stroke-dashoffset:0;-inkscape-stroke:none"
         x="141.21301"
         y="121.57591"
         id="text63"><tspan
           sodipodi:role="line"
           id="tspan63"
           style="font-style:normal;font-variant:normal;font-weight:bold;font-stretch:normal;font-family:'DejaVu Serif';-inkscape-font-specification:'DejaVu Serif';fill:#000080;fill-opacity:1;stroke:none;stroke-width:0.464999"
           x="141.21301"
           y="121.57591"><tspan
   style="font-style:normal;font-variant:normal;font-weight:normal;font-stretch:normal;font-family:'Latin Modern Math';-inkscape-font-specification:'Latin Modern Math';fill:#000080"
   id="tspan60">f[</tspan>x<tspan
   style="font-style:normal;font-variant:normal;font-weight:normal;font-stretch:normal;font-family:'Latin Modern Math';-inkscape-font-specification:'Latin Modern Math';fill:#000080"
   id="tspan61">]</tspan></tspan></text>
      <text
         xml:space="preserve"
         style="font-size:7.05556px;line-height:normal;font-family:'Latin Modern Math';-inkscape-font-specification:'Latin Modern Math';text-decoration-color:#000000;display:inline;fill:#000080;fill-opacity:1;stroke:none;stroke-width:0.465;stroke-dasharray:none;stroke-dashoffset:0;-inkscape-stroke:none"
         x="172.43388"
         y="140.09676"
         id="text67"><tspan
           sodipodi:role="line"
           id="tspan67"
           style="font-style:normal;font-variant:normal;font-weight:bold;font-stretch:normal;font-family:'DejaVu Serif';-inkscape-font-specification:'DejaVu Serif';fill:#000080;fill-opacity:1;stroke:none;stroke-width:0.464999"
           x="172.43388"
           y="140.09676"><tspan
   style="font-style:normal;font-variant:normal;font-weight:normal;font-stretch:normal;font-family:'Latin Modern Math';-inkscape-font-specification:'Latin Modern Math';fill:#000080"
   id="tspan65">f[</tspan>y<tspan
   style="font-style:normal;font-variant:normal;font-weight:normal;font-stretch:normal;font-family:'Latin Modern Math';-inkscape-font-specification:'Latin Modern Math';fill:#000080"
   id="tspan66">]</tspan></tspan></text>
    </g>
  </g>
</svg>
