<?xml version="1.0" encoding="UTF-8" standalone="no"?>
<!-- Created with Inkscape (http://www.inkscape.org/) -->

<svg
   width="63.515659mm"
   height="26.535765mm"
   viewBox="0 0 63.515659 26.535765"
   version="1.1"
   id="svg1"
   inkscape:version="1.3.2 (1:1.3.2+202311252150+091e20ef0f)"
   sodipodi:docname="ext_alg_point_reflection.svg"
   xmlns:inkscape="http://www.inkscape.org/namespaces/inkscape"
   xmlns:sodipodi="http://sodipodi.sourceforge.net/DTD/sodipodi-0.dtd"
   xmlns="http://www.w3.org/2000/svg"
   xmlns:svg="http://www.w3.org/2000/svg">
  <sodipodi:namedview
     id="namedview1"
     pagecolor="#ffffff"
     bordercolor="#000000"
     borderopacity="0.25"
     inkscape:showpageshadow="2"
     inkscape:pageopacity="0.0"
     inkscape:pagecheckerboard="0"
     inkscape:deskcolor="#d1d1d1"
     inkscape:document-units="mm"
     inkscape:zoom="2.1441625"
     inkscape:cx="155.77178"
     inkscape:cy="8.6280774"
     inkscape:window-width="1920"
     inkscape:window-height="995"
     inkscape:window-x="0"
     inkscape:window-y="0"
     inkscape:window-maximized="1"
     inkscape:current-layer="layer1" />
  <defs
     id="defs1">
    <rect
       x="103.17957"
       y="473.92892"
       width="106.94869"
       height="96.621155"
       id="rect14" />
    <marker
       style="overflow:visible"
       id="Triangle"
       refX="3"
       refY="0"
       orient="auto-start-reverse"
       inkscape:stockid="Triangle arrow"
       markerWidth="1"
       markerHeight="1"
       viewBox="0 0 1 1"
       inkscape:isstock="true"
       inkscape:collect="always"
       preserveAspectRatio="xMidYMid">
      <path
         transform="scale(0.5)"
         style="fill:context-stroke;fill-rule:evenodd;stroke:context-stroke;stroke-width:1pt"
         d="M 5.77,0 -2.88,5 V -5 Z"
         id="path135" />
    </marker>
  </defs>
  <g
     inkscape:label="Layer 1"
     inkscape:groupmode="layer"
     id="layer1"
     transform="translate(-13.00781,-179.17878)">
    <path
       style="opacity:1;fill:#ffd5d5;fill-opacity:1;stroke:none;stroke-width:0.564999;stroke-linecap:butt;stroke-linejoin:miter;stroke-miterlimit:4;stroke-dasharray:none;stroke-dashoffset:0;stroke-opacity:1;marker-end:url(#Triangle)"
       d="m 62.459275,179.52202 14.064193,4.0654 -10.147246,10.55284 -14.064193,-4.0654 z"
       id="path118"
       inkscape:transform-center-x="-5.0736233"
       inkscape:transform-center-y="-5.2764202"
       sodipodi:nodetypes="ccccc" />
    <g
       id="path114"
       inkscape:transform-center-x="-4.9940065"
       inkscape:transform-center-y="-5.2739299"
       transform="rotate(-15,52.31186,190.07422)">
      <path
         style="color:#000000;fill:#000000;-inkscape-stroke:none"
         d="m 64.621094,182.13672 -12.533203,7.56836 0.447265,0.74023 12.533203,-7.5664 z"
         id="path142" />
      <g
         id="g139">
        <g
           id="path139">
          <path
             style="color:#000000;fill:#000000;fill-rule:evenodd;-inkscape-stroke:none"
             d="m 64.759464,182.55934 -2.084913,3.78491 -2.235461,-3.70248 z"
             id="path140" />
          <path
             style="color:#000000;fill:#000000;fill-rule:evenodd;-inkscape-stroke:none"
             d="m 65.251953,182.26172 -5.318359,0.10156 2.751953,4.55859 z m -0.984375,0.5957 -1.603516,2.91016 -1.720703,-2.84766 z"
             id="path141" />
        </g>
      </g>
    </g>
    <g
       id="g6"
       transform="rotate(180,60.322242,100.5057)" />
    <g
       id="path115"
       inkscape:transform-center-x="-7.1119655"
       inkscape:transform-center-y="2.5545899"
       transform="rotate(-15,52.31186,190.07422)">
      <path
         style="color:#000000;fill:#000000;-inkscape-stroke:none"
         d="m 52.535156,189.70508 -0.447265,0.74023 12.533203,7.56641 0.447265,-0.74024 z"
         id="path150" />
      <g
         id="g147">
        <g
           id="path147">
          <path
             style="color:#000000;fill:#000000;fill-rule:evenodd;-inkscape-stroke:none"
             d="m 64.759464,197.59042 -4.320374,-0.0824 2.235461,-3.70248 z"
             id="path148" />
          <path
             style="color:#000000;fill:#000000;fill-rule:evenodd;-inkscape-stroke:none"
             d="m 62.685547,193.22852 -2.751953,4.55859 5.318359,0.10156 z m -0.02148,1.15429 1.603516,2.91016 -3.324219,-0.0625 z"
             id="path149" />
        </g>
      </g>
    </g>
    <g
       id="g121"
       transform="matrix(-0.96592583,0.25881905,0.25881905,0.96592583,53.646408,-7.0626837)">
      <path
         style="opacity:1;fill:#ffd5d5;fill-opacity:1;stroke:none;stroke-width:0.564999;stroke-linecap:butt;stroke-linejoin:miter;stroke-miterlimit:4;stroke-dasharray:none;stroke-dashoffset:0;stroke-opacity:1;marker-end:url(#Triangle)"
         d="m 64.844621,182.50792 12.532763,7.56696 -12.532763,7.56696 -12.532763,-7.56696 z"
         id="path119"
         inkscape:transform-center-x="-6.2663816"
         inkscape:transform-center-y="-3.78348"
         sodipodi:nodetypes="ccccc" />
      <g
         id="path120"
         inkscape:transform-center-x="-6.2663816"
         inkscape:transform-center-y="-3.78348">
        <path
           style="color:#000000;fill:#000000;-inkscape-stroke:none"
           d="m 64.621094,182.13672 -12.533203,7.56836 0.447265,0.74023 12.533203,-7.5664 z"
           id="path146" />
        <g
           id="g143">
          <g
             id="path143">
            <path
               style="color:#000000;fill:#000000;fill-rule:evenodd;-inkscape-stroke:none"
               d="m 64.759464,182.55934 -2.084913,3.78491 -2.235461,-3.70248 z"
               id="path144" />
            <path
               style="color:#000000;fill:#000000;fill-rule:evenodd;-inkscape-stroke:none"
               d="m 65.251953,182.26172 -5.318359,0.10156 2.751953,4.55859 z m -0.984375,0.5957 -1.603516,2.91016 -1.720703,-2.84766 z"
               id="path145" />
          </g>
        </g>
      </g>
      <g
         id="path121"
         inkscape:transform-center-x="-6.2663816"
         inkscape:transform-center-y="3.7834801">
        <path
           style="color:#000000;fill:#000000;-inkscape-stroke:none"
           d="m 52.535156,189.70508 -0.447265,0.74023 12.533203,7.56641 0.447265,-0.74024 z"
           id="path138" />
        <g
           id="g134">
          <g
             id="path134">
            <path
               style="color:#000000;fill:#000000;fill-rule:evenodd;-inkscape-stroke:none"
               d="m 64.759464,197.59042 -4.320374,-0.0824 2.235461,-3.70248 z"
               id="path136" />
            <path
               style="color:#000000;fill:#000000;fill-rule:evenodd;-inkscape-stroke:none"
               d="m 62.685547,193.22852 -2.751953,4.55859 5.318359,0.10156 z m -0.02148,1.15429 1.603516,2.91016 -3.324219,-0.0625 z"
               id="path137" />
          </g>
        </g>
      </g>
    </g>
    <text
       xml:space="preserve"
       style="font-size:7.05556px;line-height:normal;font-family:'Latin Modern Math';-inkscape-font-specification:'Latin Modern Math';text-decoration-color:#000000;fill:#ffd5d5;stroke:none;stroke-width:0.865"
       x="57.803535"
       y="189.98558"
       id="text123"><tspan
         sodipodi:role="line"
         id="tspan123"
         style="font-style:italic;font-variant:normal;font-weight:normal;font-stretch:normal;font-family:'Latin Modern Math';-inkscape-font-specification:'Latin Modern Math Italic';fill:#000000"
         x="57.803535"
         y="189.98558"><tspan
           style="font-style:normal;font-variant:normal;font-weight:bold;font-stretch:normal;font-family:'DejaVu Serif';-inkscape-font-specification:'DejaVu Serif';fill:#000000"
           id="tspan122">u<tspan
   style="font-style:normal;font-variant:normal;font-weight:normal;font-stretch:normal;font-family:'Latin Modern Math';-inkscape-font-specification:'Latin Modern Math'"
   id="tspan121">∧</tspan>v</tspan></tspan></text>
    <text
       xml:space="preserve"
       style="font-size:7.05556px;line-height:normal;font-family:'Latin Modern Math';-inkscape-font-specification:'Latin Modern Math';text-decoration-color:#000000;fill:#ffd5d5;stroke:none;stroke-width:0.865"
       x="12.295198"
       y="194.74809"
       id="text126"><tspan
         sodipodi:role="line"
         id="tspan126"
         style="font-style:normal;font-variant:normal;font-weight:bold;font-stretch:normal;font-family:'DejaVu Serif';-inkscape-font-specification:'DejaVu Serif';fill:#000000"
         x="12.295198"
         y="194.74809"><tspan
   style="font-style:normal;font-variant:normal;font-weight:normal;font-stretch:normal;font-family:'Latin Modern Math';-inkscape-font-specification:'Latin Modern Math'"
   id="tspan131">(−</tspan>u<tspan
   style="font-style:normal;font-variant:normal;font-weight:normal;font-stretch:normal;font-family:'Latin Modern Math';-inkscape-font-specification:'Latin Modern Math'"
   id="tspan132">)∧(−</tspan>v<tspan
   style="font-style:normal;font-variant:normal;font-weight:normal;font-stretch:normal;font-family:'Latin Modern Math';-inkscape-font-specification:'Latin Modern Math'"
   id="tspan133">)</tspan></tspan></text>
    <text
       xml:space="preserve"
       style="font-size:7.05556px;line-height:normal;font-family:'Latin Modern Math';-inkscape-font-specification:'Latin Modern Math';text-decoration-color:#000000;fill:#ffd5d5;stroke:none;stroke-width:0.865"
       x="52.158577"
       y="184.44795"
       id="text128"><tspan
         sodipodi:role="line"
         id="tspan128"
         style="font-style:italic;font-variant:normal;font-weight:normal;font-stretch:normal;font-family:'Latin Modern Math';-inkscape-font-specification:'Latin Modern Math Italic';fill:#000000"
         x="52.158577"
         y="184.44795"><tspan
           style="font-style:normal;font-variant:normal;font-weight:bold;font-stretch:normal;font-family:'DejaVu Serif';-inkscape-font-specification:'DejaVu Serif';fill:#000000"
           id="tspan127">u</tspan></tspan></text>
    <text
       xml:space="preserve"
       style="font-size:7.05556px;line-height:normal;font-family:'Latin Modern Math';-inkscape-font-specification:'Latin Modern Math';text-decoration-color:#000000;fill:#ffd5d5;stroke:none;stroke-width:0.865"
       x="57.358425"
       y="197.39397"
       id="text130"><tspan
         sodipodi:role="line"
         id="tspan130"
         style="font-style:italic;font-variant:normal;font-weight:normal;font-stretch:normal;font-family:'Latin Modern Math';-inkscape-font-specification:'Latin Modern Math Italic';fill:#000000"
         x="57.358425"
         y="197.39397"><tspan
           style="font-style:normal;font-variant:normal;font-weight:bold;font-stretch:normal;font-family:'DejaVu Serif';-inkscape-font-specification:'DejaVu Serif';fill:#000000"
           id="tspan129">v</tspan></tspan></text>
    <text
       xml:space="preserve"
       style="font-size:7.05556px;line-height:normal;font-family:'Latin Modern Math';-inkscape-font-specification:'Latin Modern Math';text-decoration-color:#000000;fill:#ffd5d5;stroke:none;stroke-width:0.865"
       x="30.46274"
       y="184.97711"
       id="text151"><tspan
         sodipodi:role="line"
         id="tspan151"
         style="font-style:italic;font-variant:normal;font-weight:normal;font-stretch:normal;font-family:'Latin Modern Math';-inkscape-font-specification:'Latin Modern Math Italic';fill:#000000"
         x="30.46274"
         y="184.97711"><tspan
           style="font-style:normal;font-variant:normal;font-weight:bold;font-stretch:normal;font-family:'DejaVu Serif';-inkscape-font-specification:'DejaVu Serif';fill:#000000"
           id="tspan150"><tspan
   style="font-style:normal;font-variant:normal;font-weight:normal;font-stretch:normal;font-family:'Latin Modern Math';-inkscape-font-specification:'Latin Modern Math'"
   id="tspan152">−</tspan>v</tspan></tspan></text>
    <text
       xml:space="preserve"
       style="font-size:7.05556px;line-height:normal;font-family:'Latin Modern Math';-inkscape-font-specification:'Latin Modern Math';text-decoration-color:#000000;fill:#ffd5d5;stroke:none;stroke-width:0.865"
       x="34.166904"
       y="205.61464"
       id="text155"><tspan
         sodipodi:role="line"
         id="tspan155"
         style="font-style:italic;font-variant:normal;font-weight:normal;font-stretch:normal;font-family:'Latin Modern Math';-inkscape-font-specification:'Latin Modern Math Italic';fill:#000000"
         x="34.166904"
         y="205.61464"><tspan
           style="font-style:normal;font-variant:normal;font-weight:bold;font-stretch:normal;font-family:'DejaVu Serif';-inkscape-font-specification:'DejaVu Serif';fill:#000000"
           id="tspan154"><tspan
   style="font-style:normal;font-variant:normal;font-weight:normal;font-stretch:normal;font-family:'Latin Modern Math';-inkscape-font-specification:'Latin Modern Math'"
   id="tspan153">−</tspan>u</tspan></tspan></text>
  </g>
</svg>
