<?xml version="1.0" encoding="UTF-8" standalone="no"?>
<!-- Created with Inkscape (http://www.inkscape.org/) -->

<svg
   width="88.581551mm"
   height="40.390713mm"
   viewBox="0 0 88.581551 40.390713"
   version="1.1"
   id="svg1"
   inkscape:version="1.3.2 (1:1.3.2+202311252150+091e20ef0f)"
   sodipodi:docname="ext_alg_dual_3d.svg"
   xmlns:inkscape="http://www.inkscape.org/namespaces/inkscape"
   xmlns:sodipodi="http://sodipodi.sourceforge.net/DTD/sodipodi-0.dtd"
   xmlns="http://www.w3.org/2000/svg"
   xmlns:svg="http://www.w3.org/2000/svg">
  <sodipodi:namedview
     id="namedview1"
     pagecolor="#ffffff"
     bordercolor="#000000"
     borderopacity="0.25"
     inkscape:showpageshadow="2"
     inkscape:pageopacity="0.0"
     inkscape:pagecheckerboard="0"
     inkscape:deskcolor="#d1d1d1"
     inkscape:document-units="mm"
     inkscape:zoom="2.1098346"
     inkscape:cx="150.72271"
     inkscape:cy="85.077758"
     inkscape:window-width="1499"
     inkscape:window-height="991"
     inkscape:window-x="26"
     inkscape:window-y="23"
     inkscape:window-maximized="0"
     inkscape:current-layer="layer1" />
  <defs
     id="defs1" />
  <g
     inkscape:label="Layer 1"
     inkscape:groupmode="layer"
     id="layer1"
     transform="translate(-50.244526,-98.815179)">
    <rect
       style="fill:#ffd5d5;stroke:none;stroke-width:0.537395;stroke-dasharray:none;stroke-dashoffset:0;-inkscape-stroke:none"
       id="rect5"
       width="23.516485"
       height="23.709496"
       x="-42.182175"
       y="144.87585"
       transform="matrix(0.99945509,0.03300794,0.63781308,0.7701912,0,0)" />
    <g
       id="path1"
       transform="matrix(-0.85255976,-0.52262975,-0.52211252,0.85287661,0,0)">
      <path
         style="color:#000000;fill:#800000;-inkscape-stroke:none"
         d="m -120.61133,60.083984 c -3.90865,-0.167074 -7.59595,1.13027 -9.34765,3.402344 -0.87586,1.136037 -1.16189,2.424242 -0.85743,3.642578 0.30446,1.218336 1.18101,2.351608 2.54102,3.251953 2.72003,1.800691 6.85222,2.366645 10.50781,1.476563 1.8278,-0.445041 3.35389,-1.213857 4.4375,-2.197266 1.08362,-0.983409 1.72656,-2.196261 1.72656,-3.490234 h -0.66406 c 0,1.074562 -0.52945,2.108383 -1.50976,2.998047 -0.98032,0.889664 -2.40939,1.619535 -4.14844,2.042968 -3.47811,0.846868 -7.47295,0.277832 -9.98438,-1.384765 -1.25571,-0.831299 -2.00461,-1.836404 -2.25976,-2.857422 -0.25515,-1.021018 -0.0345,-2.073843 0.73828,-3.076172 1.54554,-2.004657 5.05215,-3.304431 8.79297,-3.144531 z"
         id="path16" />
      <g
         id="g13">
        <g
           id="path13">
          <path
             style="color:#000000;fill:#800000;fill-rule:evenodd;-inkscape-stroke:none"
             d="m -120.70106,60.413477 -2.9445,1.538156 0.14199,-3.321967 z"
             id="path14" />
          <path
             style="color:#000000;fill:#800000;fill-rule:evenodd;-inkscape-stroke:none"
             d="m -123.70898,58.236328 -0.17383,4.089844 3.625,-1.894531 z m 0.4121,0.787109 2.1543,1.371094 -2.26562,1.183594 z"
             id="path15" />
        </g>
      </g>
    </g>
    <g
       id="path2">
      <path
         style="color:#000000;fill:#000000;-inkscape-stroke:none"
         d="m 80.427734,100.31055 -11.232422,19.45312 0.835938,0.48242 11.232422,-19.45312 z"
         id="path6" />
      <g
         id="g2">
        <g
           id="path3">
          <path
             style="color:#000000;fill:#000000;fill-rule:evenodd;-inkscape-stroke:none"
             d="m 80.789632,100.64707 0.0025,4.82071 -4.178573,-2.4125 z"
             id="path4" />
          <path
             style="color:#000000;fill:#000000;fill-rule:evenodd;-inkscape-stroke:none"
             d="m 81.111328,100.08984 -5.140625,2.96485 5.142578,2.9707 z m -0.642578,1.11329 0.002,3.70703 -3.214844,-1.85352 z"
             id="path5" />
        </g>
      </g>
    </g>
    <text
       xml:space="preserve"
       style="font-size:7.05556px;line-height:normal;font-family:'DejaVu Serif';-inkscape-font-specification:'DejaVu Serif';text-decoration-color:#000000;fill:#000000;stroke:none;stroke-width:0.465;-inkscape-stroke:none"
       x="82.63726"
       y="104.05173"
       id="text2"><tspan
         sodipodi:role="line"
         id="tspan2"
         style="fill:#000000;stroke:none;stroke-width:0.464999"
         x="82.63726"
         y="104.05173"><tspan
   style="font-weight:bold"
   id="tspan3">a</tspan>=<tspan
   style="font-weight:bold"
   id="tspan4">A</tspan>*</tspan></text>
    <text
       xml:space="preserve"
       style="font-size:7.05556px;line-height:normal;font-family:'DejaVu Serif';-inkscape-font-specification:'DejaVu Serif';text-decoration-color:#000000;fill:#000000;stroke:none;stroke-width:0.465;-inkscape-stroke:none"
       x="78.933098"
       y="128.39333"
       id="text7"><tspan
         sodipodi:role="line"
         id="tspan7"
         style="fill:#000000;stroke:none;stroke-width:0.464999"
         x="78.933098"
         y="128.39333"><tspan
           style="font-weight:bold"
           id="tspan6">A</tspan></tspan></text>
    <g
       id="path8">
      <path
         style="color:#000000;fill:#000000;-inkscape-stroke:none"
         d="m 116.76367,119.4668 -10.99023,19.03711 0.83594,0.48242 10.99023,-19.03711 z"
         id="path12" />
      <g
         id="g7">
        <g
           id="path9">
          <path
             style="color:#000000;fill:#000000;fill-rule:evenodd;-inkscape-stroke:none"
             d="m 106.24687,138.64924 -0.002,-4.82071 4.17857,2.4125 z"
             id="path10" />
          <path
             style="color:#000000;fill:#000000;fill-rule:evenodd;-inkscape-stroke:none"
             d="m 105.92383,133.27148 0.002,5.9336 5.14063,-2.96289 z m 0.64258,1.11524 3.21289,1.85547 -3.21094,1.85156 z"
             id="path11" />
        </g>
      </g>
    </g>
    <rect
       style="fill:#ffd5d5;stroke:none;stroke-width:0.537395;stroke-dasharray:none;stroke-dashoffset:0;-inkscape-stroke:none"
       id="rect7"
       width="23.516485"
       height="23.709496"
       x="6.8086667"
       y="142.77623"
       transform="matrix(0.99945509,0.03300794,0.63781308,0.7701912,0,0)" />
    <g
       id="path7"
       transform="matrix(-0.85255976,-0.52262975,-0.52211252,0.85287661,0,0)">
      <path
         style="color:#000000;fill:#800000;-inkscape-stroke:none"
         d="m -161.22852,35.193359 c -3.90864,-0.167074 -7.59594,1.13027 -9.34765,3.402344 -0.87586,1.136037 -1.16188,2.426195 -0.85742,3.644531 0.30446,1.218337 1.17905,2.349655 2.53906,3.25 2.72003,1.800691 6.85222,2.366645 10.50781,1.476563 1.8278,-0.445041 3.35584,-1.213857 4.43945,-2.197266 1.08362,-0.983409 1.72657,-2.196261 1.72657,-3.490234 h -0.66602 c 0,1.074562 -0.52749,2.108383 -1.50781,2.998047 -0.98032,0.889664 -2.40938,1.619535 -4.14844,2.042968 -3.47811,0.846868 -7.47294,0.277832 -9.98437,-1.384765 -1.25572,-0.831299 -2.00657,-1.836404 -2.26172,-2.857422 -0.25515,-1.021018 -0.0345,-2.073843 0.73828,-3.076172 1.54554,-2.004657 5.05214,-3.302478 8.79297,-3.142578 z"
         id="path20" />
      <g
         id="g17">
        <g
           id="path17">
          <path
             style="color:#000000;fill:#800000;fill-rule:evenodd;-inkscape-stroke:none"
             d="m -161.31928,35.523233 -2.9445,1.538157 0.142,-3.321967 z"
             id="path18" />
          <path
             style="color:#000000;fill:#800000;fill-rule:evenodd;-inkscape-stroke:none"
             d="m -164.32617,33.345703 -0.17578,4.089844 3.625,-1.892578 z m 0.41015,0.785156 2.1543,1.373047 -2.26562,1.183594 z"
             id="path19" />
        </g>
      </g>
    </g>
    <text
       xml:space="preserve"
       style="font-size:7.05556px;line-height:normal;font-family:'DejaVu Serif';-inkscape-font-specification:'DejaVu Serif';text-decoration-color:#000000;fill:#000000;stroke:none;stroke-width:0.465;-inkscape-stroke:none"
       x="108.03724"
       y="109.87257"
       id="text10"><tspan
         sodipodi:role="line"
         id="tspan10"
         style="fill:#000000;stroke:none;stroke-width:0.464999"
         x="108.03724"
         y="109.87257"><tspan
   style="font-weight:bold"
   id="tspan8">A=<tspan
   style="font-weight:normal"
   id="tspan17">(</tspan>−a</tspan>)*</tspan></text>
    <text
       xml:space="preserve"
       style="font-size:7.05556px;line-height:normal;font-family:'DejaVu Serif';-inkscape-font-specification:'DejaVu Serif';text-decoration-color:#000000;fill:#000000;stroke:none;stroke-width:0.465;-inkscape-stroke:none"
       x="111.74141"
       y="138.97676"
       id="text15"><tspan
         sodipodi:role="line"
         id="tspan15"
         style="fill:#000000;stroke:none;stroke-width:0.464999"
         x="111.74141"
         y="138.97676"><tspan
           style="font-weight:bold"
           id="tspan13"><tspan
   style="font-weight:normal"
   id="tspan16">−</tspan>a</tspan></tspan></text>
  </g>
</svg>
