<?xml version="1.0" encoding="UTF-8" standalone="no"?>
<!-- Created with Inkscape (http://www.inkscape.org/) -->

<svg
   width="100.30811mm"
   height="100.30811mm"
   viewBox="0 0 100.30811 100.30811"
   version="1.1"
   id="svg1"
   inkscape:version="1.3.2 (1:1.3.2+202311252150+091e20ef0f)"
   sodipodi:docname="ext_alg_subspace_va_1.svg"
   xmlns:inkscape="http://www.inkscape.org/namespaces/inkscape"
   xmlns:sodipodi="http://sodipodi.sourceforge.net/DTD/sodipodi-0.dtd"
   xmlns="http://www.w3.org/2000/svg"
   xmlns:svg="http://www.w3.org/2000/svg">
  <sodipodi:namedview
     id="namedview1"
     pagecolor="#ffffff"
     bordercolor="#000000"
     borderopacity="0.25"
     inkscape:showpageshadow="2"
     inkscape:pageopacity="0.0"
     inkscape:pagecheckerboard="0"
     inkscape:deskcolor="#d1d1d1"
     inkscape:document-units="mm"
     inkscape:zoom="1.1417384"
     inkscape:cx="98.971886"
     inkscape:cy="263.19515"
     inkscape:window-width="1499"
     inkscape:window-height="991"
     inkscape:window-x="26"
     inkscape:window-y="23"
     inkscape:window-maximized="0"
     inkscape:current-layer="layer10"
     inkscape:pageshadow="2"
     showgrid="false"
     inkscape:snap-bbox="true"
     inkscape:snap-bbox-midpoints="true"
     inkscape:snap-intersection-paths="true"
     inkscape:snap-object-midpoints="true"
     inkscape:snap-center="true"
     inkscape:bbox-paths="true"
     inkscape:bbox-nodes="true"
     inkscape:snap-bbox-edge-midpoints="true"
     inkscape:object-paths="true"
     inkscape:snap-smooth-nodes="true" />
  <defs
     id="defs1">
    <marker
       style="overflow:visible;"
       id="Arrow1Lend"
       refX="0.0"
       refY="0.0"
       orient="auto"
       inkscape:stockid="Arrow1Lend"
       inkscape:isstock="true">
      <path
         transform="scale(0.8) rotate(180) translate(12.5,0)"
         style="fill-rule:evenodd;fill:context-stroke;stroke:context-stroke;stroke-width:1.0pt;"
         d="M 0.0,0.0 L 5.0,-5.0 L -12.5,0.0 L 5.0,5.0 L 0.0,0.0 z "
         id="path35504" />
    </marker>
    <marker
       style="overflow:visible;"
       id="Arrow2Lend"
       refX="0.0"
       refY="0.0"
       orient="auto"
       inkscape:stockid="Arrow2Lend"
       inkscape:isstock="true">
      <path
         transform="scale(1.1) rotate(180) translate(1,0)"
         d="M 8.7185878,4.0337352 L -2.2072895,0.016013256 L 8.7185884,-4.0017078 C 6.9730900,-1.6296469 6.9831476,1.6157441 8.7185878,4.0337352 z "
         style="stroke:context-stroke;fill-rule:evenodd;fill:context-stroke;stroke-width:0.62500000;stroke-linejoin:round;"
         id="path35522" />
    </marker>
    <marker
       style="overflow:visible;"
       id="Arrow1Mend"
       refX="0.0"
       refY="0.0"
       orient="auto"
       inkscape:stockid="Arrow1Mend"
       inkscape:isstock="true">
      <path
         transform="scale(0.4) rotate(180) translate(10,0)"
         style="fill-rule:evenodd;fill:context-stroke;stroke:context-stroke;stroke-width:1.0pt;"
         d="M 0.0,0.0 L 5.0,-5.0 L -12.5,0.0 L 5.0,5.0 L 0.0,0.0 z "
         id="path35510" />
    </marker>
    <marker
       style="overflow:visible"
       id="Arrow1Lend-8"
       refX="0"
       refY="0"
       orient="auto"
       inkscape:stockid="Arrow1Lend"
       inkscape:isstock="true">
      <path
         transform="matrix(-0.8,0,0,-0.8,-10,0)"
         style="fill:context-stroke;fill-rule:evenodd;stroke:context-stroke;stroke-width:1pt"
         d="M 0,0 5,-5 -12.5,0 5,5 Z"
         id="path35504-4" />
    </marker>
  </defs>
  <g
     inkscape:label="Frame"
     inkscape:groupmode="layer"
     id="layer1"
     transform="translate(-10.692291,-20.168362)"
     style="display:inline">
    <rect
       style="opacity:0.458797;fill:none;fill-opacity:0.454327;stroke:#000000;stroke-width:0.560001"
       id="rect1"
       width="99.748108"
       height="99.748108"
       x="10.972292"
       y="20.448362" />
    <text
       xml:space="preserve"
       style="font-style:normal;font-weight:normal;font-size:10.5833px;line-height:1.25;font-family:sans-serif;fill:#000000;fill-opacity:1;stroke:none;stroke-width:0.264583"
       x="35.728279"
       y="42.074852"
       id="text29440"><tspan
         sodipodi:role="line"
         id="tspan29438"
         style="stroke-width:0.264583"
         x="35.728279"
         y="42.074852" /></text>
  </g>
  <g
     inkscape:groupmode="layer"
     id="layer2"
     inkscape:label="Scalars"
     style="display:inline">
    <circle
       style="opacity:1;fill:#000000;fill-opacity:1;stroke:none;stroke-width:0.560001"
       id="circle4"
       cx="60.846344"
       cy="70.322418"
       r="1.3715364"
       transform="translate(-10.692291,-20.168362)" />
    <text
       xml:space="preserve"
       style="font-style:normal;font-variant:normal;font-weight:normal;font-stretch:normal;font-size:7.05556px;font-family:'Latin Modern Math';-inkscape-font-specification:'Latin Modern Math';text-align:center;text-anchor:middle;opacity:1;fill:#000000;fill-opacity:1;stroke:none;stroke-width:0.560001"
       x="49.939503"
       y="57.775089"
       id="text24552"><tspan
         sodipodi:role="line"
         id="tspan24550"
         style="font-style:normal;font-variant:normal;font-weight:normal;font-stretch:normal;font-size:7.05556px;font-family:'DejaVu Serif';-inkscape-font-specification:'DejaVu Serif Bold';stroke-width:0.56"
         x="49.939503"
         y="57.775089">0</tspan></text>
    <circle
       style="opacity:1;fill:#000000;fill-opacity:1;stroke:none;stroke-width:0.560001"
       id="circle13"
       cx="66.45253"
       cy="103.34048"
       r="1.3715364" />
  </g>
  <g
     inkscape:groupmode="layer"
     id="layer5"
     inkscape:label="Trivectors"
     style="display:none">
    <g
       inkscape:groupmode="layer"
       id="layer8"
       inkscape:label="associativity"
       style="display:none">
      <a
         id="a49517"
         style="display:inline">
        <text
           xml:space="preserve"
           style="font-style:normal;font-variant:normal;font-weight:normal;font-stretch:normal;font-size:3.175px;font-family:'Latin Modern Math';-inkscape-font-specification:'Latin Modern Math';text-align:center;text-anchor:middle;opacity:1;fill:#800000;fill-opacity:1;stroke:none;stroke-width:0.560001"
           x="56.918762"
           y="32.526817"
           id="text28254"><tspan
             sodipodi:role="line"
             id="tspan28252"
             style="font-style:normal;font-variant:normal;font-weight:normal;font-stretch:normal;font-family:'Latin Modern Math';-inkscape-font-specification:'Latin Modern Math';fill:#800000;stroke-width:0.56"
             x="56.918762"
             y="32.526817"><tspan
   style="font-style:normal;font-variant:normal;font-weight:bold;font-stretch:normal;font-family:'DejaVu Serif';-inkscape-font-specification:'DejaVu Serif Bold';fill:#800000"
   id="tspan28248"><tspan
   style="font-weight:normal;fill:#800000"
   id="tspan38545">(</tspan>a</tspan>∧<tspan
   style="font-style:normal;font-variant:normal;font-weight:bold;font-stretch:normal;font-family:'DejaVu Serif';-inkscape-font-specification:'DejaVu Serif';fill:#800000"
   id="tspan28250">b<tspan
   style="font-weight:normal;fill:#800000"
   id="tspan38543">)</tspan><tspan
   style="font-style:normal;font-variant:normal;font-weight:normal;font-stretch:normal;font-family:'Latin Modern Math';-inkscape-font-specification:'Latin Modern Math';fill:#800000"
   id="tspan33943">∧</tspan>c</tspan></tspan></text>
      </a>
      <text
         xml:space="preserve"
         style="font-style:normal;font-variant:normal;font-weight:normal;font-stretch:normal;font-size:3.175px;font-family:'Latin Modern Math';-inkscape-font-specification:'Latin Modern Math';text-align:center;text-anchor:middle;display:inline;opacity:1;fill:#800000;fill-opacity:1;stroke:none;stroke-width:0.560001"
         x="56.918762"
         y="28.822649"
         id="text36665"><tspan
           sodipodi:role="line"
           id="tspan36663"
           style="font-style:normal;font-variant:normal;font-weight:normal;font-stretch:normal;font-family:'Latin Modern Math';-inkscape-font-specification:'Latin Modern Math';fill:#800000;stroke-width:0.56"
           x="56.918762"
           y="28.822649"><tspan
   style="font-style:normal;font-variant:normal;font-weight:bold;font-stretch:normal;font-family:'DejaVu Serif';-inkscape-font-specification:'DejaVu Serif Bold';fill:#800000"
   id="tspan36657">a</tspan>∧<tspan
   style="font-style:normal;font-variant:normal;font-weight:normal;font-stretch:normal;font-family:'DejaVu Serif';-inkscape-font-specification:'DejaVu Serif';fill:#800000"
   id="tspan44055">(</tspan><tspan
   style="font-style:normal;font-variant:normal;font-weight:bold;font-stretch:normal;font-family:'DejaVu Serif';-inkscape-font-specification:'DejaVu Serif';fill:#800000"
   id="tspan36661">b<tspan
   style="font-style:normal;font-variant:normal;font-weight:normal;font-stretch:normal;font-family:'Latin Modern Math';-inkscape-font-specification:'Latin Modern Math';fill:#800000"
   id="tspan36659">∧</tspan>c<tspan
   style="font-weight:normal;fill:#800000"
   id="tspan47965">)</tspan></tspan></tspan></text>
    </g>
  </g>
  <g
     inkscape:groupmode="layer"
     id="layer6"
     inkscape:label="Wedge op a(bc)"
     style="display:none" />
  <g
     inkscape:groupmode="layer"
     id="layer7"
     inkscape:label="Wedge op (ab)c"
     style="display:none">
    <g
       id="g48053"
       transform="translate(43.846091,-3.5820191)">
      <rect
         style="opacity:1;fill:#ffffff;fill-opacity:1;stroke:#000000;stroke-width:0.101;stroke-linecap:butt;stroke-linejoin:miter;stroke-miterlimit:4;stroke-dasharray:none;stroke-dashoffset:0;stroke-opacity:1;stop-color:#000000;stop-opacity:1"
         id="rect48047"
         width="4.5899315"
         height="4.5899315"
         x="32.911732"
         y="28.513691" />
      <text
         xml:space="preserve"
         style="font-style:normal;font-variant:normal;font-weight:normal;font-stretch:normal;font-size:3.175px;font-family:'Latin Modern Math';-inkscape-font-specification:'Latin Modern Math';text-align:center;text-anchor:middle;opacity:1;fill:#000080;fill-opacity:1;stroke:none;stroke-width:0.560001"
         x="35.205624"
         y="31.731609"
         id="text48051"><tspan
           sodipodi:role="line"
           id="tspan48049"
           style="font-style:normal;font-variant:normal;font-weight:normal;font-stretch:normal;font-family:'Latin Modern Math';-inkscape-font-specification:'Latin Modern Math';fill:#000080;stroke-width:0.56"
           x="35.205624"
           y="31.731609">∧</tspan></text>
    </g>
    <path
       style="font-variation-settings:normal;opacity:1;vector-effect:none;fill:none;fill-opacity:1;stroke:#000000;stroke-width:0.264583;stroke-linecap:butt;stroke-linejoin:miter;stroke-miterlimit:4;stroke-dasharray:0.264583, 0.793749;stroke-dashoffset:0;stroke-opacity:1;-inkscape-stroke:none;marker-end:url(#Arrow1Mend);stop-color:#000000;stop-opacity:1"
       d="M 78.661208,66.443555 90.981711,49.689965"
       id="path48055"
       sodipodi:nodetypes="cc"
       transform="translate(-10.692291,-20.168362)" />
    <path
       style="fill:none;stroke:#000000;stroke-width:0.264583;stroke-linecap:butt;stroke-linejoin:miter;stroke-miterlimit:4;stroke-dasharray:0.264583, 0.793749;stroke-dashoffset:0;stroke-opacity:1;marker-end:url(#Arrow1Mend)"
       d="M 89.81664,45.100034 68.942558,40.981899"
       id="path48057"
       sodipodi:nodetypes="cc"
       transform="translate(-10.692291,-20.168362)" />
    <path
       style="fill:none;stroke:#000000;stroke-width:0.264583;stroke-linecap:butt;stroke-linejoin:miter;stroke-miterlimit:4;stroke-dasharray:0.264583, 0.793749;stroke-dashoffset:0;stroke-opacity:1;marker-end:url(#Arrow1Mend)"
       d="m 72.646721,55.269405 15.332558,-5.57944"
       id="path48059"
       sodipodi:nodetypes="cc"
       transform="translate(-10.692291,-20.168362)" />
  </g>
  <g
     inkscape:groupmode="layer"
     id="layer9"
     inkscape:label="multivectors"
     style="display:none" />
  <g
     inkscape:groupmode="layer"
     id="layer10"
     inkscape:label="V"
     style="display:inline">
    <g
       inkscape:groupmode="layer"
       id="layer15"
       inkscape:label="vab"
       style="display:none">
      <rect
         style="display:inline;opacity:0.197425;fill:#000080;fill-opacity:0.454327;stroke:none;stroke-width:0.560001"
         id="rect35"
         width="99.748108"
         height="99.748108"
         x="10.972292"
         y="20.448362"
         transform="translate(-10.692291,-20.168362)" />
      <g
         id="g35"
         style="opacity:0.188841;stroke:#000080">
        <path
           style="fill:#000080;stroke:#000080;stroke-width:0.3;stroke-dasharray:none"
           d="M 66.45253,103.34048 33.855576,-3.0323739"
           id="path9"
           sodipodi:nodetypes="cc" />
        <path
           style="fill:#000080;stroke:#000080;stroke-width:0.3;stroke-dasharray:none"
           d="M -2.7095945,61.46888 103.0177,38.83923"
           id="path18"
           sodipodi:nodetypes="cc" />
        <path
           style="fill:#000080;stroke:#000080;stroke-width:0.3;stroke-dasharray:none"
           d="M -2.7095945,47.217286 103.0177,24.587636"
           id="path19"
           sodipodi:nodetypes="cc" />
        <path
           style="fill:#000080;stroke:#000080;stroke-width:0.3;stroke-dasharray:none"
           d="M -4.0811306,33.3713 101.64616,10.74165"
           id="path21"
           sodipodi:nodetypes="cc" />
        <path
           style="fill:#000080;stroke:#000080;stroke-width:0.3;stroke-dasharray:none"
           d="M -2.7095945,89.860021 103.0177,67.230371"
           id="path22"
           sodipodi:nodetypes="cc" />
        <path
           style="fill:#000080;stroke:#000080;stroke-width:0.3;stroke-dasharray:none"
           d="M -2.7095945,75.608427 103.0177,52.978777"
           id="path23"
           sodipodi:nodetypes="cc" />
        <path
           style="fill:#000080;stroke:#000080;stroke-width:0.3;stroke-dasharray:none"
           d="M 85.29003,103.34048 52.693076,-3.0323739"
           id="path24"
           sodipodi:nodetypes="cc" />
        <path
           style="fill:#000080;stroke:#000080;stroke-width:0.3;stroke-dasharray:none"
           d="M 47.61503,103.34048 15.018076,-3.0323739"
           id="path25"
           sodipodi:nodetypes="cc" />
        <path
           style="fill:#000080;stroke:#000080;stroke-width:0.3;stroke-dasharray:none"
           d="M 28.77753,103.34048 -3.819424,-3.0323739"
           id="path26"
           sodipodi:nodetypes="cc" />
        <path
           style="fill:#000080;stroke:#000080;stroke-width:0.3;stroke-dasharray:none"
           d="M 8.9562992,103.09455 -23.640655,-3.2783066"
           id="path28"
           sodipodi:nodetypes="cc" />
        <path
           style="fill:#000080;stroke:#000080;stroke-width:0.3;stroke-dasharray:none"
           d="M -2.7095945,18.938192 103.0177,-3.6914578"
           id="path29"
           sodipodi:nodetypes="cc" />
        <path
           style="fill:#000080;stroke:#000080;stroke-width:0.3;stroke-dasharray:none"
           d="M -2.7095945,4.6865982 103.0177,-17.943052"
           id="path30"
           sodipodi:nodetypes="cc" />
        <path
           style="fill:#000080;stroke:#000080;stroke-width:0.3;stroke-dasharray:none"
           d="M 122.96503,103.34048 90.368076,-3.0323739"
           id="path31"
           sodipodi:nodetypes="cc" />
        <path
           style="fill:#000080;stroke:#000080;stroke-width:0.3;stroke-dasharray:none"
           d="M 104.12753,103.34048 71.530576,-3.0323739"
           id="path32"
           sodipodi:nodetypes="cc" />
        <path
           style="fill:#000080;stroke:#000080;stroke-width:0.3;stroke-dasharray:none"
           d="M -2.7095945,118.25116 103.0177,95.621512"
           id="path34"
           sodipodi:nodetypes="cc" />
        <path
           style="fill:#000080;stroke:#000080;stroke-width:0.3;stroke-dasharray:none"
           d="M -2.7095945,103.99957 103.0177,81.369918"
           id="path35"
           sodipodi:nodetypes="cc" />
      </g>
      <text
         xml:space="preserve"
         style="font-style:normal;font-variant:normal;font-weight:normal;font-stretch:normal;font-size:7.05556px;font-family:'Latin Modern Math';-inkscape-font-specification:'Latin Modern Math';text-align:center;text-anchor:middle;display:inline;opacity:0.51073;fill:#000080;fill-opacity:1;stroke:none;stroke-width:0.560001"
         x="86.870628"
         y="7.3355947"
         id="text47"><tspan
           sodipodi:role="line"
           id="tspan47"
           style="font-style:italic;font-variant:normal;font-weight:normal;font-stretch:normal;font-size:7.05556px;font-family:'DejaVu Serif';-inkscape-font-specification:'DejaVu Serif';fill:#000080;stroke-width:0.56"
           x="86.870628"
           y="7.3355947">V<tspan
   style="font-style:normal;fill:#000080"
   id="tspan44">(<tspan
   style="font-weight:bold;fill:#000080"
   id="tspan49">a</tspan><tspan
   style="font-style:normal;font-variant:normal;font-weight:normal;font-stretch:normal;font-family:'Latin Modern Math';-inkscape-font-specification:'Latin Modern Math';fill:#000080"
   id="tspan51">∧</tspan><tspan
   style="font-weight:bold;fill:#000080"
   id="tspan50">b</tspan>)</tspan></tspan></text>
    </g>
    <g
       inkscape:groupmode="layer"
       id="layer14"
       inkscape:label="vb"
       style="display:none">
      <path
         style="opacity:1;fill:#000080;stroke:#000000;stroke-width:0.3;stroke-dasharray:none"
         d="M -2.709595,61.46888 103.0177,38.83923"
         id="path36"
         sodipodi:nodetypes="cc" />
      <text
         xml:space="preserve"
         style="font-style:normal;font-variant:normal;font-weight:normal;font-stretch:normal;font-size:7.05556px;font-family:'Latin Modern Math';-inkscape-font-specification:'Latin Modern Math';text-align:center;text-anchor:middle;display:inline;opacity:1;fill:#000000;fill-opacity:1;stroke:none;stroke-width:0.560001"
         x="10.001901"
         y="67.660591"
         id="text38"><tspan
           sodipodi:role="line"
           id="tspan38"
           style="font-style:italic;font-variant:normal;font-weight:normal;font-stretch:normal;font-size:7.05556px;font-family:'DejaVu Serif';-inkscape-font-specification:'DejaVu Serif';fill:#000000;stroke-width:0.56"
           x="10.001901"
           y="67.660591">V<tspan
   style="font-style:normal"
   id="tspan42">(</tspan><tspan
   style="font-style:normal;font-weight:bold"
   id="tspan39">b</tspan><tspan
   style="font-style:normal"
   id="tspan43">)</tspan></tspan></text>
    </g>
    <g
       inkscape:groupmode="layer"
       id="layer13"
       inkscape:label="va"
       style="display:none">
      <path
         style="opacity:1;fill:#000080;stroke:#000000;stroke-width:0.3;stroke-dasharray:none"
         d="M 66.45253,103.34048 33.855576,-3.0323739"
         id="path9-0"
         sodipodi:nodetypes="cc" />
      <text
         xml:space="preserve"
         style="font-style:normal;font-variant:normal;font-weight:normal;font-stretch:normal;font-size:7.05556px;font-family:'Latin Modern Math';-inkscape-font-specification:'Latin Modern Math';text-align:center;text-anchor:middle;display:inline;opacity:1;fill:#000000;fill-opacity:1;stroke:none;stroke-width:0.560001"
         x="44.926903"
         y="7.3355947"
         id="text15"><tspan
           sodipodi:role="line"
           id="tspan15"
           style="font-style:italic;font-variant:normal;font-weight:normal;font-stretch:normal;font-size:7.05556px;font-family:'DejaVu Serif';-inkscape-font-specification:'DejaVu Serif';fill:#000000;stroke-width:0.56"
           x="44.926903"
           y="7.3355947">V<tspan
   style="font-style:normal"
   id="tspan40">(</tspan><tspan
   style="font-style:normal;font-weight:bold"
   id="tspan36">a</tspan><tspan
   style="font-style:normal"
   id="tspan41">)</tspan></tspan></text>
    </g>
    <g
       inkscape:groupmode="layer"
       id="layer11"
       inkscape:label="a"
       style="display:none">
      <text
         xml:space="preserve"
         style="font-style:normal;font-variant:normal;font-weight:normal;font-stretch:normal;font-size:7.05556px;font-family:'Latin Modern Math';-inkscape-font-specification:'Latin Modern Math';text-align:center;text-anchor:middle;display:inline;opacity:1;fill:#008000;fill-opacity:1;stroke:none;stroke-width:0.560001"
         x="42.281071"
         y="44.377262"
         id="text25920"><tspan
           sodipodi:role="line"
           id="tspan25918"
           style="font-style:normal;font-variant:normal;font-weight:normal;font-stretch:normal;font-size:7.05556px;font-family:'Latin Modern Math';-inkscape-font-specification:'Latin Modern Math';fill:#008000;stroke-width:0.56"
           x="42.281071"
           y="44.377262"><tspan
             style="font-style:normal;font-variant:normal;font-weight:bold;font-stretch:normal;font-size:7.05556px;font-family:'DejaVu Serif';-inkscape-font-specification:'DejaVu Serif';fill:#008000"
             id="tspan25916">a</tspan></tspan></text>
      <circle
         style="display:inline;opacity:1;fill:#008000;fill-opacity:1;stroke:none;stroke-width:0.560001"
         id="path1"
         cx="46.079433"
         cy="36.857449"
         r="1.3715364" />
      <circle
         style="display:inline;opacity:1;fill:#008000;fill-opacity:1;stroke:none;stroke-width:0.560001"
         id="circle12"
         cx="33.855576"
         cy="-3.0323739"
         r="1.3715364" />
      <circle
         style="display:inline;opacity:1;fill:#008000;fill-opacity:1;stroke:none;stroke-width:0.560001"
         id="circle15"
         cx="67.775269"
         cy="46.382446"
         r="1.3715364" />
      <text
         xml:space="preserve"
         style="font-style:normal;font-variant:normal;font-weight:normal;font-stretch:normal;font-size:7.05556px;font-family:'DejaVu Serif';-inkscape-font-specification:'DejaVu Serif';opacity:1;fill:#000080;stroke:#000000;stroke-width:0.3;stroke-dasharray:none"
         x="83.806168"
         y="49.308411"
         id="text48"><tspan
           sodipodi:role="line"
           id="tspan48"
           style="stroke-width:0.3"
           x="83.806168"
           y="49.308411"></tspan></text>
    </g>
    <g
       inkscape:groupmode="layer"
       id="layer12"
       inkscape:label="b"
       style="display:none">
      <text
         xml:space="preserve"
         style="font-style:normal;font-variant:normal;font-weight:normal;font-stretch:normal;font-size:7.05556px;font-family:'Latin Modern Math';-inkscape-font-specification:'Latin Modern Math';text-align:center;text-anchor:middle;display:inline;opacity:1;fill:#008000;fill-opacity:1;stroke:none;stroke-width:0.560001"
         x="67.931175"
         y="54.600082"
         id="text26780"><tspan
           sodipodi:role="line"
           id="tspan26778"
           style="font-style:normal;font-variant:normal;font-weight:normal;font-stretch:normal;font-size:7.05556px;font-family:'Latin Modern Math';-inkscape-font-specification:'Latin Modern Math';fill:#008000;stroke-width:0.56"
           x="67.931175"
           y="54.600082"><tspan
             style="font-style:normal;font-variant:normal;font-weight:bold;font-stretch:normal;font-size:7.05556px;font-family:'DejaVu Serif';-inkscape-font-specification:'DejaVu Serif';fill:#008000"
             id="tspan26776">b</tspan></tspan></text>
      <circle
         style="display:inline;opacity:1;fill:#008000;fill-opacity:1;stroke:none;stroke-width:0.560001"
         id="circle16"
         cx="103.0177"
         cy="38.83923"
         r="1.3715364" />
      <circle
         style="display:inline;opacity:1;fill:#008000;fill-opacity:1;stroke:none;stroke-width:0.560001"
         id="circle17"
         cx="-2.7095945"
         cy="61.46888"
         r="1.3715364" />
    </g>
  </g>
  <g
     inkscape:groupmode="layer"
     id="layer3"
     inkscape:label="Bivectors"
     style="display:none">
    <circle
       style="opacity:1;fill:#000080;fill-opacity:1;stroke:none;stroke-width:0.560001"
       id="circle7"
       cx="62.483601"
       cy="35.79911"
       r="1.3715364" />
    <text
       xml:space="preserve"
       style="font-style:normal;font-variant:normal;font-weight:normal;font-stretch:normal;font-size:7.05556px;font-family:'Latin Modern Math';-inkscape-font-specification:'Latin Modern Math';text-align:center;text-anchor:middle;display:inline;opacity:1;fill:#000080;fill-opacity:1;stroke:none;stroke-width:0.560001"
       x="62.639507"
       y="44.016747"
       id="text8"><tspan
         sodipodi:role="line"
         id="tspan8"
         style="font-style:normal;font-variant:normal;font-weight:normal;font-stretch:normal;font-size:7.05556px;font-family:'Latin Modern Math';-inkscape-font-specification:'Latin Modern Math';fill:#000080;stroke-width:0.56"
         x="62.639507"
         y="44.016747"><tspan
           style="font-style:normal;font-variant:normal;font-weight:bold;font-stretch:normal;font-size:7.05556px;font-family:'DejaVu Serif';-inkscape-font-specification:'DejaVu Serif';fill:#000080"
           id="tspan7">a<tspan
   style="font-style:normal;font-variant:normal;font-weight:normal;font-stretch:normal;font-family:'Latin Modern Math';-inkscape-font-specification:'Latin Modern Math';fill:#000080"
   id="tspan9">∧</tspan>b</tspan></tspan></text>
  </g>
</svg>
