<?xml version="1.0" encoding="UTF-8" standalone="no"?>
<!-- Created with Inkscape (http://www.inkscape.org/) -->

<svg
   width="100.30811mm"
   height="100.30811mm"
   viewBox="0 0 100.30811 100.30811"
   version="1.1"
   id="svg1"
   inkscape:version="1.3.2 (1:1.3.2+202311252150+091e20ef0f)"
   sodipodi:docname="ext_alg_blank.svg"
   xmlns:inkscape="http://www.inkscape.org/namespaces/inkscape"
   xmlns:sodipodi="http://sodipodi.sourceforge.net/DTD/sodipodi-0.dtd"
   xmlns="http://www.w3.org/2000/svg"
   xmlns:svg="http://www.w3.org/2000/svg">
  <sodipodi:namedview
     id="namedview1"
     pagecolor="#ffffff"
     bordercolor="#000000"
     borderopacity="0.25"
     inkscape:showpageshadow="2"
     inkscape:pageopacity="0.0"
     inkscape:pagecheckerboard="0"
     inkscape:deskcolor="#d1d1d1"
     inkscape:document-units="mm"
     inkscape:zoom="2.2083367"
     inkscape:cx="166.86767"
     inkscape:cy="169.13182"
     inkscape:window-width="1920"
     inkscape:window-height="995"
     inkscape:window-x="0"
     inkscape:window-y="0"
     inkscape:window-maximized="1"
     inkscape:current-layer="layer3"
     inkscape:pageshadow="2"
     showgrid="false"
     inkscape:snap-bbox="true"
     inkscape:snap-bbox-midpoints="true"
     inkscape:snap-intersection-paths="true"
     inkscape:snap-object-midpoints="true"
     inkscape:snap-center="true"
     inkscape:bbox-paths="true"
     inkscape:bbox-nodes="true"
     inkscape:snap-bbox-edge-midpoints="true"
     inkscape:object-paths="true"
     inkscape:snap-smooth-nodes="true" />
  <defs
     id="defs1">
    <marker
       style="overflow:visible;"
       id="Arrow1Lend"
       refX="0.0"
       refY="0.0"
       orient="auto"
       inkscape:stockid="Arrow1Lend"
       inkscape:isstock="true">
      <path
         transform="scale(0.8) rotate(180) translate(12.5,0)"
         style="fill-rule:evenodd;fill:context-stroke;stroke:context-stroke;stroke-width:1.0pt;"
         d="M 0.0,0.0 L 5.0,-5.0 L -12.5,0.0 L 5.0,5.0 L 0.0,0.0 z "
         id="path35504" />
    </marker>
    <marker
       style="overflow:visible;"
       id="Arrow2Lend"
       refX="0.0"
       refY="0.0"
       orient="auto"
       inkscape:stockid="Arrow2Lend"
       inkscape:isstock="true">
      <path
         transform="scale(1.1) rotate(180) translate(1,0)"
         d="M 8.7185878,4.0337352 L -2.2072895,0.016013256 L 8.7185884,-4.0017078 C 6.9730900,-1.6296469 6.9831476,1.6157441 8.7185878,4.0337352 z "
         style="stroke:context-stroke;fill-rule:evenodd;fill:context-stroke;stroke-width:0.62500000;stroke-linejoin:round;"
         id="path35522" />
    </marker>
    <marker
       style="overflow:visible;"
       id="Arrow1Mend"
       refX="0.0"
       refY="0.0"
       orient="auto"
       inkscape:stockid="Arrow1Mend"
       inkscape:isstock="true">
      <path
         transform="scale(0.4) rotate(180) translate(10,0)"
         style="fill-rule:evenodd;fill:context-stroke;stroke:context-stroke;stroke-width:1.0pt;"
         d="M 0.0,0.0 L 5.0,-5.0 L -12.5,0.0 L 5.0,5.0 L 0.0,0.0 z "
         id="path35510" />
    </marker>
    <marker
       style="overflow:visible"
       id="Arrow1Lend-8"
       refX="0"
       refY="0"
       orient="auto"
       inkscape:stockid="Arrow1Lend"
       inkscape:isstock="true">
      <path
         transform="matrix(-0.8,0,0,-0.8,-10,0)"
         style="fill:context-stroke;fill-rule:evenodd;stroke:context-stroke;stroke-width:1pt"
         d="M 0,0 5,-5 -12.5,0 5,5 Z"
         id="path35504-4" />
    </marker>
  </defs>
  <g
     inkscape:label="Frame"
     inkscape:groupmode="layer"
     id="layer1"
     transform="translate(-10.692291,-20.168362)"
     style="display:inline">
    <rect
       style="opacity:0.458797;fill:none;fill-opacity:0.454327;stroke:#000000;stroke-width:0.560001"
       id="rect1"
       width="99.748108"
       height="99.748108"
       x="10.972292"
       y="20.448362" />
    <text
       xml:space="preserve"
       style="font-style:normal;font-weight:normal;font-size:10.5833px;line-height:1.25;font-family:sans-serif;fill:#000000;fill-opacity:1;stroke:none;stroke-width:0.264583"
       x="35.728279"
       y="42.074852"
       id="text29440"><tspan
         sodipodi:role="line"
         id="tspan29438"
         style="stroke-width:0.264583"
         x="35.728279"
         y="42.074852" /></text>
  </g>
  <g
     inkscape:groupmode="layer"
     id="layer2"
     inkscape:label="Scalars"
     style="display:none">
    <circle
       style="opacity:1;fill:#000000;fill-opacity:1;stroke:none;stroke-width:0.560001"
       id="circle4"
       cx="60.846344"
       cy="70.322418"
       r="1.3715364"
       transform="translate(-10.692291,-20.168362)" />
    <text
       xml:space="preserve"
       style="font-style:normal;font-variant:normal;font-weight:normal;font-stretch:normal;font-size:3.175px;font-family:'Latin Modern Math';-inkscape-font-specification:'Latin Modern Math';text-align:center;text-anchor:middle;opacity:1;fill:#000000;fill-opacity:1;stroke:none;stroke-width:0.560001"
       x="60.631794"
       y="75.826782"
       id="text24552"
       transform="translate(-10.692291,-20.168362)"><tspan
         sodipodi:role="line"
         id="tspan24550"
         style="font-style:normal;font-variant:normal;font-weight:normal;font-stretch:normal;font-family:'DejaVu Serif';-inkscape-font-specification:'DejaVu Serif Bold';stroke-width:0.56"
         x="60.631794"
         y="75.826782">0</tspan></text>
    <text
       xml:space="preserve"
       style="font-style:normal;font-variant:normal;font-weight:normal;font-stretch:normal;font-size:3.175px;font-family:'Latin Modern Math';-inkscape-font-specification:'Latin Modern Math';text-align:center;text-anchor:middle;opacity:1;fill:#000000;fill-opacity:1;stroke:none;stroke-width:0.560001"
       x="64.336128"
       y="71.344765"
       id="text27598"
       transform="translate(-10.692291,-20.168362)"><tspan
         sodipodi:role="line"
         id="tspan27596"
         style="font-style:normal;font-variant:normal;font-weight:normal;font-stretch:normal;font-family:'Latin Modern Math';-inkscape-font-specification:'Latin Modern Math';fill:#000000;stroke-width:0.56"
         x="64.336128"
         y="71.344765">6<tspan
   style="font-style:normal;font-variant:normal;font-weight:bold;font-stretch:normal;font-family:'DejaVu Serif';-inkscape-font-specification:'DejaVu Serif';fill:#000000"
   id="tspan27594" /></tspan></text>
  </g>
  <g
     inkscape:groupmode="layer"
     id="layer3"
     inkscape:label="Vectors"
     style="display:none">
    <circle
       style="opacity:1;fill:#008000;fill-opacity:1;stroke:none;stroke-width:0.560001"
       id="circle1"
       cx="56.771725"
       cy="94.067482"
       r="1.3715364"
       transform="translate(-10.692291,-20.168362)" />
    <text
       xml:space="preserve"
       style="font-style:normal;font-variant:normal;font-weight:normal;font-stretch:normal;font-size:4.23333px;font-family:'Latin Modern Math';-inkscape-font-specification:'Latin Modern Math';text-align:center;text-anchor:middle;opacity:1;fill:#008000;fill-opacity:1;stroke:none;stroke-width:0.560001"
       x="41.052624"
       y="93.818443"
       id="text25920"
       transform="translate(-10.692291,-20.168362)"><tspan
         sodipodi:role="line"
         id="tspan25918"
         style="font-style:normal;font-variant:normal;font-weight:normal;font-stretch:normal;font-size:4.23333px;font-family:'Latin Modern Math';-inkscape-font-specification:'Latin Modern Math';fill:#008000;stroke-width:0.56"
         x="41.052624"
         y="93.818443"><tspan
           style="font-style:normal;font-variant:normal;font-weight:bold;font-stretch:normal;font-size:4.23333px;font-family:'DejaVu Serif';-inkscape-font-specification:'DejaVu Serif';fill:#008000"
           id="tspan25916">a</tspan></tspan></text>
    <text
       xml:space="preserve"
       style="font-style:normal;font-variant:normal;font-weight:normal;font-stretch:normal;font-size:4.23333px;font-family:'Latin Modern Math';-inkscape-font-specification:'Latin Modern Math';text-align:center;text-anchor:middle;opacity:1;fill:#008000;fill-opacity:1;stroke:none;stroke-width:0.560001"
       x="56.927628"
       y="99.110115"
       id="text26780"
       transform="translate(-10.692291,-20.168362)"><tspan
         sodipodi:role="line"
         id="tspan26778"
         style="font-style:normal;font-variant:normal;font-weight:normal;font-stretch:normal;font-size:4.23333px;font-family:'Latin Modern Math';-inkscape-font-specification:'Latin Modern Math';fill:#008000;stroke-width:0.56"
         x="56.927628"
         y="99.110115"><tspan
           style="font-style:normal;font-variant:normal;font-weight:bold;font-stretch:normal;font-size:4.23333px;font-family:'DejaVu Serif';-inkscape-font-specification:'DejaVu Serif';fill:#008000"
           id="tspan26776">b</tspan></tspan></text>
    <circle
       style="opacity:1;fill:#008000;fill-opacity:1;stroke:none;stroke-width:0.560001"
       id="circle28092"
       cx="77.938385"
       cy="67.609161"
       r="1.3715364"
       transform="translate(-10.692291,-20.168362)" />
    <text
       xml:space="preserve"
       style="font-style:normal;font-variant:normal;font-weight:normal;font-stretch:normal;font-size:4.23333px;font-family:'Latin Modern Math';-inkscape-font-specification:'Latin Modern Math';text-align:center;text-anchor:middle;opacity:1;fill:#008000;fill-opacity:1;stroke:none;stroke-width:0.560001"
       x="78.094292"
       y="72.651794"
       id="text28098"
       transform="translate(-10.692291,-20.168362)"><tspan
         sodipodi:role="line"
         id="tspan28096"
         style="font-style:normal;font-variant:normal;font-weight:normal;font-stretch:normal;font-size:4.23333px;font-family:'Latin Modern Math';-inkscape-font-specification:'Latin Modern Math';fill:#008000;stroke-width:0.56"
         x="78.094292"
         y="72.651794"><tspan
           style="font-style:normal;font-variant:normal;font-weight:bold;font-stretch:normal;font-size:4.23333px;font-family:'DejaVu Serif';-inkscape-font-specification:'DejaVu Serif';fill:#008000"
           id="tspan28094">c</tspan></tspan></text>
    <circle
       style="opacity:1;fill:#008000;fill-opacity:1;stroke:none;stroke-width:0.560001"
       id="path1"
       cx="40.896721"
       cy="88.775818"
       r="1.3715364"
       transform="translate(-10.692291,-20.168362)" />
  </g>
  <g
     inkscape:groupmode="layer"
     id="layer4"
     inkscape:label="Bivectors"
     style="display:none">
    <circle
       style="opacity:1;fill:#000080;fill-opacity:1;stroke:none;stroke-width:0.560001"
       id="circle2"
       cx="71.275185"
       cy="55.269405"
       r="1.3715364"
       transform="translate(-10.692291,-20.168362)" />
    <text
       xml:space="preserve"
       style="font-style:normal;font-variant:normal;font-weight:normal;font-stretch:normal;font-size:3.175px;font-family:'Latin Modern Math';-inkscape-font-specification:'Latin Modern Math';text-align:center;text-anchor:middle;opacity:1;fill:#000080;fill-opacity:1;stroke:none;stroke-width:0.560001"
       x="52.359211"
       y="61.448772"
       id="text4"
       transform="translate(-10.692291,-20.168362)"><tspan
         sodipodi:role="line"
         id="tspan4"
         style="font-style:normal;font-variant:normal;font-weight:normal;font-stretch:normal;font-family:'Latin Modern Math';-inkscape-font-specification:'Latin Modern Math';fill:#000080;stroke-width:0.56"
         x="52.359211"
         y="61.448772"><tspan
   style="font-style:normal;font-variant:normal;font-weight:bold;font-stretch:normal;font-family:'DejaVu Serif';-inkscape-font-specification:'DejaVu Serif Bold';fill:#000080"
   id="tspan7854">b</tspan>∧<tspan
   style="font-style:normal;font-variant:normal;font-weight:bold;font-stretch:normal;font-family:'DejaVu Serif';-inkscape-font-specification:'DejaVu Serif';fill:#000080"
   id="tspan18684">c</tspan></tspan></text>
    <circle
       style="opacity:1;fill:#000080;fill-opacity:1;stroke:none;stroke-width:0.560001"
       id="circle7"
       cx="-51.369423"
       cy="-84.54039"
       r="1.3715364"
       inkscape:transform-center-x="10.63284"
       inkscape:transform-center-y="14.909614"
       transform="rotate(-179.2198,-5.414805,-10.047781)" />
    <text
       xml:space="preserve"
       style="font-style:normal;font-variant:normal;font-weight:normal;font-stretch:normal;font-size:3.175px;font-family:'Latin Modern Math';-inkscape-font-specification:'Latin Modern Math';text-align:center;text-anchor:middle;opacity:1;fill:#000080;fill-opacity:1;stroke:none;stroke-width:0.560001"
       x="71.315216"
       y="61.691021"
       id="text20488"
       transform="translate(-10.692291,-20.168362)"><tspan
         sodipodi:role="line"
         id="tspan20486"
         style="font-style:normal;font-variant:normal;font-weight:normal;font-stretch:normal;font-family:'Latin Modern Math';-inkscape-font-specification:'Latin Modern Math';fill:#000080;stroke-width:0.56"
         x="71.315216"
         y="61.691021"><tspan
   style="font-style:normal;font-variant:normal;font-weight:bold;font-stretch:normal;font-family:'DejaVu Serif';-inkscape-font-specification:'DejaVu Serif Bold';fill:#000080"
   id="tspan20482">a</tspan>∧<tspan
   style="font-style:normal;font-variant:normal;font-weight:bold;font-stretch:normal;font-family:'DejaVu Serif';-inkscape-font-specification:'DejaVu Serif';fill:#000080"
   id="tspan20484">b</tspan></tspan></text>
    <text
       xml:space="preserve"
       style="font-style:normal;font-variant:normal;font-weight:normal;font-stretch:normal;font-size:3.175px;font-family:'Latin Modern Math';-inkscape-font-specification:'Latin Modern Math';text-align:center;text-anchor:middle;opacity:1;fill:#000080;fill-opacity:1;stroke:none;stroke-width:0.560001"
       x="50.048458"
       y="91.701775"
       id="text23732"
       transform="translate(-10.692291,-20.168362)"><tspan
         sodipodi:role="line"
         id="tspan23730"
         style="font-style:normal;font-variant:normal;font-weight:normal;font-stretch:normal;font-family:'Latin Modern Math';-inkscape-font-specification:'Latin Modern Math';fill:#000080;stroke-width:0.56"
         x="50.048458"
         y="91.701775"><tspan
   style="font-style:normal;font-variant:normal;font-weight:bold;font-stretch:normal;font-family:'DejaVu Serif';-inkscape-font-specification:'DejaVu Serif Bold';fill:#000080"
   id="tspan23726">b</tspan>∧<tspan
   style="font-style:normal;font-variant:normal;font-weight:bold;font-stretch:normal;font-family:'DejaVu Serif';-inkscape-font-specification:'DejaVu Serif';fill:#000080"
   id="tspan23728">a</tspan></tspan></text>
    <circle
       style="opacity:1;fill:#000080;fill-opacity:1;stroke:none;stroke-width:0.560001"
       id="circle25722"
       cx="-69.327522"
       cy="-85.375427"
       r="1.3715364"
       inkscape:transform-center-x="-8.4811761"
       inkscape:transform-center-y="15.053011"
       transform="rotate(180,-5.3461455,-10.084181)" />
    <text
       xml:space="preserve"
       style="font-style:normal;font-variant:normal;font-weight:normal;font-stretch:normal;font-size:3.175px;font-family:'Latin Modern Math';-inkscape-font-specification:'Latin Modern Math';text-align:center;text-anchor:middle;opacity:1;fill:#000080;fill-opacity:1;stroke:none;stroke-width:0.560001"
       x="69.292549"
       y="90.552925"
       id="text25730"
       transform="translate(-10.692291,-20.168362)"><tspan
         sodipodi:role="line"
         id="tspan25728"
         style="font-style:normal;font-variant:normal;font-weight:normal;font-stretch:normal;font-family:'Latin Modern Math';-inkscape-font-specification:'Latin Modern Math';fill:#000080;stroke-width:0.56"
         x="69.292549"
         y="90.552925"><tspan
   style="font-style:normal;font-variant:normal;font-weight:bold;font-stretch:normal;font-family:'DejaVu Serif';-inkscape-font-specification:'DejaVu Serif Bold';fill:#000080"
   id="tspan25724">c</tspan>∧<tspan
   style="font-style:normal;font-variant:normal;font-weight:bold;font-stretch:normal;font-family:'DejaVu Serif';-inkscape-font-specification:'DejaVu Serif';fill:#000080"
   id="tspan25726">b</tspan></tspan></text>
    <a
       id="a48945"
       transform="translate(-10.692291,-20.168362)">
      <circle
         style="opacity:1;fill:#000080;fill-opacity:1;stroke:none;stroke-width:0.560001"
         id="circle3"
         cx="52.365166"
         cy="55.269405"
         r="1.3715364"
         inkscape:transform-center-x="8.4811799"
         inkscape:transform-center-y="-15.05301" />
    </a>
  </g>
  <g
     inkscape:groupmode="layer"
     id="layer5"
     inkscape:label="Trivectors"
     style="display:none">
    <g
       inkscape:groupmode="layer"
       id="layer8"
       inkscape:label="associativity"
       style="display:none">
      <a
         id="a49517"
         style="display:inline">
        <text
           xml:space="preserve"
           style="font-style:normal;font-variant:normal;font-weight:normal;font-stretch:normal;font-size:3.175px;font-family:'Latin Modern Math';-inkscape-font-specification:'Latin Modern Math';text-align:center;text-anchor:middle;opacity:1;fill:#800000;fill-opacity:1;stroke:none;stroke-width:0.560001"
           x="56.918762"
           y="32.526817"
           id="text28254"><tspan
             sodipodi:role="line"
             id="tspan28252"
             style="font-style:normal;font-variant:normal;font-weight:normal;font-stretch:normal;font-family:'Latin Modern Math';-inkscape-font-specification:'Latin Modern Math';fill:#800000;stroke-width:0.56"
             x="56.918762"
             y="32.526817"><tspan
   style="font-style:normal;font-variant:normal;font-weight:bold;font-stretch:normal;font-family:'DejaVu Serif';-inkscape-font-specification:'DejaVu Serif Bold';fill:#800000"
   id="tspan28248"><tspan
   style="font-weight:normal;fill:#800000"
   id="tspan38545">(</tspan>a</tspan>∧<tspan
   style="font-style:normal;font-variant:normal;font-weight:bold;font-stretch:normal;font-family:'DejaVu Serif';-inkscape-font-specification:'DejaVu Serif';fill:#800000"
   id="tspan28250">b<tspan
   style="font-weight:normal;fill:#800000"
   id="tspan38543">)</tspan><tspan
   style="font-style:normal;font-variant:normal;font-weight:normal;font-stretch:normal;font-family:'Latin Modern Math';-inkscape-font-specification:'Latin Modern Math';fill:#800000"
   id="tspan33943">∧</tspan>c</tspan></tspan></text>
      </a>
      <text
         xml:space="preserve"
         style="font-style:normal;font-variant:normal;font-weight:normal;font-stretch:normal;font-size:3.175px;font-family:'Latin Modern Math';-inkscape-font-specification:'Latin Modern Math';text-align:center;text-anchor:middle;display:inline;opacity:1;fill:#800000;fill-opacity:1;stroke:none;stroke-width:0.560001"
         x="56.918762"
         y="28.822649"
         id="text36665"><tspan
           sodipodi:role="line"
           id="tspan36663"
           style="font-style:normal;font-variant:normal;font-weight:normal;font-stretch:normal;font-family:'Latin Modern Math';-inkscape-font-specification:'Latin Modern Math';fill:#800000;stroke-width:0.56"
           x="56.918762"
           y="28.822649"><tspan
   style="font-style:normal;font-variant:normal;font-weight:bold;font-stretch:normal;font-family:'DejaVu Serif';-inkscape-font-specification:'DejaVu Serif Bold';fill:#800000"
   id="tspan36657">a</tspan>∧<tspan
   style="font-style:normal;font-variant:normal;font-weight:normal;font-stretch:normal;font-family:'DejaVu Serif';-inkscape-font-specification:'DejaVu Serif';fill:#800000"
   id="tspan44055">(</tspan><tspan
   style="font-style:normal;font-variant:normal;font-weight:bold;font-stretch:normal;font-family:'DejaVu Serif';-inkscape-font-specification:'DejaVu Serif';fill:#800000"
   id="tspan36661">b<tspan
   style="font-style:normal;font-variant:normal;font-weight:normal;font-stretch:normal;font-family:'Latin Modern Math';-inkscape-font-specification:'Latin Modern Math';fill:#800000"
   id="tspan36659">∧</tspan>c<tspan
   style="font-weight:normal;fill:#800000"
   id="tspan47965">)</tspan></tspan></tspan></text>
    </g>
    <circle
       style="opacity:1;fill:#800000;fill-opacity:1;stroke:none;stroke-width:0.560001"
       id="circle28246"
       cx="67.571022"
       cy="40.981899"
       r="1.3715364"
       transform="translate(-10.692291,-20.168362)" />
    <text
       xml:space="preserve"
       style="font-style:normal;font-variant:normal;font-weight:normal;font-stretch:normal;font-size:3.175px;font-family:'Latin Modern Math';-inkscape-font-specification:'Latin Modern Math';text-align:center;text-anchor:middle;opacity:1;fill:#800000;fill-opacity:1;stroke:none;stroke-width:0.560001"
       x="56.918762"
       y="25.118484"
       id="text49411"><tspan
         sodipodi:role="line"
         id="tspan49409"
         style="font-style:normal;font-variant:normal;font-weight:normal;font-stretch:normal;font-family:'Latin Modern Math';-inkscape-font-specification:'Latin Modern Math';fill:#800000;stroke-width:0.56"
         x="56.918762"
         y="25.118484"><tspan
   style="font-style:normal;font-variant:normal;font-weight:bold;font-stretch:normal;font-family:'DejaVu Serif';-inkscape-font-specification:'DejaVu Serif Bold';fill:#800000"
   id="tspan49399">a</tspan>∧<tspan
   style="font-style:normal;font-variant:normal;font-weight:bold;font-stretch:normal;font-family:'DejaVu Serif';-inkscape-font-specification:'DejaVu Serif';fill:#800000"
   id="tspan49407">b<tspan
   style="font-style:normal;font-variant:normal;font-weight:normal;font-stretch:normal;font-family:'Latin Modern Math';-inkscape-font-specification:'Latin Modern Math';fill:#800000"
   id="tspan49403">∧</tspan>c<tspan
   style="font-weight:normal;fill:#800000"
   id="tspan49405" /></tspan></tspan></text>
  </g>
  <g
     inkscape:groupmode="layer"
     id="layer6"
     inkscape:label="Wedge op a(bc)"
     style="display:none">
    <path
       style="fill:none;stroke:#000000;stroke-width:0.264583;stroke-linecap:butt;stroke-linejoin:miter;stroke-miterlimit:4;stroke-dasharray:0.264583, 0.793749;stroke-dashoffset:0;stroke-opacity:1;marker-end:url(#Arrow1Mend)"
       d="M 47.411742,47.395 66.229198,41.265835"
       id="path35844"
       sodipodi:nodetypes="cc"
       transform="translate(-10.692291,-20.168362)" />
    <path
       style="fill:none;stroke:#000000;stroke-width:0.264583;stroke-linecap:butt;stroke-linejoin:miter;stroke-miterlimit:4;stroke-dasharray:0.264583, 0.793749;stroke-dashoffset:0;stroke-opacity:1;marker-end:url(#Arrow1Mend)"
       d="M 40.896722,88.775817 46.17511,49.689965"
       id="path28291"
       sodipodi:nodetypes="cc"
       transform="translate(-10.692291,-20.168362)" />
    <g
       id="g33441"
       transform="translate(1.512754,-3.5820191)">
      <rect
         style="opacity:1;fill:#ffffff;fill-opacity:1;stroke:#000000;stroke-width:0.101;stroke-linecap:butt;stroke-linejoin:miter;stroke-miterlimit:4;stroke-dasharray:none;stroke-dashoffset:0;stroke-opacity:1;stop-color:#000000;stop-opacity:1"
         id="rect28410"
         width="4.5899315"
         height="4.5899315"
         x="32.911732"
         y="28.513691" />
      <text
         xml:space="preserve"
         style="font-style:normal;font-variant:normal;font-weight:normal;font-stretch:normal;font-size:3.175px;font-family:'Latin Modern Math';-inkscape-font-specification:'Latin Modern Math';text-align:center;text-anchor:middle;opacity:1;fill:#000080;fill-opacity:1;stroke:none;stroke-width:0.560001"
         x="35.205624"
         y="31.731609"
         id="text33312"><tspan
           sodipodi:role="line"
           id="tspan33310"
           style="font-style:normal;font-variant:normal;font-weight:normal;font-stretch:normal;font-family:'Latin Modern Math';-inkscape-font-specification:'Latin Modern Math';fill:#000080;stroke-width:0.56"
           x="35.205624"
           y="31.731609">∧</tspan></text>
    </g>
    <path
       style="font-variation-settings:normal;display:inline;opacity:1;vector-effect:none;fill:none;fill-opacity:1;stroke:#000000;stroke-width:0.264583;stroke-linecap:butt;stroke-linejoin:miter;stroke-miterlimit:4;stroke-dasharray:0.264583, 0.793749;stroke-dashoffset:0;stroke-opacity:1;-inkscape-stroke:none;marker-end:url(#Arrow1Mend);stop-color:#000000;stop-opacity:1"
       d="m 52.365166,55.269405 -3.521373,-5.57944"
       id="path28289"
       sodipodi:nodetypes="cc"
       transform="translate(-10.692291,-20.168362)" />
  </g>
  <g
     inkscape:groupmode="layer"
     id="layer7"
     inkscape:label="Wedge op (ab)c"
     style="display:none">
    <g
       id="g48053"
       transform="translate(43.846091,-3.5820191)">
      <rect
         style="opacity:1;fill:#ffffff;fill-opacity:1;stroke:#000000;stroke-width:0.101;stroke-linecap:butt;stroke-linejoin:miter;stroke-miterlimit:4;stroke-dasharray:none;stroke-dashoffset:0;stroke-opacity:1;stop-color:#000000;stop-opacity:1"
         id="rect48047"
         width="4.5899315"
         height="4.5899315"
         x="32.911732"
         y="28.513691" />
      <text
         xml:space="preserve"
         style="font-style:normal;font-variant:normal;font-weight:normal;font-stretch:normal;font-size:3.175px;font-family:'Latin Modern Math';-inkscape-font-specification:'Latin Modern Math';text-align:center;text-anchor:middle;opacity:1;fill:#000080;fill-opacity:1;stroke:none;stroke-width:0.560001"
         x="35.205624"
         y="31.731609"
         id="text48051"><tspan
           sodipodi:role="line"
           id="tspan48049"
           style="font-style:normal;font-variant:normal;font-weight:normal;font-stretch:normal;font-family:'Latin Modern Math';-inkscape-font-specification:'Latin Modern Math';fill:#000080;stroke-width:0.56"
           x="35.205624"
           y="31.731609">∧</tspan></text>
    </g>
    <path
       style="font-variation-settings:normal;opacity:1;vector-effect:none;fill:none;fill-opacity:1;stroke:#000000;stroke-width:0.264583;stroke-linecap:butt;stroke-linejoin:miter;stroke-miterlimit:4;stroke-dasharray:0.264583, 0.793749;stroke-dashoffset:0;stroke-opacity:1;-inkscape-stroke:none;marker-end:url(#Arrow1Mend);stop-color:#000000;stop-opacity:1"
       d="M 78.661208,66.443555 90.981711,49.689965"
       id="path48055"
       sodipodi:nodetypes="cc"
       transform="translate(-10.692291,-20.168362)" />
    <path
       style="fill:none;stroke:#000000;stroke-width:0.264583;stroke-linecap:butt;stroke-linejoin:miter;stroke-miterlimit:4;stroke-dasharray:0.264583, 0.793749;stroke-dashoffset:0;stroke-opacity:1;marker-end:url(#Arrow1Mend)"
       d="M 89.81664,45.100034 68.942558,40.981899"
       id="path48057"
       sodipodi:nodetypes="cc"
       transform="translate(-10.692291,-20.168362)" />
    <path
       style="fill:none;stroke:#000000;stroke-width:0.264583;stroke-linecap:butt;stroke-linejoin:miter;stroke-miterlimit:4;stroke-dasharray:0.264583, 0.793749;stroke-dashoffset:0;stroke-opacity:1;marker-end:url(#Arrow1Mend)"
       d="m 72.646721,55.269405 15.332558,-5.57944"
       id="path48059"
       sodipodi:nodetypes="cc"
       transform="translate(-10.692291,-20.168362)" />
  </g>
</svg>
