<?xml version="1.0" encoding="UTF-8" standalone="no"?>
<!-- Created with Inkscape (http://www.inkscape.org/) -->

<svg
   width="62.712059mm"
   height="50.375427mm"
   viewBox="0 0 62.712059 50.375427"
   version="1.1"
   id="svg1"
   inkscape:version="1.3.2 (1:1.3.2+202311252150+091e20ef0f)"
   sodipodi:docname="ext_alg_solv_lin_eq_02.svg"
   xmlns:inkscape="http://www.inkscape.org/namespaces/inkscape"
   xmlns:sodipodi="http://sodipodi.sourceforge.net/DTD/sodipodi-0.dtd"
   xmlns="http://www.w3.org/2000/svg"
   xmlns:svg="http://www.w3.org/2000/svg">
  <sodipodi:namedview
     id="namedview1"
     pagecolor="#ffffff"
     bordercolor="#000000"
     borderopacity="0.25"
     inkscape:showpageshadow="2"
     inkscape:pageopacity="0.0"
     inkscape:pagecheckerboard="0"
     inkscape:deskcolor="#d1d1d1"
     inkscape:document-units="mm"
     inkscape:zoom="2.2179637"
     inkscape:cx="100.99354"
     inkscape:cy="118.3518"
     inkscape:window-width="1499"
     inkscape:window-height="991"
     inkscape:window-x="26"
     inkscape:window-y="23"
     inkscape:window-maximized="0"
     inkscape:current-layer="layer10"
     showguides="false" />
  <defs
     id="defs1">
    <marker
       style="overflow:visible"
       id="Triangle"
       refX="3"
       refY="0"
       orient="auto-start-reverse"
       inkscape:stockid="Triangle arrow"
       markerWidth="1"
       markerHeight="1"
       viewBox="0 0 1 1"
       inkscape:isstock="true"
       inkscape:collect="always"
       preserveAspectRatio="xMidYMid">
      <path
         transform="scale(0.5)"
         style="fill:context-stroke;fill-rule:evenodd;stroke:context-stroke;stroke-width:1pt"
         d="M 5.77,0 -2.88,5 V -5 Z"
         id="path135" />
    </marker>
  </defs>
  <g
     inkscape:label="Layer 1"
     inkscape:groupmode="layer"
     id="layer1"
     transform="translate(102.4911,-72.139043)" />
  <g
     inkscape:groupmode="layer"
     id="layer3"
     inkscape:label="Layer 3"
     style="display:inline"
     transform="translate(102.4911,-72.139043)" />
  <g
     inkscape:groupmode="layer"
     id="layer4"
     inkscape:label="Layer 4"
     style="display:none"
     transform="translate(102.4911,-72.139043)" />
  <g
     inkscape:groupmode="layer"
     id="layer10"
     inkscape:label="xa"
     style="display:inline"
     transform="translate(6.085416,-3.706517)">
    <path
       d="M -59.586568,115.44972 -41.555655,90.692242 H -61.406251 L -79.496322,115.41807 Z"
       style="font-variation-settings:normal;display:inline;opacity:0.265487;vector-effect:none;fill:#000080;fill-opacity:1;stroke:none;stroke-width:0.465;stroke-linecap:butt;stroke-linejoin:miter;stroke-miterlimit:4;stroke-dasharray:none;stroke-dashoffset:0;stroke-opacity:1;-inkscape-stroke:none;marker-end:url(#Triangle)"
       id="path6"
       sodipodi:nodetypes="ccccc"
       transform="translate(96.405684,-68.432527)"
       inkscape:label="xa_plane" />
    <text
       xml:space="preserve"
       style="font-style:normal;font-variant:normal;font-weight:normal;font-stretch:normal;font-size:3.59596px;font-family:'Latin Modern Math';-inkscape-font-specification:'Latin Modern Math';text-align:center;text-anchor:middle;display:inline;fill:#000080;fill-opacity:1;stroke:none;stroke-width:0.313774"
       x="44.182026"
       y="22.046667"
       id="text25-6-8-1"
       inkscape:label="xa"><tspan
         sodipodi:role="line"
         id="tspan25-3-5-7"
         style="font-style:normal;font-variant:normal;font-weight:normal;font-stretch:normal;font-size:3.59596px;font-family:'Latin Modern Math';-inkscape-font-specification:'Latin Modern Math';fill:#000080;stroke-width:0.313774"
         x="44.182026"
         y="22.046667"><tspan
   style="font-style:normal;font-variant:normal;font-weight:bold;font-stretch:normal;font-size:3.59596px;font-family:'DejaVu Serif';-inkscape-font-specification:'DejaVu Serif Bold';fill:#000080;stroke-width:0.313774"
   id="tspan22-9-0-8">a</tspan>∧<tspan
   style="font-style:normal;font-variant:normal;font-weight:bold;font-stretch:normal;font-size:3.59596px;font-family:'DejaVu Serif';-inkscape-font-specification:'DejaVu Serif';fill:#000080;stroke-width:0.313774"
   id="tspan23-4-9-5">x</tspan></tspan></text>
  </g>
  <g
     inkscape:groupmode="layer"
     id="layer11"
     inkscape:label="xa_sheared"
     style="display:none"
     transform="translate(6.085416,-3.706517)">
    <path
       d="m -59.586568,115.44972 -9.228318,-24.757478 h -19.850593 l 9.169157,24.725828 z"
       style="font-variation-settings:normal;display:inline;opacity:0.265487;vector-effect:none;fill:#000080;fill-opacity:1;stroke:none;stroke-width:0.465;stroke-linecap:butt;stroke-linejoin:miter;stroke-miterlimit:4;stroke-dasharray:none;stroke-dashoffset:0;stroke-opacity:1;-inkscape-stroke:none;marker-end:url(#Triangle)"
       id="path9"
       sodipodi:nodetypes="ccccc"
       transform="translate(96.405684,-68.432527)"
       inkscape:label="xa_plane_sheared" />
    <text
       xml:space="preserve"
       style="font-style:normal;font-variant:normal;font-weight:normal;font-stretch:normal;font-size:3.59596px;font-family:'Latin Modern Math';-inkscape-font-specification:'Latin Modern Math';text-align:center;text-anchor:middle;display:inline;fill:#000080;fill-opacity:1;stroke:none;stroke-width:0.313774"
       x="18.146029"
       y="21.859564"
       id="text25-6-8"
       inkscape:label="xa_sheared"><tspan
         sodipodi:role="line"
         id="tspan25-3-5"
         style="font-style:normal;font-variant:normal;font-weight:normal;font-stretch:normal;font-size:3.59596px;font-family:'Latin Modern Math';-inkscape-font-specification:'Latin Modern Math';fill:#000080;stroke-width:0.313774"
         x="18.146029"
         y="21.859564"><tspan
   style="font-style:normal;font-variant:normal;font-weight:bold;font-stretch:normal;font-size:3.59596px;font-family:'DejaVu Serif';-inkscape-font-specification:'DejaVu Serif Bold';fill:#000080;stroke-width:0.313774"
   id="tspan22-9-0">a</tspan>∧<tspan
   style="font-style:normal;font-variant:normal;font-weight:bold;font-stretch:normal;font-size:3.59596px;font-family:'DejaVu Serif';-inkscape-font-specification:'DejaVu Serif';fill:#000080;stroke-width:0.313774"
   id="tspan23-4-9">x</tspan></tspan></text>
  </g>
  <g
     inkscape:groupmode="layer"
     id="layer9"
     inkscape:label="xb"
     style="display:inline"
     transform="translate(6.085416,-3.706517)">
    <path
       d="m -79.497082,115.41838 18.090831,-24.726138 -6.932856,-18.553198 -18.059182,24.66698 z"
       style="font-variation-settings:normal;display:inline;opacity:0.603279;vector-effect:none;fill:#ffa2a2;fill-opacity:1;stroke:none;stroke-width:0.430955;stroke-linecap:butt;stroke-linejoin:miter;stroke-miterlimit:4;stroke-dasharray:none;stroke-dashoffset:0;stroke-opacity:1;-inkscape-stroke:none;marker-end:url(#Triangle);stop-color:#000000;stop-opacity:1"
       id="path10"
       sodipodi:nodetypes="ccccc"
       transform="translate(96.405684,-68.432527)"
       inkscape:label="xb_plane" />
    <text
       xml:space="preserve"
       style="font-style:normal;font-variant:normal;font-weight:normal;font-stretch:normal;font-size:3.59596px;font-family:'Latin Modern Math';-inkscape-font-specification:'Latin Modern Math';text-align:center;text-anchor:middle;display:inline;fill:#d35f5f;fill-opacity:1;stroke:none;stroke-width:0.313774"
       x="35.979942"
       y="13.804634"
       id="text34"
       inkscape:label="xb"><tspan
         sodipodi:role="line"
         id="tspan34"
         style="font-style:normal;font-variant:normal;font-weight:normal;font-stretch:normal;font-size:3.59596px;font-family:'Latin Modern Math';-inkscape-font-specification:'Latin Modern Math';fill:#d35f5f;stroke-width:0.313774"
         x="35.979942"
         y="13.804634"><tspan
   style="font-style:normal;font-variant:normal;font-weight:bold;font-stretch:normal;font-size:3.59596px;font-family:'DejaVu Serif';-inkscape-font-specification:'DejaVu Serif Bold';fill:#d35f5f;stroke-width:0.313774"
   id="tspan32">x</tspan>∧<tspan
   style="font-style:normal;font-variant:normal;font-weight:bold;font-stretch:normal;font-size:3.59596px;font-family:'DejaVu Serif';-inkscape-font-specification:'DejaVu Serif';fill:#d35f5f;stroke-width:0.313774"
   id="tspan33">b</tspan></tspan></text>
  </g>
  <g
     inkscape:groupmode="layer"
     id="layer12"
     inkscape:label="xb_sheared"
     style="display:none"
     transform="translate(6.085416,-3.706517)">
    <path
       d="m -79.497082,115.41838 27.437943,0.0314 -6.932857,-18.553209 -27.406293,-0.09049 z"
       style="font-variation-settings:normal;display:inline;opacity:0.603279;vector-effect:none;fill:#ffa2a2;fill-opacity:1;stroke:none;stroke-width:0.430955;stroke-linecap:butt;stroke-linejoin:miter;stroke-miterlimit:4;stroke-dasharray:none;stroke-dashoffset:0;stroke-opacity:1;-inkscape-stroke:none;marker-end:url(#Triangle);stop-color:#000000;stop-opacity:1"
       id="path11"
       sodipodi:nodetypes="ccccc"
       transform="translate(96.405684,-68.432527)"
       inkscape:label="xb_plane_sheared" />
    <text
       xml:space="preserve"
       style="font-style:normal;font-variant:normal;font-weight:normal;font-stretch:normal;font-size:3.59596px;font-family:'Latin Modern Math';-inkscape-font-specification:'Latin Modern Math';text-align:center;text-anchor:middle;display:inline;fill:#d35f5f;fill-opacity:1;stroke:none;stroke-width:0.313774"
       x="44.975777"
       y="38.675468"
       id="text25-6-8-5"
       inkscape:label="xb_sheared"><tspan
         sodipodi:role="line"
         id="tspan25-3-5-6"
         style="font-style:normal;font-variant:normal;font-weight:normal;font-stretch:normal;font-size:3.59596px;font-family:'Latin Modern Math';-inkscape-font-specification:'Latin Modern Math';fill:#d35f5f;stroke-width:0.313774"
         x="44.975777"
         y="38.675468"><tspan
   style="font-style:normal;font-variant:normal;font-weight:bold;font-stretch:normal;font-size:3.59596px;font-family:'DejaVu Serif';-inkscape-font-specification:'DejaVu Serif Bold';fill:#d35f5f;stroke-width:0.313774"
   id="tspan22-9-0-1">x</tspan>∧<tspan
   style="font-style:normal;font-variant:normal;font-weight:bold;font-stretch:normal;font-size:3.59596px;font-family:'DejaVu Serif';-inkscape-font-specification:'DejaVu Serif';fill:#d35f5f;stroke-width:0.313774"
   id="tspan23-4-9-1">b</tspan></tspan></text>
  </g>
  <g
     inkscape:groupmode="layer"
     id="layer5"
     inkscape:label="ab"
     style="display:none"
     transform="translate(102.4911,-72.139043)">
    <text
       xml:space="preserve"
       style="font-style:normal;font-variant:normal;font-weight:normal;font-stretch:normal;font-size:3.59596px;font-family:'Latin Modern Math';-inkscape-font-specification:'Latin Modern Math';text-align:center;text-anchor:middle;display:inline;fill:#000000;fill-opacity:1;stroke:none;stroke-width:0.313774"
       x="-72.768974"
       y="107.41253"
       id="text25-6-8-5-0"
       inkscape:label="ab"><tspan
         sodipodi:role="line"
         id="tspan25-3-5-6-3"
         style="font-style:normal;font-variant:normal;font-weight:normal;font-stretch:normal;font-size:3.59596px;font-family:'Latin Modern Math';-inkscape-font-specification:'Latin Modern Math';fill:#000000;stroke-width:0.313774"
         x="-72.768974"
         y="107.41253"><tspan
   style="font-style:normal;font-variant:normal;font-weight:bold;font-stretch:normal;font-size:3.59596px;font-family:'DejaVu Serif';-inkscape-font-specification:'DejaVu Serif Bold';fill:#000000;stroke-width:0.313774"
   id="tspan22-9-0-1-0">a</tspan>∧<tspan
   style="font-style:normal;font-variant:normal;font-weight:bold;font-stretch:normal;font-size:3.59596px;font-family:'DejaVu Serif';-inkscape-font-specification:'DejaVu Serif';fill:#000000;stroke-width:0.313774"
   id="tspan23-4-9-1-4">b</tspan></tspan></text>
  </g>
  <g
     inkscape:groupmode="layer"
     id="layer6"
     inkscape:label="projections"
     style="display:none"
     transform="translate(102.4911,-72.139043)">
    <path
       style="font-variation-settings:normal;opacity:1;vector-effect:none;fill:#000000;fill-opacity:1;stroke:#ff0000;stroke-width:0.465;stroke-linecap:butt;stroke-linejoin:miter;stroke-miterlimit:4;stroke-dasharray:none;stroke-dashoffset:0;stroke-opacity:1;-inkscape-stroke:none;marker-end:url(#Triangle);stop-color:#000000;stop-opacity:1"
       d="M -79.496322,115.41807 -88.665479,90.692242"
       id="path3"
       sodipodi:nodetypes="cc" />
    <g
       id="g31-7"
       inkscape:label="xb/ab a"
       style="display:inline"
       transform="translate(-51.162351,-29.433094)">
      <text
         xml:space="preserve"
         style="font-style:normal;font-variant:normal;font-weight:normal;font-stretch:normal;font-size:4.93889px;font-family:'Latin Modern Math';-inkscape-font-specification:'Latin Modern Math';text-align:center;text-anchor:middle;display:inline;fill:#ff0000;fill-opacity:1;stroke:none;stroke-width:0.430955"
         x="-41.265774"
         y="119.76932"
         id="text7-3"
         inkscape:label="ab"><tspan
           sodipodi:role="line"
           id="tspan7-6"
           style="font-style:normal;font-variant:normal;font-weight:normal;font-stretch:normal;font-size:4.93889px;font-family:'Latin Modern Math';-inkscape-font-specification:'Latin Modern Math';fill:#ff0000;stroke-width:0.430955"
           x="-41.265774"
           y="119.76932"><tspan
             style="font-style:normal;font-variant:normal;font-weight:bold;font-stretch:normal;font-size:4.93889px;font-family:'DejaVu Serif';-inkscape-font-specification:'DejaVu Serif';fill:#ff0000;stroke-width:0.430955"
             id="tspan6-5">b</tspan></tspan></text>
      <text
         xml:space="preserve"
         style="font-style:normal;font-variant:normal;font-weight:normal;font-stretch:normal;font-size:3.59596px;font-family:'Latin Modern Math';-inkscape-font-specification:'Latin Modern Math';text-align:center;text-anchor:middle;display:inline;fill:#ff0000;fill-opacity:1;stroke:none;stroke-width:0.313774"
         x="-47.325638"
         y="118.0602"
         id="text25-6"
         inkscape:label="ab"><tspan
           sodipodi:role="line"
           id="tspan25-3"
           style="font-style:normal;font-variant:normal;font-weight:normal;font-stretch:normal;font-size:3.59596px;font-family:'Latin Modern Math';-inkscape-font-specification:'Latin Modern Math';fill:#ff0000;stroke-width:0.313774"
           x="-47.325638"
           y="118.0602"><tspan
   style="font-style:normal;font-variant:normal;font-weight:bold;font-stretch:normal;font-size:3.59596px;font-family:'DejaVu Serif';-inkscape-font-specification:'DejaVu Serif Bold';fill:#ff0000;stroke-width:0.313774"
   id="tspan22-9">a</tspan>∧<tspan
   style="font-style:normal;font-variant:normal;font-weight:bold;font-stretch:normal;font-size:3.59596px;font-family:'DejaVu Serif';-inkscape-font-specification:'DejaVu Serif';fill:#ff0000;stroke-width:0.313774"
   id="tspan23-4">x</tspan></tspan></text>
      <text
         xml:space="preserve"
         style="font-style:normal;font-variant:normal;font-weight:normal;font-stretch:normal;font-size:3.59596px;font-family:'Latin Modern Math';-inkscape-font-specification:'Latin Modern Math';text-align:center;text-anchor:middle;display:inline;fill:#ff0000;fill-opacity:1;stroke:none;stroke-width:0.313774"
         x="-47.325638"
         y="122.44215"
         id="text28-8"
         inkscape:label="ab"><tspan
           sodipodi:role="line"
           id="tspan28-1"
           style="font-style:normal;font-variant:normal;font-weight:normal;font-stretch:normal;font-size:3.59596px;font-family:'Latin Modern Math';-inkscape-font-specification:'Latin Modern Math';fill:#ff0000;stroke-width:0.313774"
           x="-47.325638"
           y="122.44215"><tspan
   style="font-style:normal;font-variant:normal;font-weight:bold;font-stretch:normal;font-size:3.59596px;font-family:'DejaVu Serif';-inkscape-font-specification:'DejaVu Serif Bold';fill:#ff0000;stroke-width:0.313774"
   id="tspan26-2">a</tspan>∧<tspan
   style="font-style:normal;font-variant:normal;font-weight:bold;font-stretch:normal;font-size:3.59596px;font-family:'DejaVu Serif';-inkscape-font-specification:'DejaVu Serif';fill:#ff0000;stroke-width:0.313774"
   id="tspan27-9">b</tspan></tspan></text>
      <path
         style="opacity:1;fill:#ff0000;fill-opacity:1;stroke:#ff0000;stroke-width:0.331;stroke-linecap:butt;stroke-linejoin:miter;stroke-miterlimit:4;stroke-dasharray:none;stroke-dashoffset:0;stroke-opacity:1"
         d="m -51.328749,118.84536 h 7.891843"
         id="path29-3" />
    </g>
    <path
       style="fill:#ff0000;stroke:#ff0000;stroke-width:0.465;stroke-dasharray:none;marker-end:url(#Triangle)"
       d="m -79.584082,115.44972 27.524943,1e-5"
       id="path1"
       sodipodi:nodetypes="cc" />
    <g
       id="g31"
       inkscape:label="xb/ab a">
      <text
         xml:space="preserve"
         style="font-style:normal;font-variant:normal;font-weight:normal;font-stretch:normal;font-size:4.93889px;font-family:'Latin Modern Math';-inkscape-font-specification:'Latin Modern Math';text-align:center;text-anchor:middle;display:inline;fill:#ff0000;fill-opacity:1;stroke:none;stroke-width:0.430955"
         x="-41.265774"
         y="119.76932"
         id="text7"
         inkscape:label="ab"><tspan
           sodipodi:role="line"
           id="tspan7"
           style="font-style:normal;font-variant:normal;font-weight:normal;font-stretch:normal;font-size:4.93889px;font-family:'Latin Modern Math';-inkscape-font-specification:'Latin Modern Math';fill:#ff0000;stroke-width:0.430955"
           x="-41.265774"
           y="119.76932"><tspan
             style="font-style:normal;font-variant:normal;font-weight:bold;font-stretch:normal;font-size:4.93889px;font-family:'DejaVu Serif';-inkscape-font-specification:'DejaVu Serif';fill:#ff0000;stroke-width:0.430955"
             id="tspan6">a</tspan></tspan></text>
      <text
         xml:space="preserve"
         style="font-style:normal;font-variant:normal;font-weight:normal;font-stretch:normal;font-size:3.59596px;font-family:'Latin Modern Math';-inkscape-font-specification:'Latin Modern Math';text-align:center;text-anchor:middle;display:inline;fill:#ff0000;fill-opacity:1;stroke:none;stroke-width:0.313774"
         x="-47.325638"
         y="118.0602"
         id="text25"
         inkscape:label="ab"><tspan
           sodipodi:role="line"
           id="tspan25"
           style="font-style:normal;font-variant:normal;font-weight:normal;font-stretch:normal;font-size:3.59596px;font-family:'Latin Modern Math';-inkscape-font-specification:'Latin Modern Math';fill:#ff0000;stroke-width:0.313774"
           x="-47.325638"
           y="118.0602"><tspan
   style="font-style:normal;font-variant:normal;font-weight:bold;font-stretch:normal;font-size:3.59596px;font-family:'DejaVu Serif';-inkscape-font-specification:'DejaVu Serif Bold';fill:#ff0000;stroke-width:0.313774"
   id="tspan22">x</tspan>∧<tspan
   style="font-style:normal;font-variant:normal;font-weight:bold;font-stretch:normal;font-size:3.59596px;font-family:'DejaVu Serif';-inkscape-font-specification:'DejaVu Serif';fill:#ff0000;stroke-width:0.313774"
   id="tspan23">b</tspan></tspan></text>
      <text
         xml:space="preserve"
         style="font-style:normal;font-variant:normal;font-weight:normal;font-stretch:normal;font-size:3.59596px;font-family:'Latin Modern Math';-inkscape-font-specification:'Latin Modern Math';text-align:center;text-anchor:middle;display:inline;fill:#ff0000;fill-opacity:1;stroke:none;stroke-width:0.313774"
         x="-47.325638"
         y="122.44215"
         id="text28"
         inkscape:label="ab"><tspan
           sodipodi:role="line"
           id="tspan28"
           style="font-style:normal;font-variant:normal;font-weight:normal;font-stretch:normal;font-size:3.59596px;font-family:'Latin Modern Math';-inkscape-font-specification:'Latin Modern Math';fill:#ff0000;stroke-width:0.313774"
           x="-47.325638"
           y="122.44215"><tspan
   style="font-style:normal;font-variant:normal;font-weight:bold;font-stretch:normal;font-size:3.59596px;font-family:'DejaVu Serif';-inkscape-font-specification:'DejaVu Serif Bold';fill:#ff0000;stroke-width:0.313774"
   id="tspan26">a</tspan>∧<tspan
   style="font-style:normal;font-variant:normal;font-weight:bold;font-stretch:normal;font-size:3.59596px;font-family:'DejaVu Serif';-inkscape-font-specification:'DejaVu Serif';fill:#ff0000;stroke-width:0.313774"
   id="tspan27">b</tspan></tspan></text>
      <path
         style="opacity:1;fill:#ff0000;fill-opacity:1;stroke:#ff0000;stroke-width:0.331;stroke-linecap:butt;stroke-linejoin:miter;stroke-miterlimit:4;stroke-dasharray:none;stroke-dashoffset:0;stroke-opacity:1"
         d="m -51.328749,118.84536 h 7.891843"
         id="path29" />
    </g>
  </g>
  <g
     inkscape:groupmode="layer"
     id="layer7"
     inkscape:label="Layer 7"
     transform="translate(102.4911,-72.139043)"
     style="display:inline" />
  <g
     inkscape:groupmode="layer"
     id="layer8"
     inkscape:label="x"
     style="display:inline"
     transform="translate(102.4911,-72.139043)">
    <path
       style="font-variation-settings:normal;display:inline;opacity:1;vector-effect:none;fill:#000000;fill-opacity:1;stroke:#ff0000;stroke-width:0.465;stroke-linecap:butt;stroke-linejoin:miter;stroke-miterlimit:4;stroke-dasharray:none;stroke-dashoffset:0;stroke-opacity:1;-inkscape-stroke:none;marker-end:url(#Triangle);stop-color:#000000;stop-opacity:1"
       d="M -79.408552,115.38643 -61.406251,90.692242"
       id="path2"
       sodipodi:nodetypes="cc" />
    <text
       xml:space="preserve"
       style="font-style:normal;font-variant:normal;font-weight:normal;font-stretch:normal;font-size:4.93889px;line-height:normal;font-family:sans-serif;font-variant-ligatures:normal;font-variant-position:normal;font-variant-caps:normal;font-variant-numeric:normal;font-variant-alternates:normal;font-variant-east-asian:normal;font-feature-settings:normal;font-variation-settings:normal;text-indent:0;text-align:center;text-decoration-line:none;text-decoration-style:solid;text-decoration-color:#000000;letter-spacing:normal;word-spacing:normal;text-transform:none;writing-mode:lr-tb;direction:ltr;text-orientation:mixed;dominant-baseline:auto;baseline-shift:baseline;text-anchor:middle;white-space:normal;display:inline;vector-effect:none;fill:#ff0000;fill-opacity:1;stroke:none;stroke-width:0.465;stroke-linecap:butt;stroke-linejoin:miter;stroke-miterlimit:4;stroke-dasharray:none;stroke-dashoffset:0;stroke-opacity:1;-inkscape-stroke:none;marker-end:url(#Triangle);stop-color:#000000"
       x="-58.950089"
       y="90.310608"
       id="text31"
       inkscape:label="e1"><tspan
         sodipodi:role="line"
         id="tspan31"
         style="font-style:normal;font-variant:normal;font-weight:normal;font-stretch:normal;font-size:4.93889px;line-height:normal;font-family:'Latin Modern Math';-inkscape-font-specification:'Latin Modern Math';font-variant-ligatures:normal;font-variant-position:normal;font-variant-caps:normal;font-variant-numeric:normal;font-variant-alternates:normal;font-variant-east-asian:normal;font-feature-settings:normal;text-indent:0;text-align:center;text-decoration-line:none;text-decoration-style:solid;text-decoration-color:#000000;letter-spacing:normal;word-spacing:normal;text-transform:none;writing-mode:lr-tb;direction:ltr;text-orientation:mixed;dominant-baseline:auto;baseline-shift:baseline;text-anchor:middle;white-space:normal;vector-effect:none;fill:#ff0000;fill-opacity:1;stroke:none;stroke-width:0.465;stroke-linecap:butt;stroke-linejoin:miter;stroke-miterlimit:4;stroke-dasharray:none;stroke-dashoffset:0;stroke-opacity:1;-inkscape-stroke:none;marker-end:url(#Triangle);stop-color:#000000;stop-opacity:1"
         x="-58.950089"
         y="90.310608"><tspan
           style="font-style:normal;font-variant:normal;font-weight:bold;font-stretch:normal;font-size:4.93889px;font-family:'DejaVu Serif';-inkscape-font-specification:'DejaVu Serif';baseline-shift:baseline;fill:#ff0000"
           id="tspan29">x</tspan></tspan></text>
  </g>
  <g
     inkscape:groupmode="layer"
     id="layer2"
     inkscape:label="e2"
     style="display:inline"
     transform="translate(102.4911,-72.139043)">
    <path
       d="M -79.497082,115.41838 -86.398289,96.806024"
       style="font-variation-settings:normal;vector-effect:none;fill:none;fill-opacity:1;stroke:#008000;stroke-width:0.465;stroke-linecap:butt;stroke-linejoin:miter;stroke-miterlimit:4;stroke-dasharray:none;stroke-dashoffset:0;stroke-opacity:1;-inkscape-stroke:none;marker-end:url(#Triangle)"
       id="path7"
       inkscape:transform-center-x="3.4078913"
       inkscape:transform-center-y="-9.2002424"
       inkscape:label="e2_vec" />
    <path
       d="m -79.584082,115.44972 h 19.850596"
       style="font-variation-settings:normal;vector-effect:none;fill:none;fill-opacity:1;stroke:#000080;stroke-width:0.465;stroke-linecap:butt;stroke-linejoin:miter;stroke-miterlimit:4;stroke-dasharray:none;stroke-dashoffset:0;stroke-opacity:1;-inkscape-stroke:none;marker-end:url(#Triangle)"
       id="path1-2"
       inkscape:label="e1_vec" />
    <text
       xml:space="preserve"
       style="font-style:normal;font-variant:normal;font-weight:normal;font-stretch:normal;font-size:4.93889px;line-height:normal;font-family:sans-serif;font-variant-ligatures:normal;font-variant-position:normal;font-variant-caps:normal;font-variant-numeric:normal;font-variant-alternates:normal;font-variant-east-asian:normal;font-feature-settings:normal;font-variation-settings:normal;text-indent:0;text-align:center;text-decoration-line:none;text-decoration-style:solid;text-decoration-color:#000000;letter-spacing:normal;word-spacing:normal;text-transform:none;writing-mode:lr-tb;direction:ltr;text-orientation:mixed;dominant-baseline:auto;baseline-shift:baseline;text-anchor:middle;white-space:normal;opacity:1;vector-effect:none;fill:#000080;fill-opacity:1;stroke:none;stroke-width:0.465;stroke-linecap:butt;stroke-linejoin:miter;stroke-miterlimit:4;stroke-dasharray:none;stroke-dashoffset:0;stroke-opacity:1;-inkscape-stroke:none;marker-end:url(#Triangle);stop-color:#000000;stop-opacity:1"
       x="-61.003284"
       y="120.01448"
       id="text15"
       inkscape:label="e1"><tspan
         sodipodi:role="line"
         id="tspan15"
         style="font-style:normal;font-variant:normal;font-weight:normal;font-stretch:normal;font-size:4.93889px;line-height:normal;font-family:'Latin Modern Math';-inkscape-font-specification:'Latin Modern Math';font-variant-ligatures:normal;font-variant-position:normal;font-variant-caps:normal;font-variant-numeric:normal;font-variant-alternates:normal;font-variant-east-asian:normal;font-feature-settings:normal;text-indent:0;text-align:center;text-decoration-line:none;text-decoration-style:solid;text-decoration-color:#000000;letter-spacing:normal;word-spacing:normal;text-transform:none;writing-mode:lr-tb;direction:ltr;text-orientation:mixed;dominant-baseline:auto;baseline-shift:baseline;text-anchor:middle;white-space:normal;vector-effect:none;fill:#000080;fill-opacity:1;stroke:none;stroke-width:0.465;stroke-linecap:butt;stroke-linejoin:miter;stroke-miterlimit:4;stroke-dasharray:none;stroke-dashoffset:0;stroke-opacity:1;-inkscape-stroke:none;marker-end:url(#Triangle);stop-color:#000000;stop-opacity:1"
         x="-61.003284"
         y="120.01448"><tspan
           style="font-style:normal;font-variant:normal;font-weight:bold;font-stretch:normal;font-size:4.93889px;font-family:'DejaVu Serif';-inkscape-font-specification:'DejaVu Serif';baseline-shift:baseline"
           id="tspan2">a</tspan></tspan></text>
    <text
       xml:space="preserve"
       style="font-style:normal;font-variant:normal;font-weight:normal;font-stretch:normal;font-size:4.93889px;line-height:normal;font-family:sans-serif;font-variant-ligatures:normal;font-variant-position:normal;font-variant-caps:normal;font-variant-numeric:normal;font-variant-alternates:normal;font-variant-east-asian:normal;font-feature-settings:normal;font-variation-settings:normal;text-indent:0;text-align:center;text-decoration-line:none;text-decoration-style:solid;text-decoration-color:#000000;letter-spacing:normal;word-spacing:normal;text-transform:none;writing-mode:lr-tb;direction:ltr;text-orientation:mixed;dominant-baseline:auto;baseline-shift:baseline;text-anchor:middle;white-space:normal;display:inline;vector-effect:none;fill:#008000;fill-opacity:1;stroke:none;stroke-width:0.465;stroke-linecap:butt;stroke-linejoin:miter;stroke-miterlimit:4;stroke-dasharray:none;stroke-dashoffset:0;stroke-opacity:1;-inkscape-stroke:none;marker-end:url(#Triangle);stop-color:#000000"
       x="-90.220222"
       y="99.064209"
       id="text8"
       inkscape:label="e2"><tspan
         sodipodi:role="line"
         id="tspan8"
         style="font-style:normal;font-variant:normal;font-weight:normal;font-stretch:normal;line-height:normal;font-family:'Latin Modern Math';-inkscape-font-specification:'Latin Modern Math';font-variant-ligatures:normal;font-variant-position:normal;font-variant-caps:normal;font-variant-numeric:normal;font-variant-alternates:normal;font-variant-east-asian:normal;font-feature-settings:normal;text-indent:0;text-align:center;text-decoration-line:none;text-decoration-style:solid;text-decoration-color:#000000;letter-spacing:normal;word-spacing:normal;text-transform:none;writing-mode:lr-tb;direction:ltr;text-orientation:mixed;dominant-baseline:auto;baseline-shift:baseline;text-anchor:middle;white-space:normal;vector-effect:none;fill:#008000;fill-opacity:1;stroke:none;stroke-width:0.465;stroke-linecap:butt;stroke-linejoin:miter;stroke-miterlimit:4;stroke-dasharray:none;stroke-dashoffset:0;stroke-opacity:1;-inkscape-stroke:none;marker-end:url(#Triangle);stop-color:#000000;stop-opacity:1"
         x="-90.220222"
         y="99.064209"><tspan
           style="font-style:normal;font-variant:normal;font-weight:bold;font-stretch:normal;font-family:'DejaVu Serif';-inkscape-font-specification:'DejaVu Serif';baseline-shift:baseline;fill:#008000"
           id="tspan3">b</tspan></tspan></text>
  </g>
</svg>
