<?xml version="1.0" encoding="UTF-8" standalone="no"?>
<!-- Created with Inkscape (http://www.inkscape.org/) -->

<svg
   width="53.340996mm"
   height="48.917599mm"
   viewBox="0 0 53.340996 48.917599"
   version="1.1"
   id="svg1"
   inkscape:version="1.3.2 (1:1.3.2+202311252150+091e20ef0f)"
   sodipodi:docname="ext_alg_m_left_contraction.svg"
   xmlns:inkscape="http://www.inkscape.org/namespaces/inkscape"
   xmlns:sodipodi="http://sodipodi.sourceforge.net/DTD/sodipodi-0.dtd"
   xmlns="http://www.w3.org/2000/svg"
   xmlns:svg="http://www.w3.org/2000/svg">
  <sodipodi:namedview
     id="namedview1"
     pagecolor="#ffffff"
     bordercolor="#000000"
     borderopacity="0.25"
     inkscape:showpageshadow="2"
     inkscape:pageopacity="0.0"
     inkscape:pagecheckerboard="0"
     inkscape:deskcolor="#d1d1d1"
     inkscape:document-units="mm"
     inkscape:zoom="2.811532"
     inkscape:cx="95.499535"
     inkscape:cy="70.602077"
     inkscape:window-width="1920"
     inkscape:window-height="995"
     inkscape:window-x="0"
     inkscape:window-y="0"
     inkscape:window-maximized="1"
     inkscape:current-layer="layer1" />
  <defs
     id="defs1" />
  <g
     inkscape:label="Layer 1"
     inkscape:groupmode="layer"
     id="layer1"
     transform="translate(-42.171413,-28.839587)">
    <rect
       style="font-variation-settings:normal;display:inline;vector-effect:none;fill:#ff8f8f;fill-opacity:0.483871;stroke:#000000;stroke-width:0.524935;stroke-linecap:butt;stroke-linejoin:miter;stroke-miterlimit:4;stroke-dasharray:none;stroke-dashoffset:0;stroke-opacity:1;-inkscape-stroke:none;stop-color:#000000"
       id="rect5"
       width="29.06942"
       height="18.393639"
       x="106.223"
       y="50.180264"
       transform="matrix(0.98258985,0.185788,-0.75489007,0.65585135,0,0)" />
    <path
       id="rect6"
       style="font-variation-settings:normal;display:inline;vector-effect:none;fill:#7676ff;fill-opacity:0.473118;stroke:#000000;stroke-width:0.464999;stroke-linecap:butt;stroke-linejoin:miter;stroke-miterlimit:4;stroke-dasharray:none;stroke-dashoffset:0;stroke-opacity:1;-inkscape-stroke:none;stop-color:#000000"
       d="m 60.309838,29.259953 6.1832,23.38583 -13.88517,12.06349 -6.183201,-23.38583 z"
       sodipodi:nodetypes="ccccc" />
    <text
       xml:space="preserve"
       style="font-size:7.05556px;line-height:normal;font-family:'Liberation Serif';-inkscape-font-specification:'Liberation Serif';text-decoration-color:#000000;display:inline;fill:#000000;stroke:none;stroke-width:0.465;stroke-dasharray:none;stroke-dashoffset:0"
       x="48.748306"
       y="46.267757"
       id="text10"><tspan
         sodipodi:role="line"
         id="tspan10"
         style="font-style:normal;font-variant:normal;font-weight:bold;font-stretch:normal;font-family:'DejaVu Serif';-inkscape-font-specification:'DejaVu Serif';fill:#000000;stroke:none;stroke-width:0.465"
         x="48.748306"
         y="46.267757">m<tspan
   style="font-style:normal;font-variant:normal;font-weight:normal;font-stretch:normal;font-family:'Latin Modern Math';-inkscape-font-specification:'Latin Modern Math'"
   id="tspan1">∧</tspan>l</tspan></text>
    <text
       xml:space="preserve"
       style="font-size:7.05556px;line-height:normal;font-family:'Liberation Serif';-inkscape-font-specification:'Liberation Serif';text-decoration-color:#000000;display:inline;fill:#000000;stroke:none;stroke-width:0.465;stroke-dasharray:none;stroke-dashoffset:0"
       x="42.171413"
       y="40.100796"
       id="text29"><tspan
         sodipodi:role="line"
         id="tspan29"
         style="font-style:normal;font-variant:normal;font-weight:bold;font-stretch:normal;font-family:'DejaVu Serif';-inkscape-font-specification:'DejaVu Serif';fill:#000000;stroke:none;stroke-width:0.465"
         x="42.171413"
         y="40.100796">l</tspan></text>
    <g
       id="path29"
       transform="translate(11.584532,-140.03264)"
       style="display:inline">
      <path
         style="color:#000000;fill:#000080;fill-opacity:0.473118;-inkscape-stroke:none"
         d="M 41.023339,204.74192 34.840135,181.35609"
         id="path47" />
      <path
         style="color:#000000;fill:#000000;-inkscape-stroke:none"
         d="m 35.064453,181.29687 -0.449219,0.11915 6.183594,23.38476 0.449219,-0.11914 z"
         id="path48" />
      <g
         id="g44">
        <g
           id="path44">
          <path
             style="color:#000000;fill:#000000;fill-rule:evenodd;-inkscape-stroke:none"
             d="m 34.853804,181.40779 1.637955,1.64716 -2.247759,0.5943 z"
             id="path45" />
          <path
             style="color:#000000;fill:#000000;fill-rule:evenodd;-inkscape-stroke:none"
             d="m 34.775391,181.10742 -0.751954,2.75977 2.767579,-0.73047 z m 0.158203,0.59961 1.259765,1.26563 -1.728515,0.45898 z"
             id="path46" />
        </g>
      </g>
    </g>
    <g
       id="path30">
      <path
         style="color:#000000;fill:#000080;fill-opacity:0.473118;-inkscape-stroke:none"
         d="m 52.607868,64.709273 28.56329,5.40074"
         id="path10" />
      <path
         style="color:#000000;fill:#000000;-inkscape-stroke:none"
         d="m 52.650391,64.480469 -0.08594,0.457031 28.564453,5.400391 0.08594,-0.457032 z"
         id="path11" />
      <g
         id="g6">
        <g
           id="path7">
          <path
             style="color:#000000;fill:#000000;fill-rule:evenodd;-inkscape-stroke:none"
             d="m 81.118614,70.100078 -2.192089,0.768618 0.431956,-2.284521 z"
             id="path8" />
          <path
             style="color:#000000;fill:#000000;fill-rule:evenodd;-inkscape-stroke:none"
             d="m 79.255859,68.291016 -0.53125,2.8125 2.699219,-0.945313 z m 0.205078,0.585937 1.353516,1.164063 -1.685547,0.591796 z"
             id="path9" />
        </g>
      </g>
    </g>
    <text
       xml:space="preserve"
       style="font-size:7.05556px;line-height:normal;font-family:'Liberation Serif';-inkscape-font-specification:'Liberation Serif';text-decoration-color:#000000;display:inline;fill:#000000;stroke:none;stroke-width:0.465;stroke-dasharray:none;stroke-dashoffset:0"
       x="77.498108"
       y="75.993294"
       id="text4"><tspan
         sodipodi:role="line"
         id="tspan4"
         style="font-style:normal;font-variant:normal;font-weight:bold;font-stretch:normal;font-family:'DejaVu Serif';-inkscape-font-specification:'DejaVu Serif';fill:#000000;stroke:none;stroke-width:0.465"
         x="77.498108"
         y="75.993294"
         dy="0 0 0.75"
         dx="0 0 1.08">m<tspan
   style="font-style:normal;font-variant:normal;font-weight:normal;font-stretch:normal;font-family:NewComputerModernMath;-inkscape-font-specification:NewComputerModernMath;letter-spacing:-0.367771px"
   id="tspan5"
   dy="-0.75"
   dx="-1.08">⌟</tspan>N</tspan></text>
    <g
       id="path31"
       transform="translate(11.584532,-140.03264)"
       style="display:inline">
      <path
         style="color:#000000;fill:#000080;fill-opacity:0.473118;-inkscape-stroke:none"
         d="M 41.023339,204.74192 54.908513,192.67843"
         id="path37" />
      <path
         style="color:#000000;fill:#008000;-inkscape-stroke:none"
         d="m 54.755859,192.50195 -13.884765,12.06446 0.304687,0.35156 13.884766,-12.06445 z"
         id="path38" />
      <g
         id="g34">
        <g
           id="path34">
          <path
             style="color:#000000;fill:#008000;fill-rule:evenodd;-inkscape-stroke:none"
             d="m 54.868145,192.7135 -0.755751,2.19656 -1.524854,-1.75512 z"
             id="path35" />
          <path
             style="color:#000000;fill:#008000;fill-rule:evenodd;-inkscape-stroke:none"
             d="m 55.101562,192.50977 -2.80664,0.54492 1.876953,2.16015 z m -0.46875,0.40625 -0.580078,1.6914 -1.171875,-1.35156 z"
             id="path36" />
        </g>
      </g>
    </g>
    <text
       xml:space="preserve"
       style="font-size:7.05556px;line-height:normal;font-family:'Liberation Serif';-inkscape-font-specification:'Liberation Serif';text-decoration-color:#000000;display:inline;fill:#008000;stroke:none;stroke-width:0.465;stroke-dasharray:none;stroke-dashoffset:0"
       x="57.819645"
       y="52.296017"
       id="text33"><tspan
         sodipodi:role="line"
         id="tspan33"
         style="font-style:normal;font-variant:normal;font-weight:bold;font-stretch:normal;font-family:'DejaVu Serif';-inkscape-font-specification:'DejaVu Serif';fill:#008000;stroke:none;stroke-width:0.465"
         x="57.819645"
         y="52.296017">m</tspan></text>
    <path
       style="display:inline;fill:none;stroke:#000000;stroke-width:0.465;stroke-dasharray:none;stroke-dashoffset:0"
       id="path6"
       sodipodi:type="arc"
       sodipodi:cx="52.78331"
       sodipodi:cy="64.820518"
       sodipodi:rx="13.010314"
       sodipodi:ry="13.010314"
       sodipodi:start="4.4440745"
       sodipodi:end="0.18825125"
       sodipodi:open="true"
       sodipodi:arc-type="arc"
       d="m 49.33419,52.275725 a 13.010314,13.010314 0 0 1 12.273251,2.984303 13.010314,13.010314 0 0 1 3.95633,11.995258" />
    <text
       xml:space="preserve"
       style="font-size:7.05556px;line-height:normal;font-family:'Liberation Serif';-inkscape-font-specification:'Liberation Serif';text-decoration-color:#000000;display:inline;fill:#000000;stroke:none;stroke-width:0.465;stroke-dasharray:none;stroke-dashoffset:0"
       x="55.962532"
       y="58.797295"
       id="text6"><tspan
         sodipodi:role="line"
         id="tspan6"
         style="font-style:normal;font-variant:normal;font-weight:normal;font-stretch:normal;font-family:'Latin Modern Math';-inkscape-font-specification:'Latin Modern Math';fill:#000000;stroke:none;stroke-width:0.465"
         x="55.962532"
         y="58.797295">ϕ</tspan></text>
    <text
       xml:space="preserve"
       style="font-size:7.05556px;line-height:normal;font-family:'Liberation Serif';-inkscape-font-specification:'Liberation Serif';text-decoration-color:#000000;display:inline;fill:#000000;stroke:none;stroke-width:0.465;stroke-dasharray:none;stroke-dashoffset:0"
       x="70.444145"
       y="63.201096"
       id="text3"><tspan
         sodipodi:role="line"
         id="tspan3"
         style="font-style:normal;font-variant:normal;font-weight:bold;font-stretch:normal;font-family:'DejaVu Serif';-inkscape-font-specification:'DejaVu Serif';fill:#000000;stroke:none;stroke-width:0.465"
         x="70.444145"
         y="63.201096">N</tspan></text>
  </g>
</svg>
