<?xml version="1.0" encoding="UTF-8" standalone="no"?>
<!-- Created with Inkscape (http://www.inkscape.org/) -->

<svg
   width="104.11035mm"
   height="52.222923mm"
   viewBox="0 0 104.11035 52.222923"
   version="1.1"
   id="svg1"
   inkscape:version="1.3.2 (1:1.3.2+202311252150+091e20ef0f)"
   sodipodi:docname="ext_alg_reciprocal_basis_03.svg"
   xmlns:inkscape="http://www.inkscape.org/namespaces/inkscape"
   xmlns:sodipodi="http://sodipodi.sourceforge.net/DTD/sodipodi-0.dtd"
   xmlns="http://www.w3.org/2000/svg"
   xmlns:svg="http://www.w3.org/2000/svg">
  <sodipodi:namedview
     id="namedview1"
     pagecolor="#ffffff"
     bordercolor="#000000"
     borderopacity="0.25"
     inkscape:showpageshadow="2"
     inkscape:pageopacity="0.0"
     inkscape:pagecheckerboard="0"
     inkscape:deskcolor="#d1d1d1"
     inkscape:document-units="mm"
     inkscape:zoom="2.4479322"
     inkscape:cx="170.96062"
     inkscape:cy="114.99502"
     inkscape:window-width="1920"
     inkscape:window-height="995"
     inkscape:window-x="0"
     inkscape:window-y="0"
     inkscape:window-maximized="1"
     inkscape:current-layer="g36" />
  <defs
     id="defs1" />
  <g
     inkscape:label="Layer 1"
     inkscape:groupmode="layer"
     id="layer1"
     transform="translate(-57.94375,-69.585415)">
    <g
       id="g47"
       inkscape:label="normal"
       style="display:inline"
       transform="translate(-17.298437,8.5970187)">
      <g
         id="g37"
         style="display:inline"
         inkscape:label="orthonormal">
        <text
           xml:space="preserve"
           style="font-size:7.05556px;line-height:normal;font-family:'Latin Modern Math';-inkscape-font-specification:'Latin Modern Math';text-decoration-color:#000000;fill:#800000;fill-opacity:1;stroke:none;stroke-width:0.465;stroke-dasharray:none;stroke-dashoffset:0;-inkscape-stroke:none"
           x="95.476997"
           y="86.929413"
           id="text9"><tspan
             sodipodi:role="line"
             id="tspan9"
             style="font-style:normal;font-variant:normal;font-weight:bold;font-stretch:normal;font-family:'DejaVu Serif';-inkscape-font-specification:'DejaVu Serif';fill:#800000;fill-opacity:1;stroke:none;stroke-width:0.464999"
             x="95.476997"
             y="86.929413">b<tspan
   style="font-size:65%;baseline-shift:sub"
   id="tspan1">2</tspan></tspan></text>
        <g
           id="path10"
           style="font-variation-settings:normal;opacity:1;vector-effect:none;fill:#800000;fill-opacity:1;stroke-width:1;stroke-linecap:butt;stroke-linejoin:miter;stroke-miterlimit:4;stroke-dasharray:none;stroke-dashoffset:0;stroke-opacity:1;-inkscape-stroke:none;stop-color:#000000;stop-opacity:1">
          <path
             style="color:#000000;font-variation-settings:normal;vector-effect:none;fill:#800000;fill-opacity:1;stroke-width:1;stroke-linecap:butt;stroke-linejoin:miter;stroke-miterlimit:4;stroke-dasharray:none;stroke-dashoffset:0;stroke-opacity:1;-inkscape-stroke:none;stop-color:#000000;stop-opacity:1"
             d="M 77.288143,95.034944 V 67.981252"
             id="path60" />
          <path
             style="color:#000000;font-variation-settings:normal;vector-effect:none;fill:#800000;fill-opacity:1;stroke-width:1;stroke-linecap:butt;stroke-linejoin:miter;stroke-miterlimit:4;stroke-dasharray:none;stroke-dashoffset:0;stroke-opacity:1;-inkscape-stroke:none;stop-color:#000000;stop-opacity:1"
             d="m 77.289062,67.648437 a 0.33250049,0.33250049 0 0 0 -0.333984,0.332032 v 27.054687 a 0.33250049,0.33250049 0 0 0 0.333984,0.332031 0.33250049,0.33250049 0 0 0 0.332032,-0.332031 V 67.980469 a 0.33250049,0.33250049 0 0 0 -0.332032,-0.332032 z"
             id="path61" />
          <g
             id="g57"
             style="font-variation-settings:normal;vector-effect:none;fill:#800000;fill-opacity:1;stroke-width:1;stroke-linecap:butt;stroke-linejoin:miter;stroke-miterlimit:4;stroke-dasharray:none;stroke-dashoffset:0;stroke-opacity:1;-inkscape-stroke:none;stop-color:#000000;stop-opacity:1">
            <g
               id="path57"
               style="font-variation-settings:normal;vector-effect:none;fill:#800000;fill-opacity:1;stroke-width:1;stroke-linecap:butt;stroke-linejoin:miter;stroke-miterlimit:4;stroke-dasharray:none;stroke-dashoffset:0;stroke-opacity:1;-inkscape-stroke:none;stop-color:#000000;stop-opacity:1">
              <path
                 style="color:#000000;font-variation-settings:normal;vector-effect:none;fill:#800000;fill-opacity:1;fill-rule:evenodd;stroke-width:1;stroke-linecap:butt;stroke-linejoin:miter;stroke-miterlimit:4;stroke-dasharray:none;stroke-dashoffset:0;stroke-opacity:1;-inkscape-stroke:none;stop-color:#000000;stop-opacity:1"
                 d="m 77.288143,68.057727 1.662502,2.876129 h -3.325004 z"
                 id="path58" />
              <path
                 style="color:#000000;font-variation-settings:normal;vector-effect:none;fill:#800000;fill-opacity:1;fill-rule:evenodd;stroke-width:1;stroke-linecap:butt;stroke-linejoin:miter;stroke-miterlimit:4;stroke-dasharray:none;stroke-dashoffset:0;stroke-opacity:1;-inkscape-stroke:none;stop-color:#000000;stop-opacity:1"
                 d="m 77.289062,67.615234 -2.046875,3.541016 h 4.091797 z m 0,0.884766 1.277344,2.212891 h -2.55664 z"
                 id="path59" />
            </g>
          </g>
        </g>
        <text
           xml:space="preserve"
           style="font-style:normal;font-variant:normal;font-weight:bold;font-stretch:normal;font-size:7.05556px;line-height:normal;font-family:'DejaVu Serif';-inkscape-font-specification:'DejaVu Serif';font-variant-ligatures:normal;font-variant-position:normal;font-variant-caps:normal;font-variant-numeric:normal;font-variant-alternates:normal;font-variant-east-asian:normal;font-feature-settings:normal;font-variation-settings:normal;text-indent:0;text-align:start;text-decoration-line:none;text-decoration-style:solid;text-decoration-color:#000000;letter-spacing:normal;word-spacing:normal;text-transform:none;writing-mode:lr-tb;direction:ltr;text-orientation:mixed;dominant-baseline:auto;baseline-shift:baseline;white-space:normal;opacity:1;vector-effect:none;fill:#800000;fill-opacity:1;stroke:none;stroke-width:0.464999;stroke-linecap:butt;stroke-linejoin:miter;stroke-miterlimit:4;stroke-dasharray:none;stroke-dashoffset:0;stroke-opacity:1;-inkscape-stroke:none;stop-color:#000000;stop-opacity:1"
           x="76.120071"
           y="66.348969"
           id="text11"><tspan
             sodipodi:role="line"
             id="tspan11"
             style="font-style:normal;font-variant:normal;font-weight:bold;font-stretch:normal;font-size:7.05556px;line-height:normal;font-family:'DejaVu Serif';-inkscape-font-specification:'DejaVu Serif';font-variant-ligatures:normal;font-variant-position:normal;font-variant-caps:normal;font-variant-numeric:normal;font-variant-alternates:normal;font-variant-east-asian:normal;font-feature-settings:normal;font-variation-settings:normal;text-indent:0;text-align:start;text-decoration-line:none;text-decoration-style:solid;text-decoration-color:#000000;letter-spacing:normal;word-spacing:normal;text-transform:none;writing-mode:lr-tb;direction:ltr;text-orientation:mixed;dominant-baseline:auto;baseline-shift:baseline;white-space:normal;vector-effect:none;fill:#800000;fill-opacity:1;stroke:none;stroke-width:0.464999;stroke-linecap:butt;stroke-linejoin:miter;stroke-miterlimit:4;stroke-dasharray:none;stroke-dashoffset:0;stroke-opacity:1;-inkscape-stroke:none;stop-color:#000000;stop-opacity:1"
             x="76.120071"
             y="66.348969">b<tspan
   style="font-style:normal;font-variant:normal;font-weight:bold;font-stretch:normal;font-size:65%;line-height:normal;font-family:'DejaVu Serif';-inkscape-font-specification:'DejaVu Serif';font-variant-ligatures:normal;font-variant-position:normal;font-variant-caps:normal;font-variant-numeric:normal;font-variant-alternates:normal;font-variant-east-asian:normal;font-feature-settings:normal;font-variation-settings:normal;text-indent:0;text-align:start;text-decoration-line:none;text-decoration-style:solid;text-decoration-color:#000000;letter-spacing:normal;word-spacing:normal;text-transform:none;writing-mode:lr-tb;direction:ltr;text-orientation:mixed;dominant-baseline:auto;baseline-shift:sub;white-space:normal;vector-effect:none;fill:#800000;fill-opacity:1;stroke:none;stroke-width:0.464999;stroke-linecap:butt;stroke-linejoin:miter;stroke-miterlimit:4;stroke-dasharray:none;stroke-dashoffset:0;stroke-opacity:1;-inkscape-stroke:none;stop-color:#000000;stop-opacity:1"
   id="tspan3">3</tspan></tspan></text>
        <text
           xml:space="preserve"
           style="font-size:7.05556px;line-height:normal;font-family:'Latin Modern Math';-inkscape-font-specification:'Latin Modern Math';text-decoration-color:#000000;fill:#800000;fill-opacity:1;stroke:none;stroke-width:0.465;stroke-dasharray:none;stroke-dashoffset:0;-inkscape-stroke:none"
           x="92.0205"
           y="111.80021"
           id="text16"><tspan
             sodipodi:role="line"
             id="tspan16"
             style="font-style:normal;font-variant:normal;font-weight:bold;font-stretch:normal;font-family:'DejaVu Serif';-inkscape-font-specification:'DejaVu Serif';fill:#800000;fill-opacity:1;stroke:none;stroke-width:0.464999"
             x="92.0205"
             y="111.80021">b<tspan
   style="font-size:65%;baseline-shift:sub"
   id="tspan2">1</tspan></tspan></text>
        <g
           id="path23"
           inkscape:transform-center-x="-11.384894"
           inkscape:transform-center-y="6.3864221"
           transform="rotate(13.310108,77.288143,95.033982)">
          <path
             style="color:#000000;fill:#800000;-inkscape-stroke:none"
             d="m 77.380859,94.714844 -0.185547,0.638672 24.949218,7.222654 0.1836,-0.63867 z"
             id="path52" />
          <g
             id="g49">
            <g
               id="path49">
              <path
                 style="color:#000000;fill:#800000;fill-rule:evenodd;-inkscape-stroke:none"
                 d="m 102.16299,102.23608 -3.224994,0.79715 0.924607,-3.193862 z"
                 id="path50" />
              <path
                 style="color:#000000;fill:#800000;fill-rule:evenodd;-inkscape-stroke:none"
                 d="m 99.755859,99.408203 -1.136718,3.931637 3.968749,-0.98046 z m 0.212891,0.861327 1.76953,1.84375 -2.480468,0.61328 z"
                 id="path51" />
            </g>
          </g>
        </g>
        <g
           id="path16">
          <path
             style="color:#000000;fill:#800000;stroke-linecap:round;-inkscape-stroke:none"
             d="m 104.28711,89.787109 -27.058594,4.919922 a 0.33250049,0.33250049 0 0 0 -0.267579,0.386719 0.33250049,0.33250049 0 0 0 0.386719,0.267578 l 27.058594,-4.919922 a 0.33250049,0.33250049 0 0 0 0.26758,-0.386719 0.33250049,0.33250049 0 0 0 -0.38672,-0.267578 z"
             id="path56" />
          <g
             id="g53">
            <g
               id="path53">
              <path
                 style="color:#000000;fill:#800000;fill-rule:evenodd;-inkscape-stroke:none"
                 d="m 104.27221,90.128292 -2.53231,2.150225 -0.59484,-3.271363 z"
                 id="path54" />
              <path
                 style="color:#000000;fill:#800000;fill-rule:evenodd;-inkscape-stroke:none"
                 d="m 100.85742,88.667969 0.73242,4.027343 3.11719,-2.646484 z m 0.57422,0.675781 2.4043,0.863281 -1.94727,1.654297 z"
                 id="path55" />
            </g>
          </g>
        </g>
        <path
           style="font-variation-settings:normal;opacity:1;fill:none;fill-opacity:1;stroke:#800000;stroke-width:0.600001;stroke-linecap:butt;stroke-linejoin:miter;stroke-miterlimit:4;stroke-dasharray:none;stroke-dashoffset:0;stroke-opacity:0.498208"
           d="m 77.288143,91.886944 3.002836,-0.586688 v 3.444506"
           id="path5"
           sodipodi:nodetypes="ccc" />
        <path
           style="font-variation-settings:normal;opacity:1;fill:none;fill-opacity:1;stroke:#800000;stroke-width:0.600001;stroke-linecap:butt;stroke-linejoin:miter;stroke-miterlimit:4;stroke-dasharray:none;stroke-dashoffset:0;stroke-opacity:0.498208"
           d="m 80.290979,94.491364 2.458521,1.291158 -3.066505,0.634821"
           id="path6"
           sodipodi:nodetypes="ccc" />
        <path
           style="font-variation-settings:normal;opacity:1;fill:none;fill-opacity:1;stroke:#800000;stroke-width:0.600001;stroke-linecap:butt;stroke-linejoin:miter;stroke-miterlimit:4;stroke-dasharray:none;stroke-dashoffset:0;stroke-opacity:0.498208"
           d="m 79.682995,96.417341 v -2.605688 l -2.394852,-1.27756"
           id="path7" />
      </g>
      <g
         id="g36"
         style="display:inline"
         inkscape:label="non-orthonormal">
        <text
           xml:space="preserve"
           style="font-size:7.05556px;line-height:normal;font-family:'Latin Modern Math';-inkscape-font-specification:'Latin Modern Math';text-decoration-color:#000000;fill:#800000;fill-opacity:1;stroke:none;stroke-width:0.465;stroke-dasharray:none;stroke-dashoffset:0;-inkscape-stroke:none"
           x="148.39368"
           y="86.929413"
           id="text8"><tspan
             sodipodi:role="line"
             id="tspan8"
             style="font-style:normal;font-variant:normal;font-weight:bold;font-stretch:normal;font-family:'DejaVu Serif';-inkscape-font-specification:'DejaVu Serif';fill:#800000;fill-opacity:1;stroke:none;stroke-width:0.464999"
             x="148.39368"
             y="86.929413">b<tspan
   style="font-size:65%;baseline-shift:sub"
   id="tspan7">2</tspan></tspan></text>
        <text
           xml:space="preserve"
           style="font-style:normal;font-variant:normal;font-weight:bold;font-stretch:normal;font-size:7.05556px;line-height:normal;font-family:'DejaVu Serif';-inkscape-font-specification:'DejaVu Serif';font-variant-ligatures:normal;font-variant-position:normal;font-variant-caps:normal;font-variant-numeric:normal;font-variant-alternates:normal;font-variant-east-asian:normal;font-feature-settings:normal;font-variation-settings:normal;text-indent:0;text-align:start;text-decoration-line:none;text-decoration-style:solid;text-decoration-color:#000000;letter-spacing:normal;word-spacing:normal;text-transform:none;writing-mode:lr-tb;direction:ltr;text-orientation:mixed;dominant-baseline:auto;baseline-shift:baseline;white-space:normal;opacity:1;vector-effect:none;fill:#800000;fill-opacity:1;stroke:none;stroke-width:0.464999;stroke-linecap:butt;stroke-linejoin:miter;stroke-miterlimit:4;stroke-dasharray:none;stroke-dashoffset:0;stroke-opacity:1;-inkscape-stroke:none;stop-color:#000000;stop-opacity:1"
           x="110.32369"
           y="68.789703"
           id="text15"><tspan
             sodipodi:role="line"
             id="tspan15"
             style="font-style:normal;font-variant:normal;font-weight:bold;font-stretch:normal;font-size:7.05556px;line-height:normal;font-family:'DejaVu Serif';-inkscape-font-specification:'DejaVu Serif';font-variant-ligatures:normal;font-variant-position:normal;font-variant-caps:normal;font-variant-numeric:normal;font-variant-alternates:normal;font-variant-east-asian:normal;font-feature-settings:normal;font-variation-settings:normal;text-indent:0;text-align:start;text-decoration-line:none;text-decoration-style:solid;text-decoration-color:#000000;letter-spacing:normal;word-spacing:normal;text-transform:none;writing-mode:lr-tb;direction:ltr;text-orientation:mixed;dominant-baseline:auto;baseline-shift:baseline;white-space:normal;vector-effect:none;fill:#800000;fill-opacity:1;stroke:none;stroke-width:0.464999;stroke-linecap:butt;stroke-linejoin:miter;stroke-miterlimit:4;stroke-dasharray:none;stroke-dashoffset:0;stroke-opacity:1;-inkscape-stroke:none;stop-color:#000000;stop-opacity:1"
             x="110.32369"
             y="68.789703">b<tspan
   style="font-style:normal;font-variant:normal;font-weight:bold;font-stretch:normal;font-size:65%;line-height:normal;font-family:'DejaVu Serif';-inkscape-font-specification:'DejaVu Serif';font-variant-ligatures:normal;font-variant-position:normal;font-variant-caps:normal;font-variant-numeric:normal;font-variant-alternates:normal;font-variant-east-asian:normal;font-feature-settings:normal;font-variation-settings:normal;text-indent:0;text-align:start;text-decoration-line:none;text-decoration-style:solid;text-decoration-color:#000000;letter-spacing:normal;word-spacing:normal;text-transform:none;writing-mode:lr-tb;direction:ltr;text-orientation:mixed;dominant-baseline:auto;baseline-shift:sub;white-space:normal;vector-effect:none;fill:#800000;fill-opacity:1;stroke:none;stroke-width:0.464999;stroke-linecap:butt;stroke-linejoin:miter;stroke-miterlimit:4;stroke-dasharray:none;stroke-dashoffset:0;stroke-opacity:1;-inkscape-stroke:none;stop-color:#000000;stop-opacity:1"
   id="tspan14">3</tspan></tspan></text>
        <path
           style="font-variation-settings:normal;display:inline;opacity:1;fill:#ffaaaa;fill-opacity:1;stroke:none;stroke-width:0.600001;stroke-linecap:butt;stroke-linejoin:miter;stroke-miterlimit:4;stroke-dasharray:none;stroke-dashoffset:0;stroke-opacity:0.498208"
           d="m 152.36837,107.55206 26.98417,-4.90587 -22.16366,-12.517898 -26.98417,4.905871 z"
           id="path45" />
        <text
           xml:space="preserve"
           style="font-size:7.05556px;line-height:normal;font-family:'Latin Modern Math';-inkscape-font-specification:'Latin Modern Math';text-decoration-color:#000000;fill:#800000;fill-opacity:1;stroke:none;stroke-width:0.465;stroke-dasharray:none;stroke-dashoffset:0;-inkscape-stroke:none"
           x="144.93716"
           y="111.80021"
           id="text18"><tspan
             sodipodi:role="line"
             id="tspan18"
             style="font-style:normal;font-variant:normal;font-weight:bold;font-stretch:normal;font-family:'DejaVu Serif';-inkscape-font-specification:'DejaVu Serif';fill:#800000;fill-opacity:1;stroke:none;stroke-width:0.464999"
             x="144.93716"
             y="111.80021">b<tspan
   style="font-size:65%;baseline-shift:sub"
   id="tspan17">1</tspan></tspan></text>
        <g
           id="g22"
           inkscape:transform-center-x="-11.384894"
           inkscape:transform-center-y="6.3864221"
           transform="rotate(13.310108,103.74647,321.79808)">
          <path
             style="color:#000000;fill:#800000;-inkscape-stroke:none"
             d="m 77.380859,94.714844 -0.185547,0.638672 24.949218,7.222654 0.1836,-0.63867 z"
             id="path18" />
          <g
             id="g21">
            <g
               id="g20">
              <path
                 style="color:#000000;fill:#800000;fill-rule:evenodd;-inkscape-stroke:none"
                 d="m 102.16299,102.23608 -3.224994,0.79715 0.924607,-3.193862 z"
                 id="path19" />
              <path
                 style="color:#000000;fill:#800000;fill-rule:evenodd;-inkscape-stroke:none"
                 d="m 99.755859,99.408203 -1.136718,3.931637 3.968749,-0.98046 z m 0.212891,0.861327 1.76953,1.84375 -2.480468,0.61328 z"
                 id="path20" />
            </g>
          </g>
        </g>
        <g
           id="g27"
           transform="translate(52.916669)">
          <path
             style="color:#000000;fill:#800000;stroke-linecap:round;-inkscape-stroke:none"
             d="m 104.28711,89.787109 -27.058594,4.919922 a 0.33250049,0.33250049 0 0 0 -0.267579,0.386719 0.33250049,0.33250049 0 0 0 0.386719,0.267578 l 27.058594,-4.919922 a 0.33250049,0.33250049 0 0 0 0.26758,-0.386719 0.33250049,0.33250049 0 0 0 -0.38672,-0.267578 z"
             id="path22" />
          <g
             id="g26">
            <g
               id="g25">
              <path
                 style="color:#000000;fill:#800000;fill-rule:evenodd;-inkscape-stroke:none"
                 d="m 104.27221,90.128292 -2.53231,2.150225 -0.59484,-3.271363 z"
                 id="path24" />
              <path
                 style="color:#000000;fill:#800000;fill-rule:evenodd;-inkscape-stroke:none"
                 d="m 100.85742,88.667969 0.73242,4.027343 3.11719,-2.646484 z m 0.57422,0.675781 2.4043,0.863281 -1.94727,1.654297 z"
                 id="path25" />
            </g>
          </g>
        </g>
        <path
           style="font-variation-settings:normal;opacity:1;fill:none;fill-opacity:1;stroke:#800000;stroke-width:0.600001;stroke-linecap:butt;stroke-linejoin:miter;stroke-miterlimit:4;stroke-dasharray:none;stroke-dashoffset:0;stroke-opacity:0.498208"
           d="m 130.20483,91.886944 3.00284,-0.586688 v 3.444506"
           id="path27"
           sodipodi:nodetypes="ccc" />
        <path
           style="font-variation-settings:normal;opacity:1;fill:none;fill-opacity:1;stroke:#800000;stroke-width:0.600001;stroke-linecap:butt;stroke-linejoin:miter;stroke-miterlimit:4;stroke-dasharray:none;stroke-dashoffset:0;stroke-opacity:0.498208"
           d="m 133.20767,94.491364 2.45852,1.291158 -3.06651,0.634821"
           id="path28"
           sodipodi:nodetypes="ccc" />
        <path
           style="font-variation-settings:normal;opacity:1;fill:none;fill-opacity:1;stroke:#800000;stroke-width:0.600001;stroke-linecap:butt;stroke-linejoin:miter;stroke-miterlimit:4;stroke-dasharray:none;stroke-dashoffset:0;stroke-opacity:0.498208"
           d="m 132.59968,96.417341 v -2.605688 l -2.39485,-1.27756"
           id="path29" />
        <g
           id="g35"
           style="font-variation-settings:normal;opacity:1;vector-effect:none;fill:#800000;fill-opacity:1;stroke-width:1;stroke-linecap:butt;stroke-linejoin:miter;stroke-miterlimit:4;stroke-dasharray:none;stroke-dashoffset:0;stroke-opacity:1;-inkscape-stroke:none;stop-color:#000000;stop-opacity:1"
           transform="rotate(-30,103.74648,-3.7098656)"
           inkscape:transform-center-x="6.7631371"
           inkscape:transform-center-y="-11.713982">
          <path
             style="color:#000000;font-variation-settings:normal;vector-effect:none;fill:#800000;fill-opacity:1;stroke-width:1;stroke-linecap:butt;stroke-linejoin:miter;stroke-miterlimit:4;stroke-dasharray:none;stroke-dashoffset:0;stroke-opacity:1;-inkscape-stroke:none;stop-color:#000000;stop-opacity:1"
             d="M 77.288143,95.034944 V 67.981252"
             id="path30" />
          <path
             style="color:#000000;font-variation-settings:normal;vector-effect:none;fill:#800000;fill-opacity:1;stroke-width:1;stroke-linecap:butt;stroke-linejoin:miter;stroke-miterlimit:4;stroke-dasharray:none;stroke-dashoffset:0;stroke-opacity:1;-inkscape-stroke:none;stop-color:#000000;stop-opacity:1"
             d="m 77.289062,67.648437 a 0.33250049,0.33250049 0 0 0 -0.333984,0.332032 v 27.054687 a 0.33250049,0.33250049 0 0 0 0.333984,0.332031 0.33250049,0.33250049 0 0 0 0.332032,-0.332031 V 67.980469 a 0.33250049,0.33250049 0 0 0 -0.332032,-0.332032 z"
             id="path31" />
          <g
             id="g34"
             style="font-variation-settings:normal;vector-effect:none;fill:#800000;fill-opacity:1;stroke-width:1;stroke-linecap:butt;stroke-linejoin:miter;stroke-miterlimit:4;stroke-dasharray:none;stroke-dashoffset:0;stroke-opacity:1;-inkscape-stroke:none;stop-color:#000000;stop-opacity:1">
            <g
               id="g33"
               style="font-variation-settings:normal;vector-effect:none;fill:#800000;fill-opacity:1;stroke-width:1;stroke-linecap:butt;stroke-linejoin:miter;stroke-miterlimit:4;stroke-dasharray:none;stroke-dashoffset:0;stroke-opacity:1;-inkscape-stroke:none;stop-color:#000000;stop-opacity:1">
              <path
                 style="color:#000000;font-variation-settings:normal;vector-effect:none;fill:#800000;fill-opacity:1;fill-rule:evenodd;stroke-width:1;stroke-linecap:butt;stroke-linejoin:miter;stroke-miterlimit:4;stroke-dasharray:none;stroke-dashoffset:0;stroke-opacity:1;-inkscape-stroke:none;stop-color:#000000;stop-opacity:1"
                 d="m 77.288143,68.057727 1.662502,2.876129 h -3.325004 z"
                 id="path32" />
              <path
                 style="color:#000000;font-variation-settings:normal;vector-effect:none;fill:#800000;fill-opacity:1;fill-rule:evenodd;stroke-width:1;stroke-linecap:butt;stroke-linejoin:miter;stroke-miterlimit:4;stroke-dasharray:none;stroke-dashoffset:0;stroke-opacity:1;-inkscape-stroke:none;stop-color:#000000;stop-opacity:1"
                 d="m 77.289062,67.615234 -2.046875,3.541016 h 4.091797 z m 0,0.884766 1.277344,2.212891 h -2.55664 z"
                 id="path33" />
            </g>
          </g>
        </g>
        <path
           style="font-variation-settings:normal;opacity:1;fill:none;fill-opacity:1;stroke:#800000;stroke-width:0.600001;stroke-linecap:butt;stroke-linejoin:miter;stroke-miterlimit:4;stroke-dasharray:1.8, 1.8;stroke-dashoffset:0;stroke-opacity:0.498208"
           d="M 130.20481,95.033984 V 68.057727"
           id="path35" />
        <g
           id="g43"
           style="font-variation-settings:normal;display:inline;vector-effect:none;fill:#800000;fill-opacity:1;stroke-width:1;stroke-linecap:butt;stroke-linejoin:miter;stroke-miterlimit:4;stroke-dasharray:none;stroke-dashoffset:0;stroke-opacity:1;-inkscape-stroke:none;stop-color:#000000"
           transform="translate(52.916567,-7.8081132e-4)">
          <path
             style="color:#000000;font-variation-settings:normal;vector-effect:none;fill:#800000;fill-opacity:1;stroke-width:1;stroke-linecap:butt;stroke-linejoin:miter;stroke-miterlimit:4;stroke-dasharray:none;stroke-dashoffset:0;stroke-opacity:1;-inkscape-stroke:none;stop-color:#000000;stop-opacity:1"
             d="M 77.288143,95.034944 V 67.981252"
             id="path38" />
          <path
             style="color:#000000;font-variation-settings:normal;vector-effect:none;fill:#800000;fill-opacity:1;stroke-width:1;stroke-linecap:butt;stroke-linejoin:miter;stroke-miterlimit:4;stroke-dasharray:none;stroke-dashoffset:0;stroke-opacity:1;-inkscape-stroke:none;stop-color:#000000;stop-opacity:1"
             d="m 77.289062,67.648437 a 0.33250049,0.33250049 0 0 0 -0.333984,0.332032 v 27.054687 a 0.33250049,0.33250049 0 0 0 0.333984,0.332031 0.33250049,0.33250049 0 0 0 0.332032,-0.332031 V 67.980469 a 0.33250049,0.33250049 0 0 0 -0.332032,-0.332032 z"
             id="path39" />
          <g
             id="g42"
             style="font-variation-settings:normal;vector-effect:none;fill:#800000;fill-opacity:1;stroke-width:1;stroke-linecap:butt;stroke-linejoin:miter;stroke-miterlimit:4;stroke-dasharray:none;stroke-dashoffset:0;stroke-opacity:1;-inkscape-stroke:none;stop-color:#000000;stop-opacity:1">
            <g
               id="g41"
               style="font-variation-settings:normal;vector-effect:none;fill:#800000;fill-opacity:1;stroke-width:1;stroke-linecap:butt;stroke-linejoin:miter;stroke-miterlimit:4;stroke-dasharray:none;stroke-dashoffset:0;stroke-opacity:1;-inkscape-stroke:none;stop-color:#000000;stop-opacity:1">
              <path
                 style="color:#000000;font-variation-settings:normal;vector-effect:none;fill:#800000;fill-opacity:1;fill-rule:evenodd;stroke-width:1;stroke-linecap:butt;stroke-linejoin:miter;stroke-miterlimit:4;stroke-dasharray:none;stroke-dashoffset:0;stroke-opacity:1;-inkscape-stroke:none;stop-color:#000000;stop-opacity:1"
                 d="m 77.288143,68.057727 1.662502,2.876129 h -3.325004 z"
                 id="path40" />
              <path
                 style="color:#000000;font-variation-settings:normal;vector-effect:none;fill:#800000;fill-opacity:1;fill-rule:evenodd;stroke-width:1;stroke-linecap:butt;stroke-linejoin:miter;stroke-miterlimit:4;stroke-dasharray:none;stroke-dashoffset:0;stroke-opacity:1;-inkscape-stroke:none;stop-color:#000000;stop-opacity:1"
                 d="m 77.289062,67.615234 -2.046875,3.541016 h 4.091797 z m 0,0.884766 1.277344,2.212891 h -2.55664 z"
                 id="path41" />
            </g>
          </g>
        </g>
        <text
           xml:space="preserve"
           style="font-size:7.05556px;line-height:normal;font-family:'Latin Modern Math';-inkscape-font-specification:'Latin Modern Math';text-decoration-color:#000000;fill:#800000;fill-opacity:1;stroke:none;stroke-width:0.465;stroke-dasharray:none;stroke-dashoffset:0;-inkscape-stroke:none"
           x="132.55092"
           y="68.672089"
           id="text53"><tspan
             sodipodi:role="line"
             id="tspan53"
             style="font-style:normal;font-variant:normal;font-weight:bold;font-stretch:normal;font-family:'DejaVu Serif';-inkscape-font-specification:'DejaVu Serif';fill:#800000;fill-opacity:1;stroke:none;stroke-width:0.464999"
             x="132.55092"
             y="68.672089">b<tspan
   style="font-size:65%;baseline-shift:super"
   id="tspan54">3</tspan></tspan></text>
        <text
           xml:space="preserve"
           style="font-size:7.05556px;line-height:normal;font-family:'Latin Modern Math';-inkscape-font-specification:'Latin Modern Math';text-decoration-color:#000000;fill:#800000;fill-opacity:1;stroke:none;stroke-width:0.465;stroke-dasharray:none;stroke-dashoffset:0;-inkscape-stroke:none"
           x="151.10297"
           y="100.41302"
           id="text56"><tspan
             sodipodi:role="line"
             id="tspan56"
             style="font-style:normal;font-variant:normal;font-weight:bold;font-stretch:normal;font-family:'DejaVu Serif';-inkscape-font-specification:'DejaVu Serif';fill:#800000;fill-opacity:1;stroke:none;stroke-width:0.464999"
             x="151.10297"
             y="100.41302">B<tspan
   style="font-size:65%;baseline-shift:sub"
   id="tspan57">3</tspan></tspan></text>
      </g>
    </g>
  </g>
</svg>
