<?xml version="1.0" encoding="UTF-8" standalone="no"?>
<!-- Created with Inkscape (http://www.inkscape.org/) -->

<svg
   width="120.26953mm"
   height="58.649021mm"
   viewBox="0 0 120.26953 58.649023"
   version="1.1"
   id="svg1"
   inkscape:version="1.3.2 (1:1.3.2+202311252150+091e20ef0f)"
   sodipodi:docname="ext_alg_angle_bivector_2.svg"
   xmlns:inkscape="http://www.inkscape.org/namespaces/inkscape"
   xmlns:sodipodi="http://sodipodi.sourceforge.net/DTD/sodipodi-0.dtd"
   xmlns="http://www.w3.org/2000/svg"
   xmlns:svg="http://www.w3.org/2000/svg">
  <sodipodi:namedview
     id="namedview1"
     pagecolor="#ffffff"
     bordercolor="#000000"
     borderopacity="0.25"
     inkscape:showpageshadow="2"
     inkscape:pageopacity="0.0"
     inkscape:pagecheckerboard="0"
     inkscape:deskcolor="#d1d1d1"
     inkscape:document-units="mm"
     inkscape:zoom="2.1313547"
     inkscape:cx="115.18496"
     inkscape:cy="108.61636"
     inkscape:window-width="1920"
     inkscape:window-height="995"
     inkscape:window-x="0"
     inkscape:window-y="0"
     inkscape:window-maximized="1"
     inkscape:current-layer="svg1" />
  <defs
     id="defs1">
    <marker
       style="overflow:visible"
       id="marker15"
       refX="3"
       refY="0"
       orient="auto-start-reverse"
       inkscape:stockid="Triangle arrow"
       markerWidth="1"
       markerHeight="1"
       viewBox="0 0 1 1"
       inkscape:isstock="true"
       inkscape:collect="always"
       preserveAspectRatio="xMidYMid">
      <path
         transform="scale(0.5)"
         style="fill:context-stroke;fill-rule:evenodd;stroke:context-stroke;stroke-width:1pt"
         d="M 5.77,0 -2.88,5 V -5 Z"
         id="path15" />
    </marker>
    <marker
       style="overflow:visible"
       id="Triangle"
       refX="0"
       refY="0"
       orient="auto-start-reverse"
       inkscape:stockid="Triangle arrow"
       markerWidth="1"
       markerHeight="1"
       viewBox="0 0 1 1"
       inkscape:isstock="true"
       inkscape:collect="always"
       preserveAspectRatio="xMidYMid">
      <path
         transform="scale(0.5)"
         style="fill:context-stroke;fill-rule:evenodd;stroke:context-stroke;stroke-width:1pt"
         d="M 5.77,0 -2.88,5 V -5 Z"
         id="path135" />
    </marker>
  </defs>
  <g
     inkscape:label="Layer 1"
     inkscape:groupmode="layer"
     id="layer1"
     style="display:inline"
     transform="translate(-27.241138,-108.73157)">
    <path
       style="fill:none;stroke:#000000;stroke-width:0.465;stroke-dasharray:none;stroke-dashoffset:0;marker-end:url(#Triangle)"
       d="M 27.413972,153.58175 H 76.161578"
       id="path1"
       sodipodi:nodetypes="cc" />
    <path
       style="fill:none;stroke:#000000;stroke-width:0.465;stroke-dasharray:none;stroke-dashoffset:0;marker-end:url(#Triangle)"
       d="M 27.413972,153.58175 59.165949,118.29343"
       id="path2"
       sodipodi:nodetypes="cc" />
    <text
       xml:space="preserve"
       style="font-size:7.05556px;line-height:normal;font-family:'Liberation Serif';-inkscape-font-specification:'Liberation Serif';text-decoration-color:#000000;fill:#000000;stroke:none;stroke-width:0.465;stroke-dasharray:none;stroke-dashoffset:0"
       x="38.410812"
       y="134.7751"
       id="text2"><tspan
         sodipodi:role="line"
         id="tspan2"
         style="font-style:normal;font-variant:normal;font-weight:bold;font-stretch:normal;font-family:'DejaVu Serif';-inkscape-font-specification:'DejaVu Serif';fill:#000000;stroke:none;stroke-width:0.465"
         x="38.410812"
         y="134.7751">b</tspan></text>
    <text
       xml:space="preserve"
       style="font-size:7.05556px;line-height:normal;font-family:'Liberation Serif';-inkscape-font-specification:'Liberation Serif';text-decoration-color:#000000;fill:#000000;stroke:none;stroke-width:0.465;stroke-dasharray:none;stroke-dashoffset:0"
       x="51.183224"
       y="158.61565"
       id="text3"><tspan
         sodipodi:role="line"
         id="tspan3"
         style="font-style:normal;font-variant:normal;font-weight:bold;font-stretch:normal;font-family:'DejaVu Serif';-inkscape-font-specification:'DejaVu Serif';fill:#000000;stroke:none;stroke-width:0.465"
         x="51.183224"
         y="158.61565">a</tspan></text>
    <path
       style="fill:none;stroke:#000000;stroke-width:0.465;stroke-dasharray:none;stroke-dashoffset:0"
       id="path3"
       sodipodi:type="arc"
       sodipodi:cx="27.413973"
       sodipodi:cy="153.58176"
       sodipodi:rx="13.010314"
       sodipodi:ry="13.010314"
       sodipodi:start="5.4477172"
       sodipodi:end="6.2807036"
       sodipodi:arc-type="arc"
       d="m 36.14169,143.93317 a 13.010314,13.010314 0 0 1 4.282557,9.6163"
       sodipodi:open="true" />
    <text
       xml:space="preserve"
       style="font-size:7.05556px;line-height:normal;font-family:'Liberation Serif';-inkscape-font-specification:'Liberation Serif';text-decoration-color:#000000;fill:#000000;stroke:none;stroke-width:0.465;stroke-dasharray:none;stroke-dashoffset:0"
       x="41.129055"
       y="148.56146"
       id="text4"><tspan
         sodipodi:role="line"
         id="tspan4"
         style="font-style:normal;font-variant:normal;font-weight:normal;font-stretch:normal;font-family:'Latin Modern Math';-inkscape-font-specification:'Latin Modern Math';fill:#000000;stroke:none;stroke-width:0.465"
         x="41.129055"
         y="148.56146">ϕ</tspan></text>
  </g>
  <g
     inkscape:groupmode="layer"
     id="layer2"
     inkscape:label="A"
     style="display:none"
     transform="translate(-27.241138,-108.73157)">
    <path
       id="rect13"
       style="fill:#ff8f8f;fill-opacity:0.483871;stroke:#000000;stroke-width:0.464999"
       d="m 125.9325,140.55639 20.96135,12.05424 -24.35492,6.04264 -20.96136,-12.05424 z"
       sodipodi:nodetypes="ccccc" />
    <text
       xml:space="preserve"
       style="font-size:7.05556px;line-height:normal;font-family:'Liberation Serif';-inkscape-font-specification:'Liberation Serif';text-decoration-color:#000000;fill:#000000;stroke:none;stroke-width:0.465;stroke-dasharray:none;stroke-dashoffset:0"
       x="135.04625"
       y="153.91232"
       id="text14"><tspan
         sodipodi:role="line"
         id="tspan14"
         style="font-style:normal;font-variant:normal;font-weight:bold;font-stretch:normal;font-family:'DejaVu Serif';-inkscape-font-specification:'DejaVu Serif';fill:#000000;stroke:none;stroke-width:0.465"
         x="135.04625"
         y="153.91232">A</tspan></text>
  </g>
  <g
     inkscape:groupmode="layer"
     id="layer3"
     inkscape:label="B"
     style="display:none"
     transform="translate(-27.241138,-108.73157)">
    <path
       id="path11"
       style="font-variation-settings:normal;opacity:1;vector-effect:none;fill:#7676ff;fill-opacity:0.473118;stroke:#000000;stroke-width:0.464999;stroke-linecap:butt;stroke-linejoin:miter;stroke-miterlimit:4;stroke-dasharray:none;stroke-dashoffset:0;stroke-opacity:1;-inkscape-stroke:none;stop-color:#000000;stop-opacity:1"
       d="m 89.260056,109.24849 14.967914,15.73365 -2.65037,21.61689 -14.967914,-15.73365 z"
       sodipodi:nodetypes="ccccc" />
    <text
       xml:space="preserve"
       style="font-size:7.05556px;line-height:normal;font-family:'Liberation Serif';-inkscape-font-specification:'Liberation Serif';text-decoration-color:#000000;fill:#000000;stroke:none;stroke-width:0.465;stroke-dasharray:none;stroke-dashoffset:0"
       x="89.00869"
       y="120.04566"
       id="text13"><tspan
         sodipodi:role="line"
         id="tspan13"
         style="font-style:normal;font-variant:normal;font-weight:bold;font-stretch:normal;font-family:'DejaVu Serif';-inkscape-font-specification:'DejaVu Serif';fill:#000000;stroke:none;stroke-width:0.465"
         x="89.00869"
         y="120.04566">B</tspan></text>
  </g>
  <g
     inkscape:groupmode="layer"
     id="layer9"
     inkscape:label="B_b1"
     style="display:none"
     transform="translate(-27.241138,-108.73157)">
    <text
       xml:space="preserve"
       style="font-size:7.05556px;line-height:normal;font-family:'Liberation Serif';-inkscape-font-specification:'Liberation Serif';text-decoration-color:#000000;display:inline;fill:#000000;stroke:none;stroke-width:0.465;stroke-dasharray:none;stroke-dashoffset:0"
       x="79.526108"
       y="136.84973"
       id="text21"><tspan
         sodipodi:role="line"
         id="tspan21"
         style="font-style:normal;font-variant:normal;font-weight:bold;font-stretch:normal;font-family:'DejaVu Serif';-inkscape-font-specification:'DejaVu Serif';fill:#000000;stroke:none;stroke-width:0.465"
         x="79.526108"
         y="136.84973">b<tspan
   style="font-size:65%;baseline-shift:sub"
   id="tspan20">1</tspan></tspan></text>
    <g
       id="path23"
       transform="translate(60.579624,-58.149187)">
      <path
         style="color:#000000;fill:#000080;fill-opacity:0.473118;-inkscape-stroke:none"
         d="M 41.023339,204.74192 26.030062,189.01457"
         id="path42" />
      <path
         style="color:#000000;fill:#000000;-inkscape-stroke:none"
         d="m 26.199219,188.85352 -0.337891,0.32226 14.994141,15.72656 0.335937,-0.32031 z"
         id="path43" />
      <g
         id="g39">
        <g
           id="path39">
          <path
             style="color:#000000;fill:#000000;fill-rule:evenodd;-inkscape-stroke:none"
             d="m 26.06696,189.05328 2.229117,0.6535 -1.682827,1.60428 z"
             id="path40" />
          <path
             style="color:#000000;fill:#000000;fill-rule:evenodd;-inkscape-stroke:none"
             d="m 25.853516,188.83008 0.671875,2.77929 2.072265,-1.97656 z m 0.425781,0.44531 1.714844,0.50391 -1.292969,1.23437 z"
             id="path41" />
        </g>
      </g>
    </g>
  </g>
  <g
     inkscape:groupmode="layer"
     id="layer10"
     inkscape:label="B_b2"
     style="display:none"
     transform="translate(-27.241138,-108.73157)">
    <text
       xml:space="preserve"
       style="font-size:7.05556px;line-height:normal;font-family:'Liberation Serif';-inkscape-font-specification:'Liberation Serif';text-decoration-color:#000000;fill:#000000;stroke:none;stroke-width:0.465;stroke-dasharray:none;stroke-dashoffset:0"
       x="104.41158"
       y="124.71449"
       id="text23"><tspan
         sodipodi:role="line"
         id="tspan23"
         style="font-style:normal;font-variant:normal;font-weight:bold;font-stretch:normal;font-family:'DejaVu Serif';-inkscape-font-specification:'DejaVu Serif';fill:#000000;stroke:none;stroke-width:0.465"
         x="104.41158"
         y="124.71449">b<tspan
   style="font-size:65%;baseline-shift:sub"
   id="tspan22">2</tspan></tspan></text>
    <g
       id="path24"
       transform="translate(60.579624,-58.149187)">
      <path
         style="color:#000000;fill:#000080;fill-opacity:0.473118;-inkscape-stroke:none"
         d="m 41.023339,204.74192 2.62501,-21.61059"
         id="path52" />
      <path
         style="color:#000000;fill:#000000;-inkscape-stroke:none"
         d="m 43.417969,183.10352 -2.625,21.61132 0.460937,0.0547 2.625,-21.60937 z"
         id="path53" />
      <g
         id="g49">
        <g
           id="path49">
          <path
             style="color:#000000;fill:#000000;fill-rule:evenodd;-inkscape-stroke:none"
             d="m 43.641901,183.18441 0.911511,2.13663 -2.308035,-0.28035 z"
             id="path50" />
          <path
             style="color:#000000;fill:#000000;fill-rule:evenodd;-inkscape-stroke:none"
             d="m 43.679687,182.87695 -1.71875,2.28516 2.839844,0.3457 z m -0.07422,0.61524 0.699218,1.64258 -1.773437,-0.21485 z"
             id="path51" />
        </g>
      </g>
    </g>
  </g>
  <g
     inkscape:groupmode="layer"
     id="layer7"
     inkscape:label="A_a1"
     style="display:none"
     transform="translate(-27.241138,-108.73157)">
    <g
       id="path14"
       transform="translate(60.579624,-58.149187)">
      <path
         style="color:#000000;fill:#000080;fill-opacity:0.473118;-inkscape-stroke:none"
         d="m 41.023339,204.74192 24.329538,-6.03634"
         id="path57" />
      <path
         style="color:#000000;fill:#000000;-inkscape-stroke:none"
         d="m 65.296875,198.48047 -24.330078,6.03515 0.113281,0.45118 24.328125,-6.03516 z"
         id="path58" />
      <g
         id="g54">
        <g
           id="path54">
          <path
             style="color:#000000;fill:#000000;fill-rule:evenodd;-inkscape-stroke:none"
             d="m 65.300976,198.71846 -1.672007,1.61258 -0.559875,-2.25658 z"
             id="path55" />
          <path
             style="color:#000000;fill:#000000;fill-rule:evenodd;-inkscape-stroke:none"
             d="m 62.853516,197.85156 0.689453,2.77735 2.058593,-1.98438 z m 0.429687,0.44531 1.716797,0.4961 -1.285156,1.24023 z"
             id="path56" />
        </g>
      </g>
    </g>
    <text
       xml:space="preserve"
       style="font-size:7.05556px;line-height:normal;font-family:'Liberation Serif';-inkscape-font-specification:'Liberation Serif';text-decoration-color:#000000;fill:#000000;stroke:none;stroke-width:0.465;stroke-dasharray:none;stroke-dashoffset:0"
       x="123.54934"
       y="139.89201"
       id="text27"><tspan
         sodipodi:role="line"
         id="tspan27"
         style="font-style:normal;font-variant:normal;font-weight:bold;font-stretch:normal;font-family:'DejaVu Serif';-inkscape-font-specification:'DejaVu Serif';fill:#000000;stroke:none;stroke-width:0.465"
         x="123.54934"
         y="139.89201">a<tspan
   style="font-size:65%;baseline-shift:sub"
   id="tspan26">1</tspan></tspan></text>
  </g>
  <g
     inkscape:groupmode="layer"
     id="layer8"
     inkscape:label="A_a2"
     style="display:none"
     transform="translate(-27.241138,-108.73157)">
    <g
       id="path16"
       transform="translate(60.579624,-58.149187)">
      <path
         style="color:#000000;fill:#000080;fill-opacity:0.473118;-inkscape-stroke:none"
         d="m 41.023339,204.74192 20.935968,12.06054"
         id="path62" />
      <path
         style="color:#000000;fill:#000000;-inkscape-stroke:none"
         d="m 41.138672,204.54102 -0.230469,0.40234 20.935547,12.06055 0.232422,-0.40235 z"
         id="path63" />
      <g
         id="g59">
        <g
           id="path59">
          <path
             style="color:#000000;fill:#000000;fill-rule:evenodd;-inkscape-stroke:none"
             d="m 61.912971,216.77577 -2.322934,0.003 1.160562,-2.01462 z"
             id="path60" />
          <path
             style="color:#000000;fill:#000000;fill-rule:evenodd;-inkscape-stroke:none"
             d="m 60.75,214.45312 -1.427734,2.48047 2.859375,-0.004 z m 0.002,0.6211 0.892578,1.54687 -1.785156,0.002 z"
             id="path61" />
        </g>
      </g>
    </g>
    <text
       xml:space="preserve"
       style="font-size:7.05556px;line-height:normal;font-family:'Liberation Serif';-inkscape-font-specification:'Liberation Serif';text-decoration-color:#000000;fill:#000000;stroke:none;stroke-width:0.465;stroke-dasharray:none;stroke-dashoffset:0"
       x="115.41038"
       y="162.61679"
       id="text25"><tspan
         sodipodi:role="line"
         id="tspan25"
         style="font-style:normal;font-variant:normal;font-weight:bold;font-stretch:normal;font-family:'DejaVu Serif';-inkscape-font-specification:'DejaVu Serif';fill:#000000;stroke:none;stroke-width:0.465"
         x="115.41038"
         y="162.61679">a<tspan
   style="font-size:65%;baseline-shift:sub"
   id="tspan24">2</tspan></tspan></text>
  </g>
  <g
     inkscape:groupmode="layer"
     id="layer4"
     inkscape:label="A_sheared"
     style="display:inline"
     transform="translate(-27.241138,-108.73157)">
    <rect
       style="font-variation-settings:normal;opacity:1;vector-effect:none;fill:#ff8f8f;fill-opacity:0.483871;stroke:#000000;stroke-width:0.524935;stroke-linecap:butt;stroke-linejoin:miter;stroke-miterlimit:4;stroke-dasharray:none;stroke-dashoffset:0;stroke-opacity:1;-inkscape-stroke:none;stop-color:#000000;stop-opacity:1"
       id="rect5"
       width="29.06942"
       height="18.393639"
       x="225.94852"
       y="141.11534"
       transform="matrix(0.98258985,0.185788,-0.75489007,0.65585135,0,0)" />
    <text
       xml:space="preserve"
       style="font-size:7.05556px;line-height:normal;font-family:'Liberation Serif';-inkscape-font-specification:'Liberation Serif';text-decoration-color:#000000;fill:#000000;stroke:none;stroke-width:0.465;stroke-dasharray:none;stroke-dashoffset:0"
       x="133.45871"
       y="144.3873"
       id="text7"><tspan
         sodipodi:role="line"
         id="tspan7"
         style="font-style:normal;font-variant:normal;font-weight:bold;font-stretch:normal;font-family:'DejaVu Serif';-inkscape-font-specification:'DejaVu Serif';fill:#000000;stroke:none;stroke-width:0.465"
         x="133.45871"
         y="144.3873">A</tspan></text>
  </g>
  <g
     inkscape:groupmode="layer"
     id="layer5"
     inkscape:label="B_sheared"
     style="display:inline"
     transform="translate(-27.241138,-108.73157)">
    <path
       id="rect6"
       style="font-variation-settings:normal;opacity:1;vector-effect:none;fill:#7676ff;fill-opacity:0.473118;stroke:#000000;stroke-width:0.464999;stroke-linecap:butt;stroke-linejoin:miter;stroke-miterlimit:4;stroke-dasharray:none;stroke-dashoffset:0;stroke-opacity:1;-inkscape-stroke:none;stop-color:#000000;stop-opacity:1"
       d="m 109.30493,111.14341 6.1832,23.38583 -13.88517,12.06349 -6.183201,-23.38583 z"
       sodipodi:nodetypes="ccccc" />
    <text
       xml:space="preserve"
       style="font-size:7.05556px;line-height:normal;font-family:'Liberation Serif';-inkscape-font-specification:'Liberation Serif';text-decoration-color:#000000;fill:#000000;stroke:none;stroke-width:0.465;stroke-dasharray:none;stroke-dashoffset:0"
       x="104.88369"
       y="121.10398"
       id="text10"><tspan
         sodipodi:role="line"
         id="tspan10"
         style="font-style:normal;font-variant:normal;font-weight:bold;font-stretch:normal;font-family:'DejaVu Serif';-inkscape-font-specification:'DejaVu Serif';fill:#000000;stroke:none;stroke-width:0.465"
         x="104.88369"
         y="121.10398">B</tspan></text>
  </g>
  <g
     inkscape:groupmode="layer"
     id="layer11"
     inkscape:label="B_b"
     style="display:inline"
     transform="translate(-27.241138,-108.73157)">
    <text
       xml:space="preserve"
       style="font-size:7.05556px;line-height:normal;font-family:'Liberation Serif';-inkscape-font-specification:'Liberation Serif';text-decoration-color:#000000;fill:#000000;stroke:none;stroke-width:0.465;stroke-dasharray:none;stroke-dashoffset:0"
       x="91.166504"
       y="121.98425"
       id="text29"><tspan
         sodipodi:role="line"
         id="tspan29"
         style="font-style:normal;font-variant:normal;font-weight:bold;font-stretch:normal;font-family:'DejaVu Serif';-inkscape-font-specification:'DejaVu Serif';fill:#000000;stroke:none;stroke-width:0.465"
         x="91.166504"
         y="121.98425">b<tspan
   style="font-size:65%;baseline-shift:sub"
   id="tspan28" /></tspan></text>
    <g
       id="path29"
       transform="translate(60.579624,-58.149187)">
      <path
         style="color:#000000;fill:#000080;fill-opacity:0.473118;-inkscape-stroke:none"
         d="M 41.023339,204.74192 34.840135,181.35609"
         id="path47" />
      <path
         style="color:#000000;fill:#000000;-inkscape-stroke:none"
         d="m 35.064453,181.29687 -0.449219,0.11915 6.183594,23.38476 0.449219,-0.11914 z"
         id="path48" />
      <g
         id="g44">
        <g
           id="path44">
          <path
             style="color:#000000;fill:#000000;fill-rule:evenodd;-inkscape-stroke:none"
             d="m 34.853804,181.40779 1.637955,1.64716 -2.247759,0.5943 z"
             id="path45" />
          <path
             style="color:#000000;fill:#000000;fill-rule:evenodd;-inkscape-stroke:none"
             d="m 34.775391,181.10742 -0.751954,2.75977 2.767579,-0.73047 z m 0.158203,0.59961 1.259765,1.26563 -1.728515,0.45898 z"
             id="path46" />
        </g>
      </g>
    </g>
  </g>
  <g
     inkscape:groupmode="layer"
     id="layer12"
     inkscape:label="A_a"
     style="display:inline"
     transform="translate(-27.241138,-108.73157)">
    <path
       style="font-variation-settings:normal;display:inline;opacity:1;vector-effect:none;fill:#000080;fill-opacity:0.473118;stroke:#000000;stroke-width:0.465;stroke-linecap:butt;stroke-linejoin:miter;stroke-miterlimit:4;stroke-dasharray:none;stroke-dashoffset:0;stroke-opacity:1;-inkscape-stroke:none;marker-end:url(#marker15)"
       d="m 101.60296,146.59273 28.56329,5.40074"
       id="path30"
       sodipodi:nodetypes="cc" />
    <path
       style="-inkscape-font-specification:'DejaVu Serif';stroke-width:0.465"
       d="m 131.42543,154.68539 v 1.83279 h 0.52366 v 0.41686 h -1.74322 v -0.46509 q -0.24116,0.28939 -0.53744,0.42719 -0.29628,0.13781 -0.67524,0.13781 -0.56155,0 -0.86472,-0.29973 -0.29972,-0.30317 -0.29972,-0.86472 0,-0.61667 0.43064,-0.92328 0.43408,-0.30662 1.30569,-0.30662 h 0.64079 v -0.21704 q 0,-0.44442 -0.21016,-0.65457 -0.21015,-0.21359 -0.65112,-0.21359 -0.36518,0 -0.56499,0.15158 -0.19638,0.14814 -0.27906,0.48921 h -0.38929 v -0.78893 q 0.32728,-0.11713 0.67868,-0.1757 0.3514,-0.0586 0.7407,-0.0586 0.98185,0 1.4366,0.36518 0.4582,0.36518 0.4582,1.14722 z m -1.21956,1.09899 v -0.73381 h -0.4582 q -0.34107,0 -0.52366,0.18604 -0.18259,0.18603 -0.18259,0.53399 0,0.34795 0.13092,0.52021 0.13436,0.17225 0.40652,0.17225 0.2825,0 0.45475,-0.18604 0.17226,-0.18603 0.17226,-0.49264 z"
       id="text31"
       aria-label="a" />
  </g>
  <g
     inkscape:groupmode="layer"
     id="layer13"
     inkscape:label="c"
     style="display:inline"
     transform="translate(-27.241138,-108.73157)">
    <g
       id="path31"
       transform="translate(60.579624,-58.149187)">
      <path
         style="color:#000000;fill:#000080;fill-opacity:0.473118;-inkscape-stroke:none"
         d="M 41.023339,204.74192 54.908513,192.67843"
         id="path37" />
      <path
         style="color:#000000;fill:#008000;-inkscape-stroke:none"
         d="m 54.755859,192.50195 -13.884765,12.06446 0.304687,0.35156 13.884766,-12.06445 z"
         id="path38" />
      <g
         id="g34">
        <g
           id="path34">
          <path
             style="color:#000000;fill:#008000;fill-rule:evenodd;-inkscape-stroke:none"
             d="m 54.868145,192.7135 -0.755751,2.19656 -1.524854,-1.75512 z"
             id="path35" />
          <path
             style="color:#000000;fill:#008000;fill-rule:evenodd;-inkscape-stroke:none"
             d="m 55.101562,192.50977 -2.80664,0.54492 1.876953,2.16015 z m -0.46875,0.40625 -0.580078,1.6914 -1.171875,-1.35156 z"
             id="path36" />
        </g>
      </g>
    </g>
    <text
       xml:space="preserve"
       style="font-size:7.05556px;line-height:normal;font-family:'Liberation Serif';-inkscape-font-specification:'Liberation Serif';text-decoration-color:#000000;display:inline;fill:#008000;stroke:none;stroke-width:0.465;stroke-dasharray:none;stroke-dashoffset:0"
       x="109.98974"
       y="134.17947"
       id="text33"><tspan
         sodipodi:role="line"
         id="tspan33"
         style="font-style:normal;font-variant:normal;font-weight:bold;font-stretch:normal;font-family:'DejaVu Serif';-inkscape-font-specification:'DejaVu Serif';fill:#008000;stroke:none;stroke-width:0.465"
         x="109.98974"
         y="134.17947">c</tspan></text>
  </g>
  <g
     inkscape:groupmode="layer"
     id="layer14"
     inkscape:label="c_line"
     style="display:inline"
     transform="translate(-10.033722,8.3343728)">
    <path
       style="display:inline;fill:none;stroke:#008000;stroke-width:0.465002;stroke-dasharray:none;stroke-dashoffset:0"
       d="M 60.732337,50.139333 121.89317,-3.1366369"
       id="path10" />
  </g>
  <g
     inkscape:groupmode="layer"
     id="layer6"
     inkscape:label="phi_2d"
     style="display:inline"
     transform="translate(-27.241138,-108.73157)">
    <path
       style="display:inline;fill:none;stroke:#000000;stroke-width:0.465;stroke-dasharray:none;stroke-dashoffset:0"
       id="path6"
       sodipodi:type="arc"
       sodipodi:cx="115.6347"
       sodipodi:cy="134.58179"
       sodipodi:rx="13.010314"
       sodipodi:ry="13.010314"
       sodipodi:start="4.4440745"
       sodipodi:end="0.18825125"
       sodipodi:open="true"
       sodipodi:arc-type="arc"
       d="m 112.18558,122.03699 a 13.010314,13.010314 0 0 1 12.27325,2.98431 13.010314,13.010314 0 0 1 3.95633,11.99525" />
    <text
       xml:space="preserve"
       style="font-size:7.05556px;line-height:normal;font-family:'Liberation Serif';-inkscape-font-specification:'Liberation Serif';text-decoration-color:#000000;display:inline;fill:#000000;stroke:none;stroke-width:0.465;stroke-dasharray:none;stroke-dashoffset:0"
       x="118.81392"
       y="128.55856"
       id="text6"><tspan
         sodipodi:role="line"
         id="tspan6"
         style="font-style:normal;font-variant:normal;font-weight:normal;font-stretch:normal;font-family:'Latin Modern Math';-inkscape-font-specification:'Latin Modern Math';fill:#000000;stroke:none;stroke-width:0.465"
         x="118.81392"
         y="128.55856">ϕ</tspan></text>
  </g>
</svg>
