<?xml version="1.0" encoding="UTF-8" standalone="no"?>
<!-- Created with Inkscape (http://www.inkscape.org/) -->

<svg
   width="69.723625mm"
   height="108.46384mm"
   viewBox="0 0 69.723624 108.46384"
   version="1.1"
   id="svg1"
   inkscape:version="1.3.2 (1:1.3.2+202311252150+091e20ef0f)"
   sodipodi:docname="ext_alg_angle_bivector.svg.svg"
   xmlns:inkscape="http://www.inkscape.org/namespaces/inkscape"
   xmlns:sodipodi="http://sodipodi.sourceforge.net/DTD/sodipodi-0.dtd"
   xmlns="http://www.w3.org/2000/svg"
   xmlns:svg="http://www.w3.org/2000/svg">
  <sodipodi:namedview
     id="namedview1"
     pagecolor="#ffffff"
     bordercolor="#000000"
     borderopacity="0.25"
     inkscape:showpageshadow="2"
     inkscape:pageopacity="0.0"
     inkscape:pagecheckerboard="0"
     inkscape:deskcolor="#d1d1d1"
     inkscape:document-units="mm"
     inkscape:zoom="1.5070954"
     inkscape:cx="101.18802"
     inkscape:cy="226.59482"
     inkscape:window-width="1920"
     inkscape:window-height="995"
     inkscape:window-x="0"
     inkscape:window-y="0"
     inkscape:window-maximized="1"
     inkscape:current-layer="layer6" />
  <defs
     id="defs1">
    <marker
       style="overflow:visible"
       id="marker15"
       refX="3"
       refY="0"
       orient="auto-start-reverse"
       inkscape:stockid="Triangle arrow"
       markerWidth="1"
       markerHeight="1"
       viewBox="0 0 1 1"
       inkscape:isstock="true"
       inkscape:collect="always"
       preserveAspectRatio="xMidYMid">
      <path
         transform="scale(0.5)"
         style="fill:context-stroke;fill-rule:evenodd;stroke:context-stroke;stroke-width:1pt"
         d="M 5.77,0 -2.88,5 V -5 Z"
         id="path15" />
    </marker>
    <marker
       style="overflow:visible"
       id="Triangle"
       refX="0"
       refY="0"
       orient="auto-start-reverse"
       inkscape:stockid="Triangle arrow"
       markerWidth="1"
       markerHeight="1"
       viewBox="0 0 1 1"
       inkscape:isstock="true"
       inkscape:collect="always"
       preserveAspectRatio="xMidYMid">
      <path
         transform="scale(0.5)"
         style="fill:context-stroke;fill-rule:evenodd;stroke:context-stroke;stroke-width:1pt"
         d="M 5.77,0 -2.88,5 V -5 Z"
         id="path135" />
    </marker>
  </defs>
  <g
     inkscape:label="Layer 1"
     inkscape:groupmode="layer"
     id="layer1"
     style="display:inline"
     transform="translate(-17.207416,-117.06594)">
    <path
       style="fill:none;stroke:#000000;stroke-width:0.465;stroke-dasharray:none;stroke-dashoffset:0;marker-end:url(#Triangle)"
       d="M 27.413972,153.58175 H 76.161578"
       id="path1"
       sodipodi:nodetypes="cc" />
    <path
       style="fill:none;stroke:#000000;stroke-width:0.465;stroke-dasharray:none;stroke-dashoffset:0;marker-end:url(#Triangle)"
       d="M 27.413972,153.58175 59.165949,118.29343"
       id="path2"
       sodipodi:nodetypes="cc" />
    <text
       xml:space="preserve"
       style="font-size:7.05556px;line-height:normal;font-family:'Liberation Serif';-inkscape-font-specification:'Liberation Serif';text-decoration-color:#000000;fill:#000000;stroke:none;stroke-width:0.465;stroke-dasharray:none;stroke-dashoffset:0"
       x="38.410812"
       y="134.7751"
       id="text2"><tspan
         sodipodi:role="line"
         id="tspan2"
         style="font-style:normal;font-variant:normal;font-weight:bold;font-stretch:normal;font-family:'DejaVu Serif';-inkscape-font-specification:'DejaVu Serif';fill:#000000;stroke:none;stroke-width:0.465"
         x="38.410812"
         y="134.7751">b</tspan></text>
    <text
       xml:space="preserve"
       style="font-size:7.05556px;line-height:normal;font-family:'Liberation Serif';-inkscape-font-specification:'Liberation Serif';text-decoration-color:#000000;fill:#000000;stroke:none;stroke-width:0.465;stroke-dasharray:none;stroke-dashoffset:0"
       x="51.183224"
       y="158.61565"
       id="text3"><tspan
         sodipodi:role="line"
         id="tspan3"
         style="font-style:normal;font-variant:normal;font-weight:bold;font-stretch:normal;font-family:'DejaVu Serif';-inkscape-font-specification:'DejaVu Serif';fill:#000000;stroke:none;stroke-width:0.465"
         x="51.183224"
         y="158.61565">a</tspan></text>
    <path
       style="fill:none;stroke:#000000;stroke-width:0.465;stroke-dasharray:none;stroke-dashoffset:0"
       id="path3"
       sodipodi:type="arc"
       sodipodi:cx="27.413973"
       sodipodi:cy="153.58176"
       sodipodi:rx="13.010314"
       sodipodi:ry="13.010314"
       sodipodi:start="5.4477172"
       sodipodi:end="6.2807036"
       sodipodi:arc-type="arc"
       d="m 36.14169,143.93317 a 13.010314,13.010314 0 0 1 4.282557,9.6163"
       sodipodi:open="true" />
    <text
       xml:space="preserve"
       style="font-size:7.05556px;line-height:normal;font-family:'Liberation Serif';-inkscape-font-specification:'Liberation Serif';text-decoration-color:#000000;fill:#000000;stroke:none;stroke-width:0.465;stroke-dasharray:none;stroke-dashoffset:0"
       x="41.129055"
       y="148.56146"
       id="text4"><tspan
         sodipodi:role="line"
         id="tspan4"
         style="font-style:normal;font-variant:normal;font-weight:normal;font-stretch:normal;font-family:'Latin Modern Math';-inkscape-font-specification:'Latin Modern Math';fill:#000000;stroke:none;stroke-width:0.465"
         x="41.129055"
         y="148.56146">ϕ</tspan></text>
  </g>
  <g
     inkscape:groupmode="layer"
     id="layer2"
     inkscape:label="A"
     style="display:inline"
     transform="translate(-17.207416,-117.06594)">
    <path
       id="rect13"
       style="fill:#ff8f8f;fill-opacity:0.483871;stroke:#000000;stroke-width:0.464999"
       d="m 65.352877,198.70558 20.961348,12.05424 -24.354918,6.04264 -20.961358,-12.05424 z"
       sodipodi:nodetypes="ccccc" />
    <text
       xml:space="preserve"
       style="font-size:7.05556px;line-height:normal;font-family:'Liberation Serif';-inkscape-font-specification:'Liberation Serif';text-decoration-color:#000000;fill:#000000;stroke:none;stroke-width:0.465;stroke-dasharray:none;stroke-dashoffset:0"
       x="74.466621"
       y="212.06152"
       id="text14"><tspan
         sodipodi:role="line"
         id="tspan14"
         style="font-style:normal;font-variant:normal;font-weight:bold;font-stretch:normal;font-family:'DejaVu Serif';-inkscape-font-specification:'DejaVu Serif';fill:#000000;stroke:none;stroke-width:0.465"
         x="74.466621"
         y="212.06152">A</tspan></text>
  </g>
  <g
     inkscape:groupmode="layer"
     id="layer3"
     inkscape:label="B"
     style="display:inline"
     transform="translate(-17.207416,-117.06594)">
    <path
       id="path11"
       style="font-variation-settings:normal;opacity:1;vector-effect:none;fill:#7676ff;fill-opacity:0.473118;stroke:#000000;stroke-width:0.464999;stroke-linecap:butt;stroke-linejoin:miter;stroke-miterlimit:4;stroke-dasharray:none;stroke-dashoffset:0;stroke-opacity:1;-inkscape-stroke:none;stop-color:#000000;stop-opacity:1"
       d="m 28.680432,167.39768 14.967917,15.73365 -2.65037,21.61689 -14.967917,-15.73365 z"
       sodipodi:nodetypes="ccccc" />
    <text
       xml:space="preserve"
       style="font-size:7.05556px;line-height:normal;font-family:'Liberation Serif';-inkscape-font-specification:'Liberation Serif';text-decoration-color:#000000;fill:#000000;stroke:none;stroke-width:0.465;stroke-dasharray:none;stroke-dashoffset:0"
       x="28.42906"
       y="178.19485"
       id="text13"><tspan
         sodipodi:role="line"
         id="tspan13"
         style="font-style:normal;font-variant:normal;font-weight:bold;font-stretch:normal;font-family:'DejaVu Serif';-inkscape-font-specification:'DejaVu Serif';fill:#000000;stroke:none;stroke-width:0.465"
         x="28.42906"
         y="178.19485">B</tspan></text>
  </g>
  <g
     inkscape:groupmode="layer"
     id="layer4"
     inkscape:label="A_sheared"
     style="display:none"
     transform="translate(-17.207416,-117.06594)">
    <rect
       style="font-variation-settings:normal;opacity:1;vector-effect:none;fill:#ff8f8f;fill-opacity:0.483871;stroke:#000000;stroke-width:0.524935;stroke-linecap:butt;stroke-linejoin:miter;stroke-miterlimit:4;stroke-dasharray:none;stroke-dashoffset:0;stroke-opacity:1;-inkscape-stroke:none;stop-color:#000000;stop-opacity:1"
       id="rect5"
       width="29.06942"
       height="18.393639"
       x="231.25642"
       y="228.27388"
       transform="matrix(0.98258985,0.185788,-0.75489007,0.65585135,0,0)" />
    <text
       xml:space="preserve"
       style="font-size:7.05556px;line-height:normal;font-family:'Liberation Serif';-inkscape-font-specification:'Liberation Serif';text-decoration-color:#000000;fill:#000000;stroke:none;stroke-width:0.465;stroke-dasharray:none;stroke-dashoffset:0"
       x="72.879082"
       y="202.5365"
       id="text7"><tspan
         sodipodi:role="line"
         id="tspan7"
         style="font-style:normal;font-variant:normal;font-weight:bold;font-stretch:normal;font-family:'DejaVu Serif';-inkscape-font-specification:'DejaVu Serif';fill:#000000;stroke:none;stroke-width:0.465"
         x="72.879082"
         y="202.5365">A</tspan></text>
  </g>
  <g
     inkscape:groupmode="layer"
     id="layer5"
     inkscape:label="B_sheared"
     style="display:none"
     transform="translate(-17.207416,-117.06594)">
    <path
       id="rect6"
       style="font-variation-settings:normal;opacity:1;vector-effect:none;fill:#7676ff;fill-opacity:0.473118;stroke:#000000;stroke-width:0.464999;stroke-linecap:butt;stroke-linejoin:miter;stroke-miterlimit:4;stroke-dasharray:none;stroke-dashoffset:0;stroke-opacity:1;-inkscape-stroke:none;stop-color:#000000;stop-opacity:1"
       d="m 48.725306,169.2926 6.183207,23.38583 -13.885174,12.06349 -6.183204,-23.38583 z"
       sodipodi:nodetypes="ccccc" />
    <text
       xml:space="preserve"
       style="font-size:7.05556px;line-height:normal;font-family:'Liberation Serif';-inkscape-font-specification:'Liberation Serif';text-decoration-color:#000000;fill:#000000;stroke:none;stroke-width:0.465;stroke-dasharray:none;stroke-dashoffset:0"
       x="44.304062"
       y="179.25317"
       id="text10"><tspan
         sodipodi:role="line"
         id="tspan10"
         style="font-style:normal;font-variant:normal;font-weight:bold;font-stretch:normal;font-family:'DejaVu Serif';-inkscape-font-specification:'DejaVu Serif';fill:#000000;stroke:none;stroke-width:0.465"
         x="44.304062"
         y="179.25317">B</tspan></text>
  </g>
  <g
     inkscape:groupmode="layer"
     id="layer9"
     inkscape:label="B_b1"
     style="display:inline"
     transform="translate(-17.207416,-117.06594)">
    <text
       xml:space="preserve"
       style="font-size:7.05556px;line-height:normal;font-family:'Liberation Serif';-inkscape-font-specification:'Liberation Serif';text-decoration-color:#000000;display:inline;fill:#000000;stroke:none;stroke-width:0.465;stroke-dasharray:none;stroke-dashoffset:0"
       x="18.946482"
       y="194.99893"
       id="text21"><tspan
         sodipodi:role="line"
         id="tspan21"
         style="font-style:normal;font-variant:normal;font-weight:bold;font-stretch:normal;font-family:'DejaVu Serif';-inkscape-font-specification:'DejaVu Serif';fill:#000000;stroke:none;stroke-width:0.465"
         x="18.946482"
         y="194.99893">b<tspan
   style="font-size:65%;baseline-shift:sub"
   id="tspan20">1</tspan></tspan></text>
    <path
       style="font-variation-settings:normal;display:inline;opacity:1;vector-effect:none;fill:#000080;fill-opacity:0.473118;stroke:#000000;stroke-width:0.465;stroke-linecap:butt;stroke-linejoin:miter;stroke-miterlimit:4;stroke-dasharray:none;stroke-dashoffset:0;stroke-opacity:1;-inkscape-stroke:none;marker-end:url(#marker15)"
       d="M 41.023339,204.74192 26.030062,189.01457"
       id="path23"
       sodipodi:nodetypes="cc" />
  </g>
  <g
     inkscape:groupmode="layer"
     id="layer10"
     inkscape:label="B_b2"
     style="display:inline"
     transform="translate(-17.207416,-117.06594)">
    <text
       xml:space="preserve"
       style="font-size:7.05556px;line-height:normal;font-family:'Liberation Serif';-inkscape-font-specification:'Liberation Serif';text-decoration-color:#000000;fill:#000000;stroke:none;stroke-width:0.465;stroke-dasharray:none;stroke-dashoffset:0"
       x="43.831955"
       y="182.86368"
       id="text23"><tspan
         sodipodi:role="line"
         id="tspan23"
         style="font-style:normal;font-variant:normal;font-weight:bold;font-stretch:normal;font-family:'DejaVu Serif';-inkscape-font-specification:'DejaVu Serif';fill:#000000;stroke:none;stroke-width:0.465"
         x="43.831955"
         y="182.86368">b<tspan
   style="font-size:65%;baseline-shift:sub"
   id="tspan22">2</tspan></tspan></text>
    <path
       style="font-variation-settings:normal;display:inline;opacity:1;vector-effect:none;fill:#000080;fill-opacity:0.473118;stroke:#000000;stroke-width:0.465;stroke-linecap:butt;stroke-linejoin:miter;stroke-miterlimit:4;stroke-dasharray:none;stroke-dashoffset:0;stroke-opacity:1;-inkscape-stroke:none;marker-end:url(#marker15)"
       d="m 41.023339,204.74192 2.62501,-21.61059"
       id="path24"
       sodipodi:nodetypes="cc" />
  </g>
  <g
     inkscape:groupmode="layer"
     id="layer11"
     inkscape:label="B_b"
     style="display:none"
     transform="translate(-17.207416,-117.06594)">
    <text
       xml:space="preserve"
       style="font-size:7.05556px;line-height:normal;font-family:'Liberation Serif';-inkscape-font-specification:'Liberation Serif';text-decoration-color:#000000;fill:#000000;stroke:none;stroke-width:0.465;stroke-dasharray:none;stroke-dashoffset:0"
       x="30.586874"
       y="180.13344"
       id="text29"><tspan
         sodipodi:role="line"
         id="tspan29"
         style="font-style:normal;font-variant:normal;font-weight:bold;font-stretch:normal;font-family:'DejaVu Serif';-inkscape-font-specification:'DejaVu Serif';fill:#000000;stroke:none;stroke-width:0.465"
         x="30.586874"
         y="180.13344">b<tspan
   style="font-size:65%;baseline-shift:sub"
   id="tspan28" /></tspan></text>
    <path
       style="font-variation-settings:normal;display:inline;opacity:1;vector-effect:none;fill:#000080;fill-opacity:0.473118;stroke:#000000;stroke-width:0.465;stroke-linecap:butt;stroke-linejoin:miter;stroke-miterlimit:4;stroke-dasharray:none;stroke-dashoffset:0;stroke-opacity:1;-inkscape-stroke:none;marker-end:url(#marker15)"
       d="M 41.023339,204.74192 34.840135,181.35609"
       id="path29"
       sodipodi:nodetypes="cc" />
  </g>
  <g
     inkscape:groupmode="layer"
     id="layer7"
     inkscape:label="A_a1"
     style="display:inline"
     transform="translate(-17.207416,-117.06594)">
    <path
       style="font-variation-settings:normal;display:inline;opacity:1;vector-effect:none;fill:#000080;fill-opacity:0.473118;stroke:#000000;stroke-width:0.465;stroke-linecap:butt;stroke-linejoin:miter;stroke-miterlimit:4;stroke-dasharray:none;stroke-dashoffset:0;stroke-opacity:1;-inkscape-stroke:none;marker-end:url(#marker15)"
       d="m 41.023339,204.74192 24.329538,-6.03634"
       id="path14" />
    <text
       xml:space="preserve"
       style="font-size:7.05556px;line-height:normal;font-family:'Liberation Serif';-inkscape-font-specification:'Liberation Serif';text-decoration-color:#000000;fill:#000000;stroke:none;stroke-width:0.465;stroke-dasharray:none;stroke-dashoffset:0"
       x="62.969704"
       y="198.04121"
       id="text27"><tspan
         sodipodi:role="line"
         id="tspan27"
         style="font-style:normal;font-variant:normal;font-weight:bold;font-stretch:normal;font-family:'DejaVu Serif';-inkscape-font-specification:'DejaVu Serif';fill:#000000;stroke:none;stroke-width:0.465"
         x="62.969704"
         y="198.04121">a<tspan
   style="font-size:65%;baseline-shift:sub"
   id="tspan26">1</tspan></tspan></text>
  </g>
  <g
     inkscape:groupmode="layer"
     id="layer8"
     inkscape:label="A_a2"
     style="display:inline"
     transform="translate(-17.207416,-117.06594)">
    <path
       style="font-variation-settings:normal;display:inline;opacity:1;vector-effect:none;fill:#000080;fill-opacity:0.473118;stroke:#000000;stroke-width:0.465;stroke-linecap:butt;stroke-linejoin:miter;stroke-miterlimit:4;stroke-dasharray:none;stroke-dashoffset:0;stroke-opacity:1;-inkscape-stroke:none;marker-end:url(#marker15)"
       d="m 41.023339,204.74192 20.935968,12.06054"
       id="path16"
       sodipodi:nodetypes="cc" />
    <text
       xml:space="preserve"
       style="font-size:7.05556px;line-height:normal;font-family:'Liberation Serif';-inkscape-font-specification:'Liberation Serif';text-decoration-color:#000000;fill:#000000;stroke:none;stroke-width:0.465;stroke-dasharray:none;stroke-dashoffset:0"
       x="54.83075"
       y="220.76599"
       id="text25"><tspan
         sodipodi:role="line"
         id="tspan25"
         style="font-style:normal;font-variant:normal;font-weight:bold;font-stretch:normal;font-family:'DejaVu Serif';-inkscape-font-specification:'DejaVu Serif';fill:#000000;stroke:none;stroke-width:0.465"
         x="54.83075"
         y="220.76599">a<tspan
   style="font-size:65%;baseline-shift:sub"
   id="tspan24">2</tspan></tspan></text>
  </g>
  <g
     inkscape:groupmode="layer"
     id="layer12"
     inkscape:label="A_a"
     style="display:none"
     transform="translate(-17.207416,-117.06594)">
    <path
       style="font-variation-settings:normal;display:inline;opacity:1;vector-effect:none;fill:#000080;fill-opacity:0.473118;stroke:#000000;stroke-width:0.465;stroke-linecap:butt;stroke-linejoin:miter;stroke-miterlimit:4;stroke-dasharray:none;stroke-dashoffset:0;stroke-opacity:1;-inkscape-stroke:none;marker-end:url(#marker15)"
       d="m 41.023339,204.74192 28.563295,5.40074"
       id="path30"
       sodipodi:nodetypes="cc" />
    <text
       xml:space="preserve"
       style="font-size:7.05556px;line-height:normal;font-family:'Liberation Serif';-inkscape-font-specification:'Liberation Serif';text-decoration-color:#000000;fill:#000000;stroke:none;stroke-width:0.465;stroke-dasharray:none;stroke-dashoffset:0"
       x="66.95974"
       y="215.08423"
       id="text31"><tspan
         sodipodi:role="line"
         id="tspan31"
         style="font-style:normal;font-variant:normal;font-weight:bold;font-stretch:normal;font-family:'DejaVu Serif';-inkscape-font-specification:'DejaVu Serif';fill:#000000;stroke:none;stroke-width:0.465"
         x="66.95974"
         y="215.08423">a<tspan
   style="font-size:65%;baseline-shift:sub"
   id="tspan30" /></tspan></text>
  </g>
  <g
     inkscape:groupmode="layer"
     id="layer13"
     inkscape:label="c"
     style="display:none"
     transform="translate(-17.207416,-117.06594)">
    <path
       style="font-variation-settings:normal;display:inline;opacity:1;vector-effect:none;fill:#000080;fill-opacity:0.473118;stroke:#008000;stroke-width:0.465;stroke-linecap:butt;stroke-linejoin:miter;stroke-miterlimit:4;stroke-dasharray:none;stroke-dashoffset:0;stroke-opacity:1;-inkscape-stroke:none;marker-end:url(#marker15)"
       d="M 41.023339,204.74192 54.908513,192.67843"
       id="path31"
       sodipodi:nodetypes="cc" />
    <text
       xml:space="preserve"
       style="font-size:7.05556px;line-height:normal;font-family:'Liberation Serif';-inkscape-font-specification:'Liberation Serif';text-decoration-color:#000000;display:inline;fill:#008000;stroke:none;stroke-width:0.465;stroke-dasharray:none;stroke-dashoffset:0"
       x="49.410107"
       y="192.32867"
       id="text33"><tspan
         sodipodi:role="line"
         id="tspan33"
         style="font-style:normal;font-variant:normal;font-weight:bold;font-stretch:normal;font-family:'DejaVu Serif';-inkscape-font-specification:'DejaVu Serif';fill:#008000;stroke:none;stroke-width:0.465"
         x="49.410107"
         y="192.32867">c</tspan></text>
  </g>
  <g
     inkscape:groupmode="layer"
     id="layer14"
     inkscape:label="c_line"
     style="display:inline">
    <path
       style="display:inline;fill:none;stroke:#008000;stroke-width:0.465002;stroke-dasharray:none;stroke-dashoffset:0"
       d="M 17.360129,225.35446 78.520968,172.07849"
       id="path10"
       transform="translate(-17.207416,-117.06594)" />
  </g>
  <g
     inkscape:groupmode="layer"
     id="layer6"
     inkscape:label="phi_2d"
     style="display:none"
     transform="translate(-17.207416,-117.06594)">
    <path
       style="display:inline;fill:none;stroke:#000000;stroke-width:0.465;stroke-dasharray:none;stroke-dashoffset:0"
       id="path6"
       sodipodi:type="arc"
       sodipodi:cx="55.05508"
       sodipodi:cy="192.73099"
       sodipodi:rx="13.010314"
       sodipodi:ry="13.010314"
       sodipodi:start="4.4440745"
       sodipodi:end="0.18825125"
       sodipodi:open="true"
       sodipodi:arc-type="arc"
       d="m 51.60596,180.18619 a 13.010314,13.010314 0 0 1 12.273252,2.98431 13.010314,13.010314 0 0 1 3.956329,11.99525" />
    <text
       xml:space="preserve"
       style="font-size:7.05556px;line-height:normal;font-family:'Liberation Serif';-inkscape-font-specification:'Liberation Serif';text-decoration-color:#000000;display:inline;fill:#000000;stroke:none;stroke-width:0.465;stroke-dasharray:none;stroke-dashoffset:0"
       x="58.234283"
       y="186.70776"
       id="text6"><tspan
         sodipodi:role="line"
         id="tspan6"
         style="font-style:normal;font-variant:normal;font-weight:normal;font-stretch:normal;font-family:'Latin Modern Math';-inkscape-font-specification:'Latin Modern Math';fill:#000000;stroke:none;stroke-width:0.465"
         x="58.234283"
         y="186.70776">ϕ</tspan></text>
  </g>
</svg>
