<?xml version="1.0" encoding="UTF-8" standalone="no"?>
<!-- Created with Inkscape (http://www.inkscape.org/) -->

<svg
   width="19.423803mm"
   height="18.787701mm"
   viewBox="0 0 19.423803 18.787701"
   version="1.1"
   id="svg1"
   inkscape:version="1.3.2 (1:1.3.2+202311252150+091e20ef0f)"
   sodipodi:docname="favicon.svg"
   xmlns:inkscape="http://www.inkscape.org/namespaces/inkscape"
   xmlns:sodipodi="http://sodipodi.sourceforge.net/DTD/sodipodi-0.dtd"
   xmlns="http://www.w3.org/2000/svg"
   xmlns:svg="http://www.w3.org/2000/svg">
  <sodipodi:namedview
     id="namedview1"
     pagecolor="#ffffff"
     bordercolor="#000000"
     borderopacity="0.25"
     inkscape:showpageshadow="2"
     inkscape:pageopacity="0.0"
     inkscape:pagecheckerboard="0"
     inkscape:deskcolor="#d1d1d1"
     inkscape:document-units="mm"
     inkscape:zoom="4.0943603"
     inkscape:cx="26.499866"
     inkscape:cy="72.172447"
     inkscape:window-width="2560"
     inkscape:window-height="1355"
     inkscape:window-x="0"
     inkscape:window-y="0"
     inkscape:window-maximized="1"
     inkscape:current-layer="layer1" />
  <defs
     id="defs1" />
  <g
     inkscape:label="Layer 1"
     inkscape:groupmode="layer"
     id="layer1"
     transform="translate(-59.727623,-74.830073)">
    <path
       sodipodi:type="star"
       style="fill:#000000;stroke:none;stroke-width:0.865"
       id="path1"
       inkscape:flatsided="false"
       sodipodi:sides="5"
       sodipodi:cx="69.274147"
       sodipodi:cy="85.041771"
       sodipodi:r1="10.225712"
       sodipodi:r2="3.9062221"
       sodipodi:arg1="-0.26179939"
       sodipodi:arg2="0.36651914"
       inkscape:rounded="0"
       inkscape:randomized="0"
       d="m 79.151426,82.395162 -6.230506,4.046474 1.922549,7.176138 -5.773758,-4.675134 -6.230813,4.046002 2.662128,-6.935866 -5.773403,-4.675572 7.419043,0.388533 2.662653,-6.935664 1.923093,7.175993 z"
       inkscape:transform-center-x="-0.16537651"
       inkscape:transform-center-y="-0.81784829" />
  </g>
</svg>
