<?xml version="1.0" encoding="UTF-8" standalone="no"?>
<!-- Created with Inkscape (http://www.inkscape.org/) -->

<svg
   width="58.289612mm"
   height="48.328167mm"
   viewBox="0 0 58.289612 48.328167"
   version="1.1"
   id="svg1"
   inkscape:version="1.3.2 (1:1.3.2+202311252150+091e20ef0f)"
   sodipodi:docname="inter_plan_lines_01.svg"
   xmlns:inkscape="http://www.inkscape.org/namespaces/inkscape"
   xmlns:sodipodi="http://sodipodi.sourceforge.net/DTD/sodipodi-0.dtd"
   xmlns="http://www.w3.org/2000/svg"
   xmlns:svg="http://www.w3.org/2000/svg">
  <sodipodi:namedview
     id="namedview1"
     pagecolor="#ffffff"
     bordercolor="#000000"
     borderopacity="0.25"
     inkscape:showpageshadow="2"
     inkscape:pageopacity="0.0"
     inkscape:pagecheckerboard="0"
     inkscape:deskcolor="#d1d1d1"
     inkscape:document-units="mm"
     inkscape:zoom="4.2450262"
     inkscape:cx="170.90589"
     inkscape:cy="93.638998"
     inkscape:window-width="1920"
     inkscape:window-height="995"
     inkscape:window-x="0"
     inkscape:window-y="0"
     inkscape:window-maximized="1"
     inkscape:current-layer="layer15" />
  <defs
     id="defs1">
    <marker
       style="overflow:visible"
       id="Triangle"
       refX="3"
       refY="0"
       orient="auto-start-reverse"
       inkscape:stockid="Triangle arrow"
       markerWidth="1"
       markerHeight="1"
       viewBox="0 0 1 1"
       inkscape:isstock="true"
       inkscape:collect="always"
       preserveAspectRatio="xMidYMid">
      <path
         transform="scale(0.5)"
         style="fill:context-stroke;fill-rule:evenodd;stroke:context-stroke;stroke-width:1pt"
         d="M 5.77,0 -2.88,5 V -5 Z"
         id="path135" />
    </marker>
  </defs>
  <g
     inkscape:groupmode="layer"
     id="layer2"
     inkscape:label="v  and u"
     style="display:none"
     transform="translate(99.845268,-72.139043)">
    <g
       id="path7"
       inkscape:transform-center-x="3.4078913"
       inkscape:transform-center-y="-9.2002424">
      <path
         style="color:#000000;fill:#008000;-inkscape-stroke:none"
         d="m -86.179687,96.724609 -0.435547,0.16211 6.90039,18.611331 0.435547,-0.16016 z"
         id="path50" />
      <g
         id="g47">
        <g
           id="path47">
          <path
             style="color:#000000;fill:#008000;fill-rule:evenodd;-inkscape-stroke:none"
             d="m -86.378939,96.855852 1.789167,1.481523 -2.17997,0.808303 z"
             id="path48" />
          <path
             style="color:#000000;fill:#008000;fill-rule:evenodd;-inkscape-stroke:none"
             d="m -86.486328,96.566406 -0.480469,2.81836 2.683594,-0.996094 z m 0.214844,0.580078 1.375,1.138672 -1.675782,0.621094 z"
             id="path49" />
        </g>
      </g>
    </g>
    <g
       id="path1-2">
      <path
         style="color:#000000;fill:#000080;-inkscape-stroke:none"
         d="m -79.583984,115.2168 v 0.46484 h 19.849609 v -0.46484 z"
         id="path54" />
      <g
         id="g51">
        <g
           id="path51">
          <path
             style="color:#000000;fill:#000080;fill-rule:evenodd;-inkscape-stroke:none"
             d="m -59.786961,115.44972 -2.011125,1.1625 v -2.325 z"
             id="path52" />
          <path
             style="color:#000000;fill:#000080;fill-rule:evenodd;-inkscape-stroke:none"
             d="m -61.953125,114.01953 v 2.86133 l 2.476563,-1.43164 z m 0.310547,0.53711 1.546875,0.89258 -1.546875,0.89453 z"
             id="path53" />
        </g>
      </g>
    </g>
    <text
       xml:space="preserve"
       style="font-style:normal;font-variant:normal;font-weight:normal;font-stretch:normal;font-size:3.59596px;font-family:'Latin Modern Math';-inkscape-font-specification:'Latin Modern Math';text-align:center;text-anchor:middle;display:inline;fill:#000080;fill-opacity:1;stroke:none;stroke-width:0.313774"
       x="-61.049728"
       y="119.51148"
       id="text3"
       inkscape:label="xa_sheared"><tspan
         sodipodi:role="line"
         id="tspan3"
         style="font-style:normal;font-variant:normal;font-weight:normal;font-stretch:normal;font-size:3.59596px;font-family:'Latin Modern Math';-inkscape-font-specification:'Latin Modern Math';fill:#000080;stroke-width:0.313774"
         x="-61.049728"
         y="119.51148"><tspan
           style="font-style:normal;font-variant:normal;font-weight:bold;font-stretch:normal;font-size:3.59596px;font-family:'DejaVu Serif';-inkscape-font-specification:'DejaVu Serif Bold';fill:#000080;stroke-width:0.313774"
           id="tspan1">u</tspan></tspan></text>
    <text
       xml:space="preserve"
       style="font-style:normal;font-variant:normal;font-weight:normal;font-stretch:normal;font-size:3.59596px;font-family:'Latin Modern Math';-inkscape-font-specification:'Latin Modern Math';text-align:center;text-anchor:middle;display:inline;fill:#008000;fill-opacity:1;stroke:none;stroke-width:0.313774"
       x="-88.293503"
       y="97.701454"
       id="text5"
       inkscape:label="xa_sheared"><tspan
         sodipodi:role="line"
         id="tspan5"
         style="font-style:normal;font-variant:normal;font-weight:normal;font-stretch:normal;font-size:3.59596px;font-family:'Latin Modern Math';-inkscape-font-specification:'Latin Modern Math';fill:#008000;stroke-width:0.313774"
         x="-88.293503"
         y="97.701454"><tspan
           style="font-style:normal;font-variant:normal;font-weight:bold;font-stretch:normal;font-size:3.59596px;font-family:'DejaVu Serif';-inkscape-font-specification:'DejaVu Serif Bold';fill:#008000;stroke-width:0.313774"
           id="tspan4">v</tspan></tspan></text>
  </g>
  <g
     inkscape:groupmode="layer"
     id="layer19"
     inkscape:label="v  and u on lines"
     style="display:inline">
    <g
       id="path7-8"
       inkscape:transform-center-x="3.4078913"
       inkscape:transform-center-y="-9.2002424">
      <path
         style="color:#000000;fill:#008000;-inkscape-stroke:none"
         d="m 37.636719,15.341797 -0.435547,0.160156 6.90039,18.613281 0.435547,-0.162109 z"
         id="path42" />
      <g
         id="g39">
        <g
           id="path39">
          <path
             style="color:#000000;fill:#008000;fill-rule:evenodd;-inkscape-stroke:none"
             d="m 37.437065,15.47187 1.789167,1.481523 -2.17997,0.808303 z"
             id="path40" />
          <path
             style="color:#000000;fill:#008000;fill-rule:evenodd;-inkscape-stroke:none"
             d="M 37.330078,15.181641 36.847656,18 39.53125,17.005859 Z m 0.214844,0.582031 1.375,1.138672 -1.675781,0.621093 z"
             id="path41" />
        </g>
      </g>
    </g>
    <g
       id="path1-2-6">
      <path
         style="color:#000000;fill:#000080;-inkscape-stroke:none"
         d="m 24.017578,18.320312 v 0.464844 h 19.849609 v -0.464844 z"
         id="path46" />
      <g
         id="g43">
        <g
           id="path43">
          <path
             style="color:#000000;fill:#000080;fill-rule:evenodd;-inkscape-stroke:none"
             d="m 43.813969,18.553199 -2.011125,1.1625 v -2.325 z"
             id="path44" />
          <path
             style="color:#000000;fill:#000080;fill-rule:evenodd;-inkscape-stroke:none"
             d="m 41.648437,17.123047 v 2.861328 l 2.47461,-1.431641 z m 0.308594,0.537109 1.546875,0.894531 -1.546875,0.892579 z"
             id="path45" />
        </g>
      </g>
    </g>
    <text
       xml:space="preserve"
       style="font-style:normal;font-variant:normal;font-weight:normal;font-stretch:normal;font-size:3.59596px;font-family:'Latin Modern Math';-inkscape-font-specification:'Latin Modern Math';text-align:center;text-anchor:middle;display:inline;fill:#000080;fill-opacity:1;stroke:none;stroke-width:0.313774"
       x="42.942043"
       y="17.214079"
       id="text3-8"
       inkscape:label="xa_sheared"><tspan
         sodipodi:role="line"
         id="tspan3-8"
         style="font-style:normal;font-variant:normal;font-weight:normal;font-stretch:normal;font-size:3.59596px;font-family:'Latin Modern Math';-inkscape-font-specification:'Latin Modern Math';fill:#000080;stroke-width:0.313774"
         x="42.942043"
         y="17.214079"><tspan
           style="font-style:normal;font-variant:normal;font-weight:bold;font-stretch:normal;font-size:3.59596px;font-family:'DejaVu Serif';-inkscape-font-specification:'DejaVu Serif Bold';fill:#000080;stroke-width:0.313774"
           id="tspan1-4">u</tspan></tspan></text>
    <text
       xml:space="preserve"
       style="font-style:normal;font-variant:normal;font-weight:normal;font-stretch:normal;font-size:3.59596px;font-family:'Latin Modern Math';-inkscape-font-specification:'Latin Modern Math';text-align:center;text-anchor:middle;display:inline;fill:#008000;fill-opacity:1;stroke:none;stroke-width:0.313774"
       x="38.689018"
       y="14.689212"
       id="text5-3"
       inkscape:label="xa_sheared"><tspan
         sodipodi:role="line"
         id="tspan5-1"
         style="font-style:normal;font-variant:normal;font-weight:normal;font-stretch:normal;font-size:3.59596px;font-family:'Latin Modern Math';-inkscape-font-specification:'Latin Modern Math';fill:#008000;stroke-width:0.313774"
         x="38.689018"
         y="14.689212"><tspan
           style="font-style:normal;font-variant:normal;font-weight:bold;font-stretch:normal;font-size:3.59596px;font-family:'DejaVu Serif';-inkscape-font-specification:'DejaVu Serif Bold';fill:#008000;stroke-width:0.313774"
           id="tspan4-4">v</tspan></tspan></text>
  </g>
  <g
     inkscape:groupmode="layer"
     id="layer10"
     inkscape:label="ux"
     style="display:none"
     transform="translate(3.4395842,-3.706517)">
    <path
       d="M -59.586568,115.44972 -41.555655,90.692242 H -61.406251 L -79.496322,115.41807 Z"
       style="font-variation-settings:normal;display:inline;opacity:0.265487;vector-effect:none;fill:#000080;fill-opacity:1;stroke:none;stroke-width:0.465;stroke-linecap:butt;stroke-linejoin:miter;stroke-miterlimit:4;stroke-dasharray:none;stroke-dashoffset:0;stroke-opacity:1;-inkscape-stroke:none;marker-end:url(#Triangle)"
       id="path6"
       sodipodi:nodetypes="ccccc"
       transform="translate(96.405684,-68.432527)" />
    <text
       xml:space="preserve"
       style="font-style:normal;font-variant:normal;font-weight:normal;font-stretch:normal;font-size:3.59596px;font-family:'Latin Modern Math';-inkscape-font-specification:'Latin Modern Math';text-align:center;text-anchor:middle;display:inline;fill:#000080;fill-opacity:1;stroke:none;stroke-width:0.313774"
       x="46.970081"
       y="26.76922"
       id="text27-6"
       inkscape:label="xa_sheared"><tspan
         sodipodi:role="line"
         id="tspan27-5"
         style="font-style:normal;font-variant:normal;font-weight:normal;font-stretch:normal;font-size:3.59596px;font-family:'Latin Modern Math';-inkscape-font-specification:'Latin Modern Math';fill:#000080;stroke-width:0.313774"
         x="46.970081"
         y="26.76922"><tspan
   style="font-style:normal;font-variant:normal;font-weight:bold;font-stretch:normal;font-size:3.59596px;font-family:'DejaVu Serif';-inkscape-font-specification:'DejaVu Serif Bold';fill:#000080;stroke-width:0.313774"
   id="tspan25-6">u</tspan>∧<tspan
   style="font-style:normal;font-variant:normal;font-weight:bold;font-stretch:normal;font-size:3.59596px;font-family:'DejaVu Serif';-inkscape-font-specification:'DejaVu Serif';fill:#000080;stroke-width:0.313774"
   id="tspan26-9">x</tspan></tspan></text>
  </g>
  <g
     inkscape:groupmode="layer"
     id="layer11"
     inkscape:label="ux_sheared"
     style="display:none"
     transform="translate(3.4395842,-3.706517)">
    <path
       d="m -59.586568,115.44972 -9.228318,-24.757478 h -19.850593 l 9.169157,24.725828 z"
       style="font-variation-settings:normal;display:inline;opacity:0.265487;vector-effect:none;fill:#000080;fill-opacity:1;stroke:none;stroke-width:0.465;stroke-linecap:butt;stroke-linejoin:miter;stroke-miterlimit:4;stroke-dasharray:none;stroke-dashoffset:0;stroke-opacity:1;-inkscape-stroke:none;marker-end:url(#Triangle)"
       id="path9"
       sodipodi:nodetypes="ccccc"
       transform="translate(96.405684,-68.432527)" />
    <text
       xml:space="preserve"
       style="font-style:normal;font-variant:normal;font-weight:normal;font-stretch:normal;font-size:3.59596px;font-family:'Latin Modern Math';-inkscape-font-specification:'Latin Modern Math';text-align:center;text-anchor:middle;display:inline;fill:#000080;fill-opacity:1;stroke:none;stroke-width:0.313774"
       x="18.397163"
       y="26.769222"
       id="text27"
       inkscape:label="ux_sheared"><tspan
         sodipodi:role="line"
         id="tspan27"
         style="font-style:normal;font-variant:normal;font-weight:normal;font-stretch:normal;font-size:3.59596px;font-family:'Latin Modern Math';-inkscape-font-specification:'Latin Modern Math';fill:#000080;stroke-width:0.313774"
         x="18.397163"
         y="26.769222"><tspan
   style="font-style:normal;font-variant:normal;font-weight:bold;font-stretch:normal;font-size:3.59596px;font-family:'DejaVu Serif';-inkscape-font-specification:'DejaVu Serif Bold';fill:#000080;stroke-width:0.313774"
   id="tspan25">u</tspan>∧<tspan
   style="font-style:normal;font-variant:normal;font-weight:bold;font-stretch:normal;font-size:3.59596px;font-family:'DejaVu Serif';-inkscape-font-specification:'DejaVu Serif';fill:#000080;stroke-width:0.313774"
   id="tspan26">x</tspan></tspan></text>
  </g>
  <g
     inkscape:groupmode="layer"
     id="layer9"
     inkscape:label="xv"
     style="display:none"
     transform="translate(3.4395842,-3.706517)">
    <path
       d="m -79.497082,115.41838 18.090831,-24.726138 -6.932856,-18.553198 -18.059182,24.66698 z"
       style="font-variation-settings:normal;display:inline;opacity:0.265487;vector-effect:none;fill:#00ff00;fill-opacity:1;stroke:none;stroke-width:0.465;stroke-linecap:butt;stroke-linejoin:miter;stroke-miterlimit:4;stroke-dasharray:none;stroke-dashoffset:0;stroke-opacity:1;-inkscape-stroke:none;marker-end:url(#Triangle)"
       id="path10"
       sodipodi:nodetypes="ccccc"
       transform="translate(96.405684,-68.432527)" />
    <text
       xml:space="preserve"
       style="font-style:normal;font-variant:normal;font-weight:normal;font-stretch:normal;font-size:3.59596px;font-family:'Latin Modern Math';-inkscape-font-specification:'Latin Modern Math';text-align:center;text-anchor:middle;display:inline;fill:#008000;fill-opacity:1;stroke:none;stroke-width:0.313774"
       x="27.922163"
       y="16.450468"
       id="text24-5"
       inkscape:label="xa_sheared"><tspan
         sodipodi:role="line"
         id="tspan24-2"
         style="font-style:normal;font-variant:normal;font-weight:normal;font-stretch:normal;font-size:3.59596px;font-family:'Latin Modern Math';-inkscape-font-specification:'Latin Modern Math';fill:#008000;stroke-width:0.313774"
         x="27.922163"
         y="16.450468"><tspan
   style="font-style:normal;font-variant:normal;font-weight:bold;font-stretch:normal;font-size:3.59596px;font-family:'DejaVu Serif';-inkscape-font-specification:'DejaVu Serif Bold';fill:#008000;stroke-width:0.313774"
   id="tspan22-5">x</tspan>∧<tspan
   style="font-style:normal;font-variant:normal;font-weight:bold;font-stretch:normal;font-size:3.59596px;font-family:'DejaVu Serif';-inkscape-font-specification:'DejaVu Serif';fill:#008000;stroke-width:0.313774"
   id="tspan23-4">v</tspan></tspan></text>
  </g>
  <g
     inkscape:groupmode="layer"
     id="layer12"
     inkscape:label="xv_sheared"
     style="display:none"
     transform="translate(3.4395842,-3.706517)">
    <path
       d="m -79.497082,115.41838 27.437943,0.0314 -6.932857,-18.553209 -27.406293,-0.09049 z"
       style="font-variation-settings:normal;display:inline;opacity:0.265487;vector-effect:none;fill:#00ff00;fill-opacity:1;stroke:none;stroke-width:0.465;stroke-linecap:butt;stroke-linejoin:miter;stroke-miterlimit:4;stroke-dasharray:none;stroke-dashoffset:0;stroke-opacity:1;-inkscape-stroke:none;marker-end:url(#Triangle)"
       id="path11"
       sodipodi:nodetypes="ccccc"
       transform="translate(96.405684,-68.432527)" />
    <text
       xml:space="preserve"
       style="font-style:normal;font-variant:normal;font-weight:normal;font-stretch:normal;font-size:3.59596px;font-family:'Latin Modern Math';-inkscape-font-specification:'Latin Modern Math';text-align:center;text-anchor:middle;display:inline;fill:#008000;fill-opacity:1;stroke:none;stroke-width:0.313774"
       x="34.272163"
       y="38.410885"
       id="text24"
       inkscape:label="xa_sheared"><tspan
         sodipodi:role="line"
         id="tspan24"
         style="font-style:normal;font-variant:normal;font-weight:normal;font-stretch:normal;font-size:3.59596px;font-family:'Latin Modern Math';-inkscape-font-specification:'Latin Modern Math';fill:#008000;stroke-width:0.313774"
         x="34.272163"
         y="38.410885"><tspan
   style="font-style:normal;font-variant:normal;font-weight:bold;font-stretch:normal;font-size:3.59596px;font-family:'DejaVu Serif';-inkscape-font-specification:'DejaVu Serif Bold';fill:#008000;stroke-width:0.313774"
   id="tspan22">x</tspan>∧<tspan
   style="font-style:normal;font-variant:normal;font-weight:bold;font-stretch:normal;font-size:3.59596px;font-family:'DejaVu Serif';-inkscape-font-specification:'DejaVu Serif';fill:#008000;stroke-width:0.313774"
   id="tspan23">v</tspan></tspan></text>
  </g>
  <g
     inkscape:groupmode="layer"
     id="layer5"
     inkscape:label="uv"
     style="display:none"
     transform="translate(99.845268,-72.139043)">
    <text
       xml:space="preserve"
       style="font-style:normal;font-variant:normal;font-weight:normal;font-stretch:normal;font-size:3.59596px;font-family:'Latin Modern Math';-inkscape-font-specification:'Latin Modern Math';text-align:center;text-anchor:middle;display:inline;fill:#000000;fill-opacity:1;stroke:none;stroke-width:0.313774"
       x="-72.828674"
       y="107.10799"
       id="text25-6-8"
       inkscape:label="xa_sheared"><tspan
         sodipodi:role="line"
         id="tspan25-3-5"
         style="font-style:normal;font-variant:normal;font-weight:normal;font-stretch:normal;font-size:3.59596px;font-family:'Latin Modern Math';-inkscape-font-specification:'Latin Modern Math';fill:#000000;stroke-width:0.313774"
         x="-72.828674"
         y="107.10799"><tspan
   style="font-style:normal;font-variant:normal;font-weight:bold;font-stretch:normal;font-size:3.59596px;font-family:'DejaVu Serif';-inkscape-font-specification:'DejaVu Serif Bold';fill:#000000;stroke-width:0.313774"
   id="tspan22-9-0">u</tspan>∧<tspan
   style="font-style:normal;font-variant:normal;font-weight:bold;font-stretch:normal;font-size:3.59596px;font-family:'DejaVu Serif';-inkscape-font-specification:'DejaVu Serif';fill:#000000;stroke-width:0.313774"
   id="tspan23-4-9">v</tspan></tspan></text>
  </g>
  <g
     inkscape:groupmode="layer"
     id="layer18"
     inkscape:label="alpha u"
     style="display:none">
    <path
       style="display:inline;fill:#ff0000;stroke:#ff0000;stroke-width:0.465;stroke-dasharray:none;marker-end:url(#Triangle)"
       d="m -79.584082,115.44972 27.524943,1e-5"
       id="path1"
       sodipodi:nodetypes="cc"
       transform="translate(99.845267,-72.139043)" />
    <text
       xml:space="preserve"
       style="font-style:normal;font-variant:normal;font-weight:normal;font-stretch:normal;font-size:3.59596px;font-family:'Latin Modern Math';-inkscape-font-specification:'Latin Modern Math';text-align:center;text-anchor:middle;display:inline;fill:#ff0000;fill-opacity:1;stroke:none;stroke-width:0.313774"
       x="-48.614319"
       y="119.24691"
       id="text35"
       inkscape:label="xa_sheared"
       transform="translate(99.845267,-72.139043)"><tspan
         sodipodi:role="line"
         id="tspan35"
         style="font-style:normal;font-variant:normal;font-weight:normal;font-stretch:normal;font-size:3.59596px;font-family:'Latin Modern Math';-inkscape-font-specification:'Latin Modern Math';fill:#ff0000;stroke-width:0.313774"
         x="-48.614319"
         y="119.24691"><tspan
           style="font-style:normal;font-variant:normal;font-weight:bold;font-stretch:normal;font-size:3.59596px;font-family:'DejaVu Serif';-inkscape-font-specification:'DejaVu Serif Bold';fill:#ff0000;stroke-width:0.313774"
           id="tspan34">u</tspan></tspan></text>
    <g
       id="g33"
       transform="translate(95.611934,-70.022376)"
       style="display:inline">
      <text
         xml:space="preserve"
         style="font-style:normal;font-variant:normal;font-weight:normal;font-stretch:normal;font-size:2.3047px;font-family:'Latin Modern Math';-inkscape-font-specification:'Latin Modern Math';text-align:center;text-anchor:middle;display:inline;fill:#ff0000;fill-opacity:1;stroke:none;stroke-width:0.201102"
         x="-48.073395"
         y="115.59172"
         id="text30"
         inkscape:label="xa_sheared"><tspan
           sodipodi:role="line"
           id="tspan30"
           style="font-style:normal;font-variant:normal;font-weight:normal;font-stretch:normal;font-size:2.3047px;font-family:'Latin Modern Math';-inkscape-font-specification:'Latin Modern Math';fill:#ff0000;stroke-width:0.201102"
           x="-48.073395"
           y="115.59172"><tspan
   style="font-style:normal;font-variant:normal;font-weight:bold;font-stretch:normal;font-size:2.3047px;font-family:'DejaVu Serif';-inkscape-font-specification:'DejaVu Serif Bold';fill:#ff0000;stroke-width:0.201102"
   id="tspan28">q</tspan>∧<tspan
   style="font-style:normal;font-variant:normal;font-weight:bold;font-stretch:normal;font-size:2.3047px;font-family:'DejaVu Serif';-inkscape-font-specification:'DejaVu Serif';fill:#ff0000;stroke-width:0.201102"
   id="tspan29">v</tspan></tspan></text>
      <path
         style="display:inline;fill:#000080;stroke:#ff0000;stroke-width:0.169575"
         d="m -50.135309,116.45631 h 4.245656"
         id="path30" />
      <text
         xml:space="preserve"
         style="font-style:normal;font-variant:normal;font-weight:normal;font-stretch:normal;font-size:2.3047px;font-family:'Latin Modern Math';-inkscape-font-specification:'Latin Modern Math';text-align:center;text-anchor:middle;display:inline;fill:#ff0000;fill-opacity:1;stroke:none;stroke-width:0.201102"
         x="-48.145061"
         y="118.30419"
         id="text33"
         inkscape:label="xa_sheared"><tspan
           sodipodi:role="line"
           id="tspan33"
           style="font-style:normal;font-variant:normal;font-weight:normal;font-stretch:normal;font-size:2.3047px;font-family:'Latin Modern Math';-inkscape-font-specification:'Latin Modern Math';fill:#ff0000;stroke-width:0.201102"
           x="-48.145061"
           y="118.30419"><tspan
   style="font-style:normal;font-variant:normal;font-weight:bold;font-stretch:normal;font-size:2.3047px;font-family:'DejaVu Serif';-inkscape-font-specification:'DejaVu Serif Bold';fill:#ff0000;stroke-width:0.201102"
   id="tspan31">u</tspan>∧<tspan
   style="font-style:normal;font-variant:normal;font-weight:bold;font-stretch:normal;font-size:2.3047px;font-family:'DejaVu Serif';-inkscape-font-specification:'DejaVu Serif';fill:#ff0000;stroke-width:0.201102"
   id="tspan32">v</tspan></tspan></text>
    </g>
  </g>
  <g
     inkscape:groupmode="layer"
     id="layer17"
     inkscape:label="beta v"
     style="display:none">
    <path
       style="font-variation-settings:normal;display:inline;opacity:1;vector-effect:none;fill:#000000;fill-opacity:1;stroke:#ff0000;stroke-width:0.465;stroke-linecap:butt;stroke-linejoin:miter;stroke-miterlimit:4;stroke-dasharray:none;stroke-dashoffset:0;stroke-opacity:1;-inkscape-stroke:none;marker-end:url(#Triangle);stop-color:#000000;stop-opacity:1"
       d="M -79.496322,115.41807 -88.665479,90.692242"
       id="path3"
       sodipodi:nodetypes="cc"
       transform="translate(99.845267,-72.139043)" />
    <g
       id="g37"
       transform="translate(103.02027,-72.139043)"
       style="display:inline">
      <text
         xml:space="preserve"
         style="font-style:normal;font-variant:normal;font-weight:normal;font-stretch:normal;font-size:2.3047px;font-family:'Latin Modern Math';-inkscape-font-specification:'Latin Modern Math';text-align:center;text-anchor:middle;display:inline;fill:#ff0000;fill-opacity:1;stroke:none;stroke-width:0.201102"
         x="-100.66098"
         y="87.545883"
         id="text30-8"
         inkscape:label="xa_sheared"><tspan
           sodipodi:role="line"
           id="tspan30-4"
           style="font-style:normal;font-variant:normal;font-weight:normal;font-stretch:normal;font-size:2.3047px;font-family:'Latin Modern Math';-inkscape-font-specification:'Latin Modern Math';fill:#ff0000;stroke-width:0.201102"
           x="-100.66098"
           y="87.545883"><tspan
   style="font-style:normal;font-variant:normal;font-weight:bold;font-stretch:normal;font-size:2.3047px;font-family:'DejaVu Serif';-inkscape-font-specification:'DejaVu Serif Bold';fill:#ff0000;stroke-width:0.201102"
   id="tspan28-5">u</tspan>∧<tspan
   style="font-style:normal;font-variant:normal;font-weight:bold;font-stretch:normal;font-size:2.3047px;font-family:'DejaVu Serif';-inkscape-font-specification:'DejaVu Serif';fill:#ff0000;stroke-width:0.201102"
   id="tspan29-0">p</tspan></tspan></text>
      <path
         style="display:inline;fill:#000080;stroke:#ff0000;stroke-width:0.169575"
         d="m -102.72289,88.410473 h 4.245654"
         id="path30-3" />
      <text
         xml:space="preserve"
         style="font-style:normal;font-variant:normal;font-weight:normal;font-stretch:normal;font-size:2.3047px;font-family:'Latin Modern Math';-inkscape-font-specification:'Latin Modern Math';text-align:center;text-anchor:middle;display:inline;fill:#ff0000;fill-opacity:1;stroke:none;stroke-width:0.201102"
         x="-100.73264"
         y="90.266281"
         id="text33-6"
         inkscape:label="xa_sheared"><tspan
           sodipodi:role="line"
           id="tspan33-1"
           style="font-style:normal;font-variant:normal;font-weight:normal;font-stretch:normal;font-size:2.3047px;font-family:'Latin Modern Math';-inkscape-font-specification:'Latin Modern Math';fill:#ff0000;stroke-width:0.201102"
           x="-100.73264"
           y="90.266281"><tspan
   style="font-style:normal;font-variant:normal;font-weight:bold;font-stretch:normal;font-size:2.3047px;font-family:'DejaVu Serif';-inkscape-font-specification:'DejaVu Serif Bold';fill:#ff0000;stroke-width:0.201102"
   id="tspan31-0">u</tspan>∧<tspan
   style="font-style:normal;font-variant:normal;font-weight:bold;font-stretch:normal;font-size:2.3047px;font-family:'DejaVu Serif';-inkscape-font-specification:'DejaVu Serif';fill:#ff0000;stroke-width:0.201102"
   id="tspan32-6">v</tspan></tspan></text>
    </g>
    <text
       xml:space="preserve"
       style="font-style:normal;font-variant:normal;font-weight:normal;font-stretch:normal;font-size:3.59596px;font-family:'Latin Modern Math';-inkscape-font-specification:'Latin Modern Math';text-align:center;text-anchor:middle;display:inline;fill:#ff0000;fill-opacity:1;stroke:none;stroke-width:0.313774"
       x="-93.328903"
       y="89.613564"
       id="text37"
       inkscape:label="xa_sheared"
       transform="translate(99.845267,-72.139043)"><tspan
         sodipodi:role="line"
         id="tspan37"
         style="font-style:normal;font-variant:normal;font-weight:normal;font-stretch:normal;font-size:3.59596px;font-family:'Latin Modern Math';-inkscape-font-specification:'Latin Modern Math';fill:#ff0000;stroke-width:0.313774"
         x="-93.328903"
         y="89.613564"><tspan
           style="font-style:normal;font-variant:normal;font-weight:bold;font-stretch:normal;font-size:3.59596px;font-family:'DejaVu Serif';-inkscape-font-specification:'DejaVu Serif Bold';fill:#ff0000;stroke-width:0.313774"
           id="tspan36">v</tspan></tspan></text>
  </g>
  <g
     inkscape:groupmode="layer"
     id="layer15"
     inkscape:label="p">
    <text
       xml:space="preserve"
       style="display:inline;font-style:normal;font-variant:normal;font-weight:normal;font-stretch:normal;font-size:3.59596px;font-family:'Latin Modern Math';-inkscape-font-specification:'Latin Modern Math';text-align:center;text-anchor:middle;fill:#000080;fill-opacity:1;stroke:none;stroke-width:0.313774"
       x="-75.651855"
       y="88.870735"
       id="text21"
       inkscape:label="xa_sheared"
       transform="translate(99.845267,-72.139043)"><tspan
         sodipodi:role="line"
         id="tspan21"
         style="font-style:normal;font-variant:normal;font-weight:normal;font-stretch:normal;font-size:3.59596px;font-family:'Latin Modern Math';-inkscape-font-specification:'Latin Modern Math';fill:#000080;stroke-width:0.313774"
         x="-75.651855"
         y="88.870735"><tspan
           style="font-style:normal;font-variant:normal;font-weight:bold;font-stretch:normal;font-size:3.59596px;font-family:'DejaVu Serif';-inkscape-font-specification:'DejaVu Serif Bold';fill:#000080;stroke-width:0.313774"
           id="tspan16">p</tspan></tspan></text>
    <circle
       style="display:inline;fill:#000080;stroke:none;stroke-width:0.264583"
       id="circle63"
       cx="24.24761"
       cy="18.519159"
       r="0.87258977" />
  </g>
  <g
     inkscape:groupmode="layer"
     id="layer16"
     inkscape:label="q"
     style="display:inline">
    <text
       xml:space="preserve"
       style="font-style:normal;font-variant:normal;font-weight:normal;font-stretch:normal;font-size:3.59596px;font-family:'Latin Modern Math';-inkscape-font-specification:'Latin Modern Math';text-align:center;text-anchor:middle;display:inline;fill:#008000;fill-opacity:1;stroke:none;stroke-width:0.313774"
       x="43.707611"
       y="36.577793"
       id="text7"
       inkscape:label="xa_sheared"
       transform="translate(3.4395841,-3.706517)"><tspan
         sodipodi:role="line"
         id="tspan7"
         style="font-style:normal;font-variant:normal;font-weight:normal;font-stretch:normal;font-size:3.59596px;font-family:'Latin Modern Math';-inkscape-font-specification:'Latin Modern Math';fill:#008000;stroke-width:0.313774"
         x="43.707611"
         y="36.577793"><tspan
           style="font-style:normal;font-variant:normal;font-weight:bold;font-stretch:normal;font-size:3.59596px;font-family:'DejaVu Serif';-inkscape-font-specification:'DejaVu Serif Bold';fill:#008000;stroke-width:0.313774"
           id="tspan6">q</tspan></tspan></text>
    <circle
       style="display:inline;fill:#008000;stroke:none;stroke-width:0.264583"
       id="path63"
       cx="44.376274"
       cy="33.963669"
       r="0.87258977" />
  </g>
  <g
     inkscape:groupmode="layer"
     id="layer13"
     inkscape:label="L">
    <text
       xml:space="preserve"
       style="font-style:normal;font-variant:normal;font-weight:normal;font-stretch:normal;font-size:3.59596px;font-family:'Latin Modern Math';-inkscape-font-specification:'Latin Modern Math';text-align:center;text-anchor:middle;display:inline;fill:#000080;fill-opacity:1;stroke:none;stroke-width:0.313774"
       x="9.8985138"
       y="17.617044"
       id="text10"
       inkscape:label="xa_sheared"><tspan
         sodipodi:role="line"
         id="tspan10"
         style="font-style:italic;font-variant:normal;font-weight:normal;font-stretch:normal;font-size:3.59596px;font-family:'DejaVu Serif';-inkscape-font-specification:'DejaVu Serif Bold';fill:#000080;stroke-width:0.313774"
         x="9.8985138"
         y="17.617044">L</tspan></text>
    <path
       style="display:inline;font-variation-settings:normal;opacity:1;fill:#000080;fill-opacity:1;stroke:#000080;stroke-width:0.0999999;stroke-linecap:butt;stroke-linejoin:miter;stroke-miterlimit:4;stroke-dasharray:none;stroke-dashoffset:0;stroke-opacity:1"
       d="m -91.318408,90.692242 39.147734,-10e-7"
       id="path21"
       transform="translate(99.845267,-72.139043)" />
  </g>
  <g
     inkscape:groupmode="layer"
     id="layer14"
     inkscape:label="M">
    <text
       xml:space="preserve"
       style="font-style:normal;font-variant:normal;font-weight:normal;font-stretch:normal;font-size:3.59596px;font-family:'Latin Modern Math';-inkscape-font-specification:'Latin Modern Math';text-align:center;text-anchor:middle;display:inline;fill:#008000;fill-opacity:1;stroke:none;stroke-width:0.313774"
       x="50.373955"
       y="44.806995"
       id="text9"
       inkscape:label="xa_sheared"><tspan
         sodipodi:role="line"
         id="tspan9"
         style="font-style:italic;font-variant:normal;font-weight:normal;font-stretch:normal;font-size:3.59596px;font-family:'DejaVu Serif';-inkscape-font-specification:'DejaVu Serif Bold';fill:#008000;stroke-width:0.313774"
         x="50.373955"
         y="44.806995">M</tspan></text>
    <path
       style="display:inline;font-variation-settings:normal;opacity:1;fill:#e3e3e3;fill-opacity:0;stroke:#008000;stroke-width:0.0999998;stroke-linecap:butt;stroke-linejoin:miter;stroke-miterlimit:4;stroke-dasharray:none;stroke-dashoffset:0;stroke-opacity:1"
       d="M -51.188767,117.81205 -63.824743,84.07422"
       id="path20"
       sodipodi:nodetypes="cc"
       transform="translate(99.845267,-72.139043)" />
  </g>
  <g
     inkscape:groupmode="layer"
     id="layer8"
     inkscape:label="x"
     style="display:none"
     transform="translate(99.845268,-72.139043)">
    <path
       style="font-variation-settings:normal;display:inline;opacity:1;vector-effect:none;fill:#000000;fill-opacity:1;stroke:#ff0000;stroke-width:0.465;stroke-linecap:butt;stroke-linejoin:miter;stroke-miterlimit:4;stroke-dasharray:none;stroke-dashoffset:0;stroke-opacity:1;-inkscape-stroke:none;marker-end:url(#Triangle);stop-color:#000000;stop-opacity:1"
       d="M -79.408552,115.38643 -61.406251,90.692242"
       id="path2"
       sodipodi:nodetypes="cc" />
    <text
       xml:space="preserve"
       style="font-style:normal;font-variant:normal;font-weight:normal;font-stretch:normal;font-size:3.59596px;font-family:'Latin Modern Math';-inkscape-font-specification:'Latin Modern Math';text-align:center;text-anchor:middle;display:inline;fill:#ff0000;fill-opacity:1;stroke:none;stroke-width:0.313774"
       x="-59.841831"
       y="89.66449"
       id="text15"
       inkscape:label="xa_sheared"><tspan
         sodipodi:role="line"
         id="tspan15"
         style="font-style:normal;font-variant:normal;font-weight:normal;font-stretch:normal;font-size:3.59596px;font-family:'Latin Modern Math';-inkscape-font-specification:'Latin Modern Math';fill:#ff0000;stroke-width:0.313774"
         x="-59.841831"
         y="89.66449"><tspan
           style="font-style:normal;font-variant:normal;font-weight:bold;font-stretch:normal;font-size:3.59596px;font-family:'DejaVu Serif';-inkscape-font-specification:'DejaVu Serif Bold';fill:#ff0000;stroke-width:0.313774"
           id="tspan11">x</tspan></tspan></text>
  </g>
</svg>
