<?xml version="1.0" encoding="UTF-8" standalone="no"?>
<!-- Created with Inkscape (http://www.inkscape.org/) -->

<svg
   width="68.51226mm"
   height="57.134533mm"
   viewBox="0 0 68.51226 57.134533"
   version="1.1"
   id="svg1"
   inkscape:version="1.3.2 (1:1.3.2+202311252150+091e20ef0f)"
   sodipodi:docname="linalg_chp01_outline_06.svg"
   xmlns:inkscape="http://www.inkscape.org/namespaces/inkscape"
   xmlns:sodipodi="http://sodipodi.sourceforge.net/DTD/sodipodi-0.dtd"
   xmlns="http://www.w3.org/2000/svg"
   xmlns:svg="http://www.w3.org/2000/svg">
  <sodipodi:namedview
     id="namedview1"
     pagecolor="#ffffff"
     bordercolor="#000000"
     borderopacity="0.25"
     inkscape:showpageshadow="2"
     inkscape:pageopacity="0.0"
     inkscape:pagecheckerboard="0"
     inkscape:deskcolor="#d1d1d1"
     inkscape:document-units="mm"
     inkscape:zoom="1.0449705"
     inkscape:cx="-61.245746"
     inkscape:cy="327.28195"
     inkscape:window-width="1444"
     inkscape:window-height="1080"
     inkscape:window-x="1811"
     inkscape:window-y="223"
     inkscape:window-maximized="0"
     inkscape:current-layer="g1" />
  <defs
     id="defs1">
    <marker
       style="overflow:visible"
       id="Triangle"
       refX="2"
       refY="0"
       orient="auto-start-reverse"
       inkscape:stockid="Triangle arrow"
       markerWidth="1"
       markerHeight="1"
       viewBox="0 0 1 1"
       inkscape:isstock="true"
       inkscape:collect="always"
       preserveAspectRatio="xMidYMid">
      <path
         transform="scale(0.5)"
         style="fill:context-stroke;fill-rule:evenodd;stroke:context-stroke;stroke-width:1pt"
         d="M 5.77,0 -2.88,5 V -5 Z"
         id="path135" />
    </marker>
  </defs>
  <g
     inkscape:label="Layer 1"
     inkscape:groupmode="layer"
     id="layer1"
     transform="translate(-121.17916,-61.912501)">
    <g
       id="g1"
       transform="translate(-17.991657,-51.85833)">
      <g
         id="g2"
         transform="translate(-36.512498,-65.087502)">
        <rect
           style="fill:none;stroke:#000000;stroke-width:0.365;stroke-dasharray:none"
           id="rect48"
           width="68.147263"
           height="42.380135"
           x="175.86581"
           y="179.04083" />
        <path
           style="fill:none;stroke:#000000;stroke-width:0.565;stroke-dasharray:none;marker-end:url(#Triangle)"
           d="m 206.87498,201.7866 13.03176,11.23135"
           id="path49"
           sodipodi:nodetypes="cc" />
        <path
           style="fill:none;stroke:#000000;stroke-width:0.565;stroke-dasharray:none;marker-end:url(#Triangle)"
           d="m 206.97444,201.61702 15.64463,-7.13091"
           id="path50"
           sodipodi:nodetypes="cc" />
        <text
           xml:space="preserve"
           style="font-size:7.05556px;line-height:normal;font-family:'DejaVu Serif';-inkscape-font-specification:'DejaVu Serif';text-decoration-color:#000000;fill:#000000;stroke:none;stroke-width:0.564999;stroke-dasharray:none"
           x="221.24841"
           y="192.09485"
           id="text50"><tspan
             sodipodi:role="line"
             id="tspan50"
             style="font-weight:bold;fill:#000000;stroke:none;stroke-width:0.565"
             x="221.24841"
             y="192.09485">e<tspan
   style="font-size:65%;baseline-shift:sub"
   id="tspan54">1</tspan></tspan></text>
        <text
           xml:space="preserve"
           style="font-style:normal;font-variant:normal;font-weight:normal;font-stretch:normal;font-size:4.61403px;line-height:0.8;font-family:'DejaVu Serif';-inkscape-font-specification:'DejaVu Serif';font-variant-ligatures:normal;font-variant-position:normal;font-variant-caps:normal;font-variant-numeric:normal;font-variant-alternates:normal;font-variant-east-asian:normal;font-feature-settings:normal;font-variation-settings:normal;text-indent:0;text-align:center;text-decoration-line:none;text-decoration-style:solid;text-decoration-color:#000000;letter-spacing:normal;word-spacing:normal;text-transform:none;writing-mode:lr-tb;direction:ltr;text-orientation:mixed;dominant-baseline:auto;baseline-shift:baseline;text-anchor:middle;white-space:pre;vector-effect:none;fill:#000000;fill-opacity:1;stroke:none;stroke-width:0.565;stroke-linecap:butt;stroke-linejoin:miter;stroke-miterlimit:4;stroke-dasharray:none;stroke-dashoffset:0;stroke-opacity:1;-inkscape-stroke:none;stop-color:#000000"
           x="209.93042"
           y="228.68303"
           id="text52"><tspan
             sodipodi:role="line"
             id="tspan52"
             style="font-style:normal;font-variant:normal;font-weight:normal;font-stretch:normal;font-size:4.61403px;line-height:0.8;font-family:'DejaVu Serif';-inkscape-font-specification:'DejaVu Serif';font-variant-ligatures:normal;font-variant-position:normal;font-variant-caps:normal;font-variant-numeric:normal;font-variant-alternates:normal;font-variant-east-asian:normal;font-feature-settings:normal;font-variation-settings:normal;text-indent:0;text-align:center;text-decoration-line:none;text-decoration-style:solid;text-decoration-color:#000000;letter-spacing:normal;word-spacing:normal;text-transform:none;writing-mode:lr-tb;direction:ltr;text-orientation:mixed;dominant-baseline:auto;baseline-shift:baseline;text-anchor:middle;white-space:pre;vector-effect:none;fill:#000000;fill-opacity:1;stroke:none;stroke-width:0.565;stroke-linecap:butt;stroke-linejoin:miter;stroke-miterlimit:4;stroke-dasharray:none;stroke-dashoffset:0;stroke-opacity:1;-inkscape-stroke:none;stop-color:#000000;stop-opacity:1"
             x="209.93042"
             y="228.68303">Basis</tspan></text>
        <path
           style="font-variation-settings:normal;vector-effect:none;fill:none;fill-opacity:1;stroke:#000000;stroke-width:0.565;stroke-linecap:butt;stroke-linejoin:miter;stroke-miterlimit:4;stroke-dasharray:none;stroke-dashoffset:0;stroke-opacity:1;-inkscape-stroke:none;marker-end:url(#Triangle);stop-color:#000000"
           d="M 206.87498,201.7866 V 184.33251"
           id="path53"
           sodipodi:nodetypes="cc" />
        <text
           xml:space="preserve"
           style="font-size:7.05556px;line-height:normal;font-family:'DejaVu Serif';-inkscape-font-specification:'DejaVu Serif';text-decoration-color:#000000;fill:#000000;stroke:none;stroke-width:0.564999;stroke-dasharray:none"
           x="221.24841"
           y="213.26154"
           id="text56"><tspan
             sodipodi:role="line"
             id="tspan56"
             style="font-weight:bold;fill:#000000;stroke:none;stroke-width:0.565"
             x="221.24841"
             y="213.26154">e<tspan
   style="font-size:65%;baseline-shift:sub"
   id="tspan55">2</tspan></tspan></text>
        <text
           xml:space="preserve"
           style="font-size:7.05556px;line-height:normal;font-family:'DejaVu Serif';-inkscape-font-specification:'DejaVu Serif';text-decoration-color:#000000;fill:#000000;stroke:none;stroke-width:0.564999;stroke-dasharray:none"
           x="195.84839"
           y="186.80318"
           id="text58"><tspan
             sodipodi:role="line"
             id="tspan58"
             style="font-weight:bold;fill:#000000;stroke:none;stroke-width:0.565"
             x="195.84839"
             y="186.80318">e<tspan
   style="font-size:65%;baseline-shift:sub"
   id="tspan57">3</tspan></tspan></text>
        <text
           xml:space="preserve"
           style="font-style:normal;font-variant:normal;font-weight:normal;font-stretch:normal;font-size:4.61403px;line-height:0.8;font-family:'DejaVu Serif';-inkscape-font-specification:'DejaVu Serif';font-variant-ligatures:normal;font-variant-position:normal;font-variant-caps:normal;font-variant-numeric:normal;font-variant-alternates:normal;font-variant-east-asian:normal;font-feature-settings:normal;font-variation-settings:normal;text-indent:0;text-align:center;text-decoration-line:none;text-decoration-style:solid;text-decoration-color:#000000;letter-spacing:normal;word-spacing:normal;text-transform:none;writing-mode:lr-tb;direction:ltr;text-orientation:mixed;dominant-baseline:auto;baseline-shift:baseline;text-anchor:middle;white-space:pre;vector-effect:none;fill:#000000;fill-opacity:1;stroke:none;stroke-width:0.565;stroke-linecap:butt;stroke-linejoin:miter;stroke-miterlimit:4;stroke-dasharray:none;stroke-dashoffset:0;stroke-opacity:1;-inkscape-stroke:none;stop-color:#000000"
           x="209.87634"
           y="235.03311"
           id="text59"><tspan
             sodipodi:role="line"
             id="tspan59"
             style="font-style:normal;font-variant:normal;font-weight:normal;font-stretch:normal;font-size:4.61403px;line-height:0.8;font-family:'DejaVu Serif';-inkscape-font-specification:'DejaVu Serif';font-variant-ligatures:normal;font-variant-position:normal;font-variant-caps:normal;font-variant-numeric:normal;font-variant-alternates:normal;font-variant-east-asian:normal;font-feature-settings:normal;font-variation-settings:normal;text-indent:0;text-align:center;text-decoration-line:none;text-decoration-style:solid;text-decoration-color:#000000;letter-spacing:normal;word-spacing:normal;text-transform:none;writing-mode:lr-tb;direction:ltr;text-orientation:mixed;dominant-baseline:auto;baseline-shift:baseline;text-anchor:middle;white-space:pre;vector-effect:none;fill:#000000;fill-opacity:1;stroke:none;stroke-width:0.565;stroke-linecap:butt;stroke-linejoin:miter;stroke-miterlimit:4;stroke-dasharray:none;stroke-dashoffset:0;stroke-opacity:1;-inkscape-stroke:none;stop-color:#000000;stop-opacity:1"
             x="209.87634"
             y="235.03311">Dimension</tspan></text>
      </g>
    </g>
  </g>
</svg>
