<svg width="210mm" height="297mm" version="1.1" viewBox="0 0 210 297" xmlns="http://www.w3.org/2000/svg">
 <g fill="none" stroke="#000">
  <g>
   <path d="m71.73 140.92-52.861 46.828" stroke-width=".365"/>
   <path d="m61.001 187.75 29.381-46.828" stroke-width=".665"/>
   <path d="m18.869 139.84 52.861-19.986v21.066l38.696-0.045-3.5173 46.873v1e-5h-88.039z" stroke-width=".365"/>
   <path d="m71.73 130.39-52.861 33.407" stroke-width=".665"/>
  </g>
  <g stroke-width=".365">
   <path d="m71.73 130.39h18.652v10.533" stroke-dasharray="1.46,1.46"/>
   <path d="m61.001 163.79 29.381-33.407"/>
   <path d="m18.869 163.79h42.132v23.954" stroke-dasharray="1.46,1.46"/>
  </g>
 </g>
 <g fill="#000000" font-family="'DejaVu Serif'" font-size="7.0556px" stroke-width=".565">
  <text x="75.577751" y="169.38348" style="line-height:normal;text-decoration-color:#000000" xml:space="preserve"><tspan x="75.577751" y="169.38348" fill="#000000" font-family="'Latin Modern Roman'" stroke-width=".565">s'</tspan></text>
  <text x="94.170601" y="165.60529" style="line-height:normal;text-decoration-color:#000000" xml:space="preserve"><tspan x="94.170601" y="165.60529" fill="#000000" font-family="'Latin Modern Roman'" stroke-width=".565">p'</tspan></text>
  <text x="48.055805" y="137.10049" style="line-height:normal;text-decoration-color:#000000" xml:space="preserve"><tspan x="48.055805" y="137.10049" fill="#000000" font-family="'Latin Modern Roman'" stroke-width=".565">p</tspan></text>
  <text x="38.536083" y="148.2168" style="line-height:normal;text-decoration-color:#000000" xml:space="preserve"><tspan x="38.536083" y="148.2168" fill="#000000" font-family="'Latin Modern Roman'" stroke-width=".565">s</tspan></text>
 </g>
 <g>
  <circle cx="53.072" cy="133.3" r=".81073"/>
  <circle cx="95.405" cy="159.76" r=".81073"/>
  <path d="m53.072 133.3 42.333 26.458" stroke="#000" stroke-width=".365"/>
 </g>
 <text x="73.203621" y="154.74985" fill="#000000" font-family="'DejaVu Serif'" font-size="7.0556px" stroke-width=".565" style="line-height:normal;text-decoration-color:#000000" xml:space="preserve"><tspan x="73.203621" y="154.74985" fill="#000000" font-family="'Latin Modern Roman'" stroke-width=".565">O</tspan></text>
 <circle cx="75.496" cy="147.31" r=".81073"/>
</svg>
